EESchema Schematic File Version 4
EELAYER 30 0
EELAYER END
$Descr A4 11693 8268
encoding utf-8
Sheet 2 14
Title ""
Date ""
Rev ""
Comp ""
Comment1 ""
Comment2 ""
Comment3 ""
Comment4 ""
$EndDescr
Text HLabel 5650 1850 0    50   Input ~ 0
Door1B
Text HLabel 4800 1850 2    50   Input ~ 0
Door1A
Text HLabel 5650 3800 0    50   Input ~ 0
Door2B
Text HLabel 4800 3800 2    50   Input ~ 0
Door2A
Text HLabel 6550 1950 0    50   Output ~ 0
Door1OpenOut
$Comp
L interlock:OS102011MS2QN1 S?
U 1 1 61691E2C
P 6900 1950
AR Path="/61119591/61691E2C" Ref="S?"  Part="1" 
AR Path="/614C2E34/61691E2C" Ref="S?"  Part="1" 
AR Path="/614C4D35/61691E2C" Ref="S?"  Part="1" 
AR Path="/61093DB5/61691E2C" Ref="S2"  Part="1" 
F 0 "S2" H 7020 1996 50  0000 L CNN
F 1 "SW" H 7020 1905 50  0000 L CNN
F 2 "interlock:SW_OS102011MS2QN1" H 6900 1950 50  0001 L BNN
F 3 "" H 6900 1950 50  0001 L BNN
F 4 "C&K" H 6900 1950 50  0001 L BNN "MANUFACTURER"
F 5 "MANUFACTURER RECOMMENDATIONS" H 6900 1950 50  0001 L BNN "STANDARD"
	1    6900 1950
	1    0    0    -1  
$EndComp
$Comp
L power:GND #PWR?
U 1 1 61691E32
P 6600 2050
AR Path="/61119591/61691E32" Ref="#PWR?"  Part="1" 
AR Path="/614C2E34/61691E32" Ref="#PWR?"  Part="1" 
AR Path="/614C4D35/61691E32" Ref="#PWR?"  Part="1" 
AR Path="/61093DB5/61691E32" Ref="#PWR04"  Part="1" 
F 0 "#PWR04" H 6600 1800 50  0001 C CNN
F 1 "GND" H 6605 1877 50  0000 C CNN
F 2 "" H 6600 2050 50  0001 C CNN
F 3 "" H 6600 2050 50  0001 C CNN
	1    6600 2050
	1    0    0    -1  
$EndComp
Wire Wire Line
	6700 2050 6600 2050
Wire Wire Line
	6700 1950 6550 1950
Text HLabel 6550 3900 0    50   Output ~ 0
Door2OpenOut
$Comp
L interlock:OS102011MS2QN1 S?
U 1 1 61693628
P 6900 3900
AR Path="/61119591/61693628" Ref="S?"  Part="1" 
AR Path="/614C2E34/61693628" Ref="S?"  Part="1" 
AR Path="/614C4D35/61693628" Ref="S?"  Part="1" 
AR Path="/61093DB5/61693628" Ref="S3"  Part="1" 
F 0 "S3" H 7020 3946 50  0000 L CNN
F 1 "SW" H 7020 3855 50  0000 L CNN
F 2 "interlock:SW_OS102011MS2QN1" H 6900 3900 50  0001 L BNN
F 3 "" H 6900 3900 50  0001 L BNN
F 4 "C&K" H 6900 3900 50  0001 L BNN "MANUFACTURER"
F 5 "MANUFACTURER RECOMMENDATIONS" H 6900 3900 50  0001 L BNN "STANDARD"
	1    6900 3900
	1    0    0    -1  
$EndComp
$Comp
L power:GND #PWR?
U 1 1 6169362E
P 6600 4000
AR Path="/61119591/6169362E" Ref="#PWR?"  Part="1" 
AR Path="/614C2E34/6169362E" Ref="#PWR?"  Part="1" 
AR Path="/614C4D35/6169362E" Ref="#PWR?"  Part="1" 
AR Path="/61093DB5/6169362E" Ref="#PWR07"  Part="1" 
F 0 "#PWR07" H 6600 3750 50  0001 C CNN
F 1 "GND" H 6605 3827 50  0000 C CNN
F 2 "" H 6600 4000 50  0001 C CNN
F 3 "" H 6600 4000 50  0001 C CNN
	1    6600 4000
	1    0    0    -1  
$EndComp
Wire Wire Line
	6700 4000 6600 4000
Wire Wire Line
	6700 3900 6550 3900
Wire Wire Line
	5950 3800 6700 3800
Wire Wire Line
	5650 3800 5950 3800
Connection ~ 5950 3800
Wire Wire Line
	5950 3950 5950 3800
Wire Wire Line
	5950 4250 5950 4650
$Comp
L power:GND #PWR?
U 1 1 6109C5E4
P 5950 4650
AR Path="/61044A2C/6109C5E4" Ref="#PWR?"  Part="1" 
AR Path="/61086D02/6109C5E4" Ref="#PWR?"  Part="1" 
AR Path="/6108D87D/6109C5E4" Ref="#PWR?"  Part="1" 
AR Path="/61093DB5/6109C5E4" Ref="#PWR08"  Part="1" 
F 0 "#PWR08" H 5950 4400 50  0001 C CNN
F 1 "GND" H 5955 4477 50  0000 C CNN
F 2 "" H 5950 4650 50  0001 C CNN
F 3 "" H 5950 4650 50  0001 C CNN
	1    5950 4650
	1    0    0    -1  
$EndComp
$Comp
L Device:C C?
U 1 1 6109C5DE
P 5950 4100
AR Path="/61044A2C/6109C5DE" Ref="C?"  Part="1" 
AR Path="/61086D02/6109C5DE" Ref="C?"  Part="1" 
AR Path="/6108D87D/6109C5DE" Ref="C?"  Part="1" 
AR Path="/61093DB5/6109C5DE" Ref="C2"  Part="1" 
F 0 "C2" H 6065 4146 50  0000 L CNN
F 1 "15pF" H 6065 4055 50  0000 L CNN
F 2 "Capacitor_SMD:C_0805_2012Metric" H 5988 3950 50  0001 C CNN
F 3 "~" H 5950 4100 50  0001 C CNN
	1    5950 4100
	1    0    0    -1  
$EndComp
Wire Wire Line
	3900 3910 3900 3800
$Comp
L power:GND #PWR?
U 1 1 612DA855
P 3900 3910
AR Path="/61044A2C/612DA855" Ref="#PWR?"  Part="1" 
AR Path="/61086D02/612DA855" Ref="#PWR?"  Part="1" 
AR Path="/6108D87D/612DA855" Ref="#PWR?"  Part="1" 
AR Path="/61093DB5/612DA855" Ref="#PWR06"  Part="1" 
F 0 "#PWR06" H 3900 3660 50  0001 C CNN
F 1 "GND" H 3905 3737 50  0000 C CNN
F 2 "" H 3900 3910 50  0001 C CNN
F 3 "" H 3900 3910 50  0001 C CNN
	1    3900 3910
	1    0    0    -1  
$EndComp
Wire Wire Line
	4800 3800 3900 3800
Wire Wire Line
	5950 1850 6700 1850
Wire Wire Line
	5650 1850 5950 1850
Connection ~ 5950 1850
Wire Wire Line
	5950 2000 5950 1850
$Comp
L power:GND #PWR?
U 1 1 612D88DB
P 5950 2700
AR Path="/61044A2C/612D88DB" Ref="#PWR?"  Part="1" 
AR Path="/61086D02/612D88DB" Ref="#PWR?"  Part="1" 
AR Path="/6108D87D/612D88DB" Ref="#PWR?"  Part="1" 
AR Path="/61093DB5/612D88DB" Ref="#PWR05"  Part="1" 
F 0 "#PWR05" H 5950 2450 50  0001 C CNN
F 1 "GND" H 5955 2527 50  0000 C CNN
F 2 "" H 5950 2700 50  0001 C CNN
F 3 "" H 5950 2700 50  0001 C CNN
	1    5950 2700
	1    0    0    -1  
$EndComp
Wire Wire Line
	5950 2300 5950 2700
$Comp
L Device:C C?
U 1 1 6116FB1C
P 5950 2150
AR Path="/61044A2C/6116FB1C" Ref="C?"  Part="1" 
AR Path="/61086D02/6116FB1C" Ref="C?"  Part="1" 
AR Path="/6108D87D/6116FB1C" Ref="C?"  Part="1" 
AR Path="/61093DB5/6116FB1C" Ref="C1"  Part="1" 
F 0 "C1" H 6065 2196 50  0000 L CNN
F 1 "15pF" H 6065 2105 50  0000 L CNN
F 2 "Capacitor_SMD:C_0805_2012Metric" H 5988 2000 50  0001 C CNN
F 3 "~" H 5950 2150 50  0001 C CNN
	1    5950 2150
	1    0    0    -1  
$EndComp
Text Notes 4500 1690 0    50   ~ 0
Switch will open when door opens.
Wire Wire Line
	4800 1850 3900 1850
$Comp
L power:GND #PWR?
U 1 1 610599C9
P 3900 1960
AR Path="/61044A2C/610599C9" Ref="#PWR?"  Part="1" 
AR Path="/61086D02/610599C9" Ref="#PWR?"  Part="1" 
AR Path="/6108D87D/610599C9" Ref="#PWR?"  Part="1" 
AR Path="/61093DB5/610599C9" Ref="#PWR03"  Part="1" 
F 0 "#PWR03" H 3900 1710 50  0001 C CNN
F 1 "GND" H 3905 1787 50  0000 C CNN
F 2 "" H 3900 1960 50  0001 C CNN
F 3 "" H 3900 1960 50  0001 C CNN
	1    3900 1960
	1    0    0    -1  
$EndComp
Wire Wire Line
	3900 1960 3900 1850
$Comp
L Device:R R?
U 1 1 614CF465
P 5950 1450
AR Path="/61044A2C/614CF465" Ref="R?"  Part="1" 
AR Path="/61086D02/614CF465" Ref="R?"  Part="1" 
AR Path="/61422789/614CF465" Ref="R?"  Part="1" 
AR Path="/61422AED/614CF465" Ref="R?"  Part="1" 
AR Path="/61424501/614CF465" Ref="R?"  Part="1" 
AR Path="/6142478E/614CF465" Ref="R?"  Part="1" 
AR Path="/614278B4/614CF465" Ref="R?"  Part="1" 
AR Path="/6143F4F0/614CF465" Ref="R?"  Part="1" 
AR Path="/61093DB5/614CF465" Ref="R62"  Part="1" 
F 0 "R62" V 6050 1450 50  0000 C CNN
F 1 "50k" V 5950 1450 50  0000 C CNN
F 2 "Resistor_SMD:R_0805_2012Metric" V 5880 1450 50  0001 C CNN
F 3 "~" H 5950 1450 50  0001 C CNN
	1    5950 1450
	-1   0    0    1   
$EndComp
Wire Wire Line
	5950 1850 5950 1600
$Comp
L Device:R R?
U 1 1 614D1C7C
P 5950 3550
AR Path="/61044A2C/614D1C7C" Ref="R?"  Part="1" 
AR Path="/61086D02/614D1C7C" Ref="R?"  Part="1" 
AR Path="/61422789/614D1C7C" Ref="R?"  Part="1" 
AR Path="/61422AED/614D1C7C" Ref="R?"  Part="1" 
AR Path="/61424501/614D1C7C" Ref="R?"  Part="1" 
AR Path="/6142478E/614D1C7C" Ref="R?"  Part="1" 
AR Path="/614278B4/614D1C7C" Ref="R?"  Part="1" 
AR Path="/6143F4F0/614D1C7C" Ref="R?"  Part="1" 
AR Path="/61093DB5/614D1C7C" Ref="R63"  Part="1" 
F 0 "R63" V 6050 3550 50  0000 C CNN
F 1 "50k" V 5950 3550 50  0000 C CNN
F 2 "Resistor_SMD:R_0805_2012Metric" V 5880 3550 50  0001 C CNN
F 3 "~" H 5950 3550 50  0001 C CNN
	1    5950 3550
	-1   0    0    1   
$EndComp
Wire Wire Line
	5950 3800 5950 3700
$Comp
L power:+12V #PWR?
U 1 1 618BC4E0
P 5950 1000
AR Path="/61044A2C/618BC4E0" Ref="#PWR?"  Part="1" 
AR Path="/61086D02/618BC4E0" Ref="#PWR?"  Part="1" 
AR Path="/61422789/618BC4E0" Ref="#PWR?"  Part="1" 
AR Path="/61422AED/618BC4E0" Ref="#PWR?"  Part="1" 
AR Path="/61424501/618BC4E0" Ref="#PWR?"  Part="1" 
AR Path="/6142478E/618BC4E0" Ref="#PWR?"  Part="1" 
AR Path="/614278B4/618BC4E0" Ref="#PWR?"  Part="1" 
AR Path="/61093DB5/618BC4E0" Ref="#PWR0207"  Part="1" 
F 0 "#PWR0207" H 5950 850 50  0001 C CNN
F 1 "+12V" H 5965 1173 50  0000 C CNN
F 2 "" H 5950 1000 50  0001 C CNN
F 3 "" H 5950 1000 50  0001 C CNN
	1    5950 1000
	1    0    0    -1  
$EndComp
$Comp
L Device:LED D?
U 1 1 618BC4E6
P 5950 1150
AR Path="/61119591/618BC4E6" Ref="D?"  Part="1" 
AR Path="/614C2E34/618BC4E6" Ref="D?"  Part="1" 
AR Path="/614C4D35/618BC4E6" Ref="D?"  Part="1" 
AR Path="/61422AED/618BC4E6" Ref="D?"  Part="1" 
AR Path="/61093DB5/618BC4E6" Ref="D23"  Part="1" 
F 0 "D23" V 5989 1032 50  0000 R CNN
F 1 "LED" V 5898 1032 50  0000 R CNN
F 2 "LED_SMD:LED_1206_3216Metric_Pad1.42x1.75mm_HandSolder" H 5950 1150 50  0001 C CNN
F 3 "~" H 5950 1150 50  0001 C CNN
	1    5950 1150
	0    -1   -1   0   
$EndComp
$Comp
L power:+12V #PWR?
U 1 1 618BD97A
P 5950 3100
AR Path="/61044A2C/618BD97A" Ref="#PWR?"  Part="1" 
AR Path="/61086D02/618BD97A" Ref="#PWR?"  Part="1" 
AR Path="/61422789/618BD97A" Ref="#PWR?"  Part="1" 
AR Path="/61422AED/618BD97A" Ref="#PWR?"  Part="1" 
AR Path="/61424501/618BD97A" Ref="#PWR?"  Part="1" 
AR Path="/6142478E/618BD97A" Ref="#PWR?"  Part="1" 
AR Path="/614278B4/618BD97A" Ref="#PWR?"  Part="1" 
AR Path="/61093DB5/618BD97A" Ref="#PWR0219"  Part="1" 
F 0 "#PWR0219" H 5950 2950 50  0001 C CNN
F 1 "+12V" H 5965 3273 50  0000 C CNN
F 2 "" H 5950 3100 50  0001 C CNN
F 3 "" H 5950 3100 50  0001 C CNN
	1    5950 3100
	1    0    0    -1  
$EndComp
$Comp
L Device:LED D?
U 1 1 618BD980
P 5950 3250
AR Path="/61119591/618BD980" Ref="D?"  Part="1" 
AR Path="/614C2E34/618BD980" Ref="D?"  Part="1" 
AR Path="/614C4D35/618BD980" Ref="D?"  Part="1" 
AR Path="/61422AED/618BD980" Ref="D?"  Part="1" 
AR Path="/61093DB5/618BD980" Ref="D24"  Part="1" 
F 0 "D24" V 5989 3132 50  0000 R CNN
F 1 "LED" V 5898 3132 50  0000 R CNN
F 2 "LED_SMD:LED_1206_3216Metric_Pad1.42x1.75mm_HandSolder" H 5950 3250 50  0001 C CNN
F 3 "~" H 5950 3250 50  0001 C CNN
	1    5950 3250
	0    -1   -1   0   
$EndComp
$EndSCHEMATC
