EESchema Schematic File Version 4
EELAYER 30 0
EELAYER END
$Descr A4 11693 8268
encoding utf-8
Sheet 5 14
Title ""
Date ""
Rev ""
Comp ""
Comment1 ""
Comment2 ""
Comment3 ""
Comment4 ""
$EndDescr
$Comp
L Connector:Barrel_Jack_Switch J4
U 1 1 6126851A
P 1210 1935
F 0 "J4" H 1267 2252 50  0000 C CNN
F 1 "Barrel_Jack_Switch" H 1267 2161 50  0000 C CNN
F 2 "Connector_BarrelJack:BarrelJack_Wuerth_6941xx301002" H 1260 1895 50  0001 C CNN
F 3 "~" H 1260 1895 50  0001 C CNN
	1    1210 1935
	1    0    0    -1  
$EndComp
$Comp
L power:+12V #PWR059
U 1 1 612695E2
P 3820 1740
F 0 "#PWR059" H 3820 1590 50  0001 C CNN
F 1 "+12V" H 3835 1913 50  0000 C CNN
F 2 "" H 3820 1740 50  0001 C CNN
F 3 "" H 3820 1740 50  0001 C CNN
	1    3820 1740
	1    0    0    -1  
$EndComp
$Comp
L power:GND #PWR061
U 1 1 61269925
P 3820 2140
F 0 "#PWR061" H 3820 1890 50  0001 C CNN
F 1 "GND" H 3825 1967 50  0000 C CNN
F 2 "" H 3820 2140 50  0001 C CNN
F 3 "" H 3820 2140 50  0001 C CNN
	1    3820 2140
	1    0    0    -1  
$EndComp
Wire Wire Line
	2010 1835 1780 1835
$Comp
L dk_PMIC-Voltage-Regulators-Linear:L4931CZ50-AP U6
U 1 1 612733BD
P 6075 1750
F 0 "U6" H 6075 2037 60  0000 C CNN
F 1 "L4931CZ50-AP" H 6075 1931 60  0000 C CNN
F 2 "digikey-footprints:TO-92-3_Formed_Leads" H 6275 1950 60  0001 L CNN
F 3 "http://www.st.com/content/ccc/resource/technical/document/datasheet/ff/95/2f/6a/75/70/42/49/CD00000971.pdf/files/CD00000971.pdf/jcr:content/translations/en.CD00000971.pdf" H 6275 2050 60  0001 L CNN
F 4 "497-5838-1-ND" H 6275 2150 60  0001 L CNN "Digi-Key_PN"
F 5 "L4931CZ50-AP" H 6275 2250 60  0001 L CNN "MPN"
F 6 "Integrated Circuits (ICs)" H 6275 2350 60  0001 L CNN "Category"
F 7 "PMIC - Voltage Regulators - Linear" H 6275 2450 60  0001 L CNN "Family"
F 8 "http://www.st.com/content/ccc/resource/technical/document/datasheet/ff/95/2f/6a/75/70/42/49/CD00000971.pdf/files/CD00000971.pdf/jcr:content/translations/en.CD00000971.pdf" H 6275 2550 60  0001 L CNN "DK_Datasheet_Link"
F 9 "/product-detail/en/stmicroelectronics/L4931CZ50-AP/497-5838-1-ND/1506450" H 6275 2650 60  0001 L CNN "DK_Detail_Page"
F 10 "IC REG LINEAR 5V 250MA TO92-3" H 6275 2750 60  0001 L CNN "Description"
F 11 "STMicroelectronics" H 6275 2850 60  0001 L CNN "Manufacturer"
F 12 "Active" H 6275 2950 60  0001 L CNN "Status"
	1    6075 1750
	1    0    0    -1  
$EndComp
$Comp
L power:+12V #PWR060
U 1 1 61273F55
P 5525 1750
F 0 "#PWR060" H 5525 1600 50  0001 C CNN
F 1 "+12V" H 5540 1923 50  0000 C CNN
F 2 "" H 5525 1750 50  0001 C CNN
F 3 "" H 5525 1750 50  0001 C CNN
	1    5525 1750
	1    0    0    -1  
$EndComp
Wire Wire Line
	5775 1750 5525 1750
$Comp
L Device:C C17
U 1 1 61278792
P 5525 1950
F 0 "C17" H 5640 1996 50  0000 L CNN
F 1 "0.1uF" H 5640 1905 50  0000 L CNN
F 2 "Capacitor_SMD:C_0805_2012Metric" H 5563 1800 50  0001 C CNN
F 3 "~" H 5525 1950 50  0001 C CNN
	1    5525 1950
	1    0    0    -1  
$EndComp
$Comp
L power:GND #PWR062
U 1 1 61278798
P 5525 2225
F 0 "#PWR062" H 5525 1975 50  0001 C CNN
F 1 "GND" H 5530 2052 50  0000 C CNN
F 2 "" H 5525 2225 50  0001 C CNN
F 3 "" H 5525 2225 50  0001 C CNN
	1    5525 2225
	1    0    0    -1  
$EndComp
Wire Wire Line
	5525 2100 5525 2150
Wire Wire Line
	5525 1800 5525 1750
Connection ~ 5525 1750
$Comp
L Device:C C18
U 1 1 61279BB4
P 6525 1950
F 0 "C18" H 6640 1996 50  0000 L CNN
F 1 "0.1uF" H 6640 1905 50  0000 L CNN
F 2 "Capacitor_SMD:C_0805_2012Metric" H 6563 1800 50  0001 C CNN
F 3 "~" H 6525 1950 50  0001 C CNN
	1    6525 1950
	1    0    0    -1  
$EndComp
$Comp
L power:GND #PWR063
U 1 1 61279BBA
P 6525 2225
F 0 "#PWR063" H 6525 1975 50  0001 C CNN
F 1 "GND" H 6530 2052 50  0000 C CNN
F 2 "" H 6525 2225 50  0001 C CNN
F 3 "" H 6525 2225 50  0001 C CNN
	1    6525 2225
	1    0    0    -1  
$EndComp
Wire Wire Line
	6525 2100 6525 2225
Wire Wire Line
	6525 1800 6525 1750
Wire Wire Line
	6525 1750 6375 1750
Wire Wire Line
	6075 2050 6075 2150
Wire Wire Line
	6075 2150 5525 2150
Connection ~ 5525 2150
Wire Wire Line
	5525 2150 5525 2225
$Comp
L power:+5V #PWR058
U 1 1 6127B4DC
P 6525 1650
F 0 "#PWR058" H 6525 1500 50  0001 C CNN
F 1 "+5V" H 6540 1823 50  0000 C CNN
F 2 "" H 6525 1650 50  0001 C CNN
F 3 "" H 6525 1650 50  0001 C CNN
	1    6525 1650
	1    0    0    -1  
$EndComp
Wire Wire Line
	6525 1750 6525 1650
Connection ~ 6525 1750
$Comp
L interlock:TEM_3-1212N PS1
U 1 1 6126CF3A
P 3020 1940
F 0 "PS1" H 3020 2407 50  0000 C CNN
F 1 "TEM_3-1212N" H 3020 2316 50  0000 C CNN
F 2 "interlock:CONV_TEM_3-1212N" H 3020 1940 50  0001 L BNN
F 3 "" H 3020 1940 50  0001 L BNN
F 4 "Traco Power" H 3020 1940 50  0001 L BNN "MANUFACTURER"
F 5 "Manufacturer Recommendations" H 3020 1940 50  0001 L BNN "STANDARD"
F 6 "10.7mm" H 3020 1940 50  0001 L BNN "MAXIMUM_PACKAGE_HEIGHT"
F 7 "March 31, 2021" H 3020 1940 50  0001 L BNN "PARTREV"
	1    3020 1940
	1    0    0    -1  
$EndComp
Wire Wire Line
	2010 1835 2010 1740
Wire Wire Line
	2010 1740 2220 1740
Wire Wire Line
	2010 2035 2010 2140
Wire Wire Line
	2010 2140 2220 2140
$Comp
L Connector_Generic:Conn_01x01 J9
U 1 1 6128CD17
P 1740 3590
F 0 "J9" V 1612 3670 50  0000 L CNN
F 1 "Conn_01x01" V 1703 3670 50  0000 L CNN
F 2 "interlock:BigPad" H 1740 3590 50  0001 C CNN
F 3 "~" H 1740 3590 50  0001 C CNN
	1    1740 3590
	0    1    1    0   
$EndComp
$Comp
L Connector_Generic:Conn_01x01 J8
U 1 1 61290F26
P 2585 3585
F 0 "J8" V 2457 3665 50  0000 L CNN
F 1 "Conn_01x01" V 2548 3665 50  0000 L CNN
F 2 "interlock:BigPad" H 2585 3585 50  0001 C CNN
F 3 "~" H 2585 3585 50  0001 C CNN
	1    2585 3585
	0    1    1    0   
$EndComp
$Comp
L Connector_Generic:Conn_01x01 J6
U 1 1 612913A2
P 3440 3570
F 0 "J6" V 3312 3650 50  0000 L CNN
F 1 "Conn_01x01" V 3403 3650 50  0000 L CNN
F 2 "interlock:BigPad" H 3440 3570 50  0001 C CNN
F 3 "~" H 3440 3570 50  0001 C CNN
	1    3440 3570
	0    1    1    0   
$EndComp
$Comp
L power:+12V #PWR068
U 1 1 61292057
P 1740 3390
F 0 "#PWR068" H 1740 3240 50  0001 C CNN
F 1 "+12V" H 1755 3563 50  0000 C CNN
F 2 "" H 1740 3390 50  0001 C CNN
F 3 "" H 1740 3390 50  0001 C CNN
	1    1740 3390
	1    0    0    -1  
$EndComp
$Comp
L power:+5V #PWR067
U 1 1 61292739
P 2585 3385
F 0 "#PWR067" H 2585 3235 50  0001 C CNN
F 1 "+5V" H 2600 3558 50  0000 C CNN
F 2 "" H 2585 3385 50  0001 C CNN
F 3 "" H 2585 3385 50  0001 C CNN
	1    2585 3385
	1    0    0    -1  
$EndComp
$Comp
L power:GND #PWR065
U 1 1 6129304F
P 3765 3145
F 0 "#PWR065" H 3765 2895 50  0001 C CNN
F 1 "GND" H 3770 2972 50  0000 C CNN
F 2 "" H 3765 3145 50  0001 C CNN
F 3 "" H 3765 3145 50  0001 C CNN
	1    3765 3145
	1    0    0    -1  
$EndComp
Wire Wire Line
	3440 3375 3440 3370
Wire Wire Line
	3440 3145 3765 3145
Connection ~ 3440 3370
Wire Wire Line
	3440 3370 3440 3145
$Comp
L Connector_Generic:Conn_01x10 J10
U 1 1 6143DC17
P 8870 5020
F 0 "J10" H 8950 5012 50  0000 L CNN
F 1 "Conn_01x10" H 8950 4921 50  0000 L CNN
F 2 "TerminalBlock_RND:TerminalBlock_RND_205-00053_1x10_P5.00mm_Horizontal" H 8870 5020 50  0001 C CNN
F 3 "~" H 8870 5020 50  0001 C CNN
	1    8870 5020
	1    0    0    -1  
$EndComp
$Comp
L Connector_Generic:Conn_01x10 J5
U 1 1 61468E2B
P 8860 2270
F 0 "J5" H 8940 2262 50  0000 L CNN
F 1 "Conn_01x10" H 8940 2171 50  0000 L CNN
F 2 "TerminalBlock_RND:TerminalBlock_RND_205-00053_1x10_P5.00mm_Horizontal" H 8860 2270 50  0001 C CNN
F 3 "~" H 8860 2270 50  0001 C CNN
	1    8860 2270
	1    0    0    -1  
$EndComp
Text HLabel 8470 1870 0    50   Output ~ 0
NTC1
Wire Wire Line
	8660 1870 8470 1870
Text HLabel 8470 2070 0    50   Output ~ 0
NTC2
Wire Wire Line
	8660 2070 8470 2070
Text HLabel 8470 2270 0    50   Output ~ 0
NTC3
Wire Wire Line
	8660 2270 8470 2270
Text HLabel 8470 2470 0    50   Output ~ 0
NTC4
Wire Wire Line
	8660 2470 8470 2470
$Comp
L power:GND #PWR064
U 1 1 6147CE86
P 7900 2690
F 0 "#PWR064" H 7900 2440 50  0001 C CNN
F 1 "GND" H 7905 2517 50  0000 C CNN
F 2 "" H 7900 2690 50  0001 C CNN
F 3 "" H 7900 2690 50  0001 C CNN
	1    7900 2690
	1    0    0    -1  
$EndComp
Wire Wire Line
	8660 1970 7900 1970
Wire Wire Line
	8660 2170 7900 2170
Wire Wire Line
	7900 1970 7900 2170
Connection ~ 7900 2170
Wire Wire Line
	7900 2170 7900 2370
Wire Wire Line
	8660 2370 7900 2370
Connection ~ 7900 2370
Wire Wire Line
	7900 2370 7900 2570
Wire Wire Line
	8660 2570 7900 2570
Connection ~ 7900 2570
Wire Wire Line
	7900 2570 7900 2690
$Comp
L Connector_Generic:Conn_01x10 J7
U 1 1 61489CAC
P 8860 3580
F 0 "J7" H 8940 3622 50  0000 L CNN
F 1 "Conn_01x10" H 8940 3531 50  0000 L CNN
F 2 "TerminalBlock_RND:TerminalBlock_RND_205-00053_1x10_P5.00mm_Horizontal" H 8860 3580 50  0001 C CNN
F 3 "~" H 8860 3580 50  0001 C CNN
	1    8860 3580
	1    0    0    -1  
$EndComp
Text HLabel 8470 3180 0    50   Output ~ 0
Hum1
Wire Wire Line
	8660 3180 8470 3180
$Comp
L power:+5V #PWR066
U 1 1 6148CF7D
P 8460 3280
F 0 "#PWR066" H 8460 3130 50  0001 C CNN
F 1 "+5V" H 8475 3453 50  0000 C CNN
F 2 "" H 8460 3280 50  0001 C CNN
F 3 "" H 8460 3280 50  0001 C CNN
	1    8460 3280
	0    -1   -1   0   
$EndComp
Wire Wire Line
	8660 3280 8460 3280
Text HLabel 8470 3480 0    50   Output ~ 0
Hum2
Wire Wire Line
	8660 3480 8470 3480
$Comp
L power:+5V #PWR069
U 1 1 6148FDC4
P 8460 3580
F 0 "#PWR069" H 8460 3430 50  0001 C CNN
F 1 "+5V" H 8475 3753 50  0000 C CNN
F 2 "" H 8460 3580 50  0001 C CNN
F 3 "" H 8460 3580 50  0001 C CNN
	1    8460 3580
	0    -1   -1   0   
$EndComp
Wire Wire Line
	8660 3580 8460 3580
Text HLabel 8470 3780 0    50   Output ~ 0
Flow
Wire Wire Line
	8660 3780 8470 3780
$Comp
L power:+5V #PWR070
U 1 1 6149153B
P 8460 3880
F 0 "#PWR070" H 8460 3730 50  0001 C CNN
F 1 "+5V" H 8475 4053 50  0000 C CNN
F 2 "" H 8460 3880 50  0001 C CNN
F 3 "" H 8460 3880 50  0001 C CNN
	1    8460 3880
	0    -1   -1   0   
$EndComp
Wire Wire Line
	8660 3880 8460 3880
$Comp
L power:GND #PWR071
U 1 1 61493ABF
P 7910 4060
F 0 "#PWR071" H 7910 3810 50  0001 C CNN
F 1 "GND" H 7915 3887 50  0000 C CNN
F 2 "" H 7910 4060 50  0001 C CNN
F 3 "" H 7910 4060 50  0001 C CNN
	1    7910 4060
	1    0    0    -1  
$EndComp
Wire Wire Line
	8660 3380 7910 3380
Wire Wire Line
	7910 3380 7910 3680
Wire Wire Line
	8660 3680 7910 3680
Connection ~ 7910 3680
Wire Wire Line
	7910 3680 7910 3980
Wire Wire Line
	8660 3980 7910 3980
Connection ~ 7910 3980
Wire Wire Line
	7910 3980 7910 4060
Text HLabel 8450 4620 0    50   Output ~ 0
Door1A
Text HLabel 8450 4720 0    50   Output ~ 0
Door1B
Text HLabel 8450 4820 0    50   Output ~ 0
Door2A
Text HLabel 8450 4920 0    50   Output ~ 0
Door2B
Text HLabel 8450 5020 0    50   Output ~ 0
LV_PRSNT0
Text HLabel 8460 5220 0    50   Output ~ 0
LV_PRSNT1
Text HLabel 8460 5420 0    50   Output ~ 0
LV_PRSNT2
Wire Wire Line
	8450 4620 8670 4620
Wire Wire Line
	8450 4720 8670 4720
Wire Wire Line
	8450 4820 8670 4820
Wire Wire Line
	8450 4920 8670 4920
Wire Wire Line
	8450 5020 8670 5020
Wire Wire Line
	8460 5220 8670 5220
Wire Wire Line
	8460 5420 8670 5420
$Comp
L power:GND #PWR072
U 1 1 614A5C32
P 7700 5660
F 0 "#PWR072" H 7700 5410 50  0001 C CNN
F 1 "GND" H 7705 5487 50  0000 C CNN
F 2 "" H 7700 5660 50  0001 C CNN
F 3 "" H 7700 5660 50  0001 C CNN
	1    7700 5660
	1    0    0    -1  
$EndComp
Wire Wire Line
	8670 5120 7700 5120
Wire Wire Line
	7700 5120 7700 5320
Wire Wire Line
	8670 5320 7700 5320
Connection ~ 7700 5320
Wire Wire Line
	7700 5320 7700 5520
Wire Wire Line
	8670 5520 7700 5520
Connection ~ 7700 5520
Wire Wire Line
	7700 5520 7700 5660
$Comp
L Connector_Generic:Conn_01x01 J18
U 1 1 61C08BC6
P 3430 4310
F 0 "J18" V 3302 4390 50  0000 L CNN
F 1 "Conn_01x01" V 3393 4390 50  0000 L CNN
F 2 "interlock:BigPad" H 3430 4310 50  0001 C CNN
F 3 "~" H 3430 4310 50  0001 C CNN
	1    3430 4310
	0    1    1    0   
$EndComp
$Comp
L power:GND #PWR0218
U 1 1 61C08BCC
P 3755 3885
F 0 "#PWR0218" H 3755 3635 50  0001 C CNN
F 1 "GND" H 3760 3712 50  0000 C CNN
F 2 "" H 3755 3885 50  0001 C CNN
F 3 "" H 3755 3885 50  0001 C CNN
	1    3755 3885
	1    0    0    -1  
$EndComp
Wire Wire Line
	3430 4115 3430 4110
Wire Wire Line
	3430 3885 3755 3885
Connection ~ 3430 4110
Wire Wire Line
	3430 4110 3430 3885
Wire Wire Line
	1510 1935 1510 2035
Connection ~ 1510 2035
$Comp
L Connector_Generic:Conn_01x01 J19
U 1 1 614BCF0A
P 1680 2280
F 0 "J19" V 1552 2360 50  0000 L CNN
F 1 "Conn_01x01" V 1643 2360 50  0000 L CNN
F 2 "interlock:BigPad" H 1680 2280 50  0001 C CNN
F 3 "~" H 1680 2280 50  0001 C CNN
	1    1680 2280
	0    1    1    0   
$EndComp
$Comp
L Connector_Generic:Conn_01x01 J20
U 1 1 614BEC44
P 1780 1470
F 0 "J20" V 1652 1550 50  0000 L CNN
F 1 "Conn_01x01" V 1743 1550 50  0000 L CNN
F 2 "interlock:BigPad" H 1780 1470 50  0001 C CNN
F 3 "~" H 1780 1470 50  0001 C CNN
	1    1780 1470
	0    -1   -1   0   
$EndComp
Wire Wire Line
	1780 1670 1780 1835
Connection ~ 1780 1835
Wire Wire Line
	1780 1835 1510 1835
Wire Wire Line
	1510 2035 1680 2035
Wire Wire Line
	1680 2080 1680 2035
Connection ~ 1680 2035
Wire Wire Line
	1680 2035 2010 2035
$Comp
L power:+12V #PWR0250
U 1 1 616ACE1E
P 8370 2825
F 0 "#PWR0250" H 8370 2675 50  0001 C CNN
F 1 "+12V" H 8385 2998 50  0000 C CNN
F 2 "" H 8370 2825 50  0001 C CNN
F 3 "" H 8370 2825 50  0001 C CNN
	1    8370 2825
	1    0    0    -1  
$EndComp
Wire Wire Line
	8660 2670 8660 2770
Wire Wire Line
	8660 2770 8660 2825
Wire Wire Line
	8660 2825 8370 2825
Connection ~ 8660 2770
$Comp
L power:+12V #PWR0251
U 1 1 616B2806
P 8390 4215
F 0 "#PWR0251" H 8390 4065 50  0001 C CNN
F 1 "+12V" H 8405 4388 50  0000 C CNN
F 2 "" H 8390 4215 50  0001 C CNN
F 3 "" H 8390 4215 50  0001 C CNN
	1    8390 4215
	1    0    0    -1  
$EndComp
Wire Wire Line
	8660 4080 8660 4215
Wire Wire Line
	8660 4215 8390 4215
$EndSCHEMATC
