EESchema Schematic File Version 4
EELAYER 30 0
EELAYER END
$Descr A4 11693 8268
encoding utf-8
Sheet 3 14
Title ""
Date ""
Rev ""
Comp ""
Comment1 ""
Comment2 ""
Comment3 ""
Comment4 ""
$EndDescr
$Comp
L Comparator:LM393 U?
U 1 1 61289D19
P 4800 3400
AR Path="/61044A2C/61289D19" Ref="U?"  Part="1" 
AR Path="/61086D02/61289D19" Ref="U?"  Part="1" 
AR Path="/6108D87D/61289D19" Ref="U?"  Part="1" 
AR Path="/6116F93D/61289D19" Ref="U2"  Part="1" 
F 0 "U2" H 4800 3767 50  0000 C CNN
F 1 "LM393" H 4800 3676 50  0000 C CNN
F 2 "Package_SO:SOIC-8W_5.3x5.3mm_P1.27mm" H 4800 3400 50  0001 C CNN
F 3 "http://www.ti.com/lit/ds/symlink/lm393.pdf" H 4800 3400 50  0001 C CNN
	1    4800 3400
	1    0    0    -1  
$EndComp
$Comp
L Comparator:LM393 U?
U 2 1 61045C30
P 4800 4700
AR Path="/61044A2C/61045C30" Ref="U?"  Part="2" 
AR Path="/61086D02/61045C30" Ref="U?"  Part="2" 
AR Path="/6108D87D/61045C30" Ref="U?"  Part="2" 
AR Path="/6116F93D/61045C30" Ref="U2"  Part="2" 
F 0 "U2" H 4800 5067 50  0000 C CNN
F 1 "LM393" H 4800 4976 50  0000 C CNN
F 2 "Package_SO:SOIC-8W_5.3x5.3mm_P1.27mm" H 4800 4700 50  0001 C CNN
F 3 "http://www.ti.com/lit/ds/symlink/lm393.pdf" H 4800 4700 50  0001 C CNN
	2    4800 4700
	1    0    0    -1  
$EndComp
$Comp
L Comparator:LM393 U?
U 3 1 61289D1B
P 4650 1950
AR Path="/61044A2C/61289D1B" Ref="U?"  Part="3" 
AR Path="/61086D02/61289D1B" Ref="U?"  Part="3" 
AR Path="/6108D87D/61289D1B" Ref="U?"  Part="3" 
AR Path="/6116F93D/61289D1B" Ref="U2"  Part="3" 
F 0 "U2" H 4608 1996 50  0000 L CNN
F 1 "LM393" H 4608 1905 50  0000 L CNN
F 2 "Package_SO:SOIC-8W_5.3x5.3mm_P1.27mm" H 4650 1950 50  0001 C CNN
F 3 "http://www.ti.com/lit/ds/symlink/lm393.pdf" H 4650 1950 50  0001 C CNN
	3    4650 1950
	0    1    1    0   
$EndComp
$Comp
L power:+12V #PWR?
U 1 1 610476AA
P 5150 1500
AR Path="/61044A2C/610476AA" Ref="#PWR?"  Part="1" 
AR Path="/61086D02/610476AA" Ref="#PWR?"  Part="1" 
AR Path="/6108D87D/610476AA" Ref="#PWR?"  Part="1" 
AR Path="/6116F93D/610476AA" Ref="#PWR010"  Part="1" 
F 0 "#PWR010" H 5150 1350 50  0001 C CNN
F 1 "+12V" H 5165 1673 50  0000 C CNN
F 2 "" H 5150 1500 50  0001 C CNN
F 3 "" H 5150 1500 50  0001 C CNN
	1    5150 1500
	1    0    0    -1  
$EndComp
Wire Wire Line
	5150 1850 4950 1850
$Comp
L power:GND #PWR?
U 1 1 61289D1D
P 4100 1900
AR Path="/61044A2C/61289D1D" Ref="#PWR?"  Part="1" 
AR Path="/61086D02/61289D1D" Ref="#PWR?"  Part="1" 
AR Path="/6108D87D/61289D1D" Ref="#PWR?"  Part="1" 
AR Path="/6116F93D/61289D1D" Ref="#PWR014"  Part="1" 
F 0 "#PWR014" H 4100 1650 50  0001 C CNN
F 1 "GND" H 4105 1727 50  0000 C CNN
F 2 "" H 4100 1900 50  0001 C CNN
F 3 "" H 4100 1900 50  0001 C CNN
	1    4100 1900
	1    0    0    -1  
$EndComp
Wire Wire Line
	4350 1850 4100 1850
Wire Wire Line
	4100 1850 4100 1900
$Comp
L Device:C C?
U 1 1 61289D1E
P 5450 1850
AR Path="/61044A2C/61289D1E" Ref="C?"  Part="1" 
AR Path="/61086D02/61289D1E" Ref="C?"  Part="1" 
AR Path="/6108D87D/61289D1E" Ref="C?"  Part="1" 
AR Path="/6116F93D/61289D1E" Ref="C4"  Part="1" 
F 0 "C4" V 5600 1850 50  0000 C CNN
F 1 "0.1uF" V 5289 1850 50  0000 C CNN
F 2 "Capacitor_SMD:C_0805_2012Metric" H 5488 1700 50  0001 C CNN
F 3 "~" H 5450 1850 50  0001 C CNN
	1    5450 1850
	0    1    1    0   
$EndComp
$Comp
L power:GND #PWR?
U 1 1 61289D1F
P 5800 1850
AR Path="/61044A2C/61289D1F" Ref="#PWR?"  Part="1" 
AR Path="/61086D02/61289D1F" Ref="#PWR?"  Part="1" 
AR Path="/6108D87D/61289D1F" Ref="#PWR?"  Part="1" 
AR Path="/6116F93D/61289D1F" Ref="#PWR013"  Part="1" 
F 0 "#PWR013" H 5800 1600 50  0001 C CNN
F 1 "GND" H 5805 1677 50  0000 C CNN
F 2 "" H 5800 1850 50  0001 C CNN
F 3 "" H 5800 1850 50  0001 C CNN
	1    5800 1850
	1    0    0    -1  
$EndComp
Wire Wire Line
	5800 1850 5600 1850
Wire Wire Line
	5300 1850 5150 1850
Connection ~ 5150 1850
Wire Wire Line
	5150 1500 5150 1850
Wire Wire Line
	5100 3400 5200 3400
$Comp
L Device:C C?
U 1 1 6108D928
P 5200 3700
AR Path="/61044A2C/6108D928" Ref="C?"  Part="1" 
AR Path="/61086D02/6108D928" Ref="C?"  Part="1" 
AR Path="/6108D87D/6108D928" Ref="C?"  Part="1" 
AR Path="/6116F93D/6108D928" Ref="C8"  Part="1" 
F 0 "C8" H 5315 3746 50  0000 L CNN
F 1 "15pF" H 5315 3655 50  0000 L CNN
F 2 "Capacitor_SMD:C_0805_2012Metric" H 5238 3550 50  0001 C CNN
F 3 "~" H 5200 3700 50  0001 C CNN
	1    5200 3700
	1    0    0    -1  
$EndComp
$Comp
L power:GND #PWR?
U 1 1 61289D26
P 5200 4250
AR Path="/61044A2C/61289D26" Ref="#PWR?"  Part="1" 
AR Path="/61086D02/61289D26" Ref="#PWR?"  Part="1" 
AR Path="/6108D87D/61289D26" Ref="#PWR?"  Part="1" 
AR Path="/6116F93D/61289D26" Ref="#PWR024"  Part="1" 
F 0 "#PWR024" H 5200 4000 50  0001 C CNN
F 1 "GND" H 5205 4077 50  0000 C CNN
F 2 "" H 5200 4250 50  0001 C CNN
F 3 "" H 5200 4250 50  0001 C CNN
	1    5200 4250
	1    0    0    -1  
$EndComp
Wire Wire Line
	5200 3550 5200 3400
Wire Wire Line
	5100 4700 5200 4700
$Comp
L Device:C C?
U 1 1 6108D92B
P 5200 5000
AR Path="/61044A2C/6108D92B" Ref="C?"  Part="1" 
AR Path="/61086D02/6108D92B" Ref="C?"  Part="1" 
AR Path="/6108D87D/6108D92B" Ref="C?"  Part="1" 
AR Path="/6116F93D/6108D92B" Ref="C10"  Part="1" 
F 0 "C10" H 5315 5046 50  0000 L CNN
F 1 "15pF" H 5315 4955 50  0000 L CNN
F 2 "Capacitor_SMD:C_0805_2012Metric" H 5238 4850 50  0001 C CNN
F 3 "~" H 5200 5000 50  0001 C CNN
	1    5200 5000
	1    0    0    -1  
$EndComp
$Comp
L power:GND #PWR?
U 1 1 6108D92C
P 5200 5500
AR Path="/61044A2C/6108D92C" Ref="#PWR?"  Part="1" 
AR Path="/61086D02/6108D92C" Ref="#PWR?"  Part="1" 
AR Path="/6108D87D/6108D92C" Ref="#PWR?"  Part="1" 
AR Path="/6116F93D/6108D92C" Ref="#PWR029"  Part="1" 
F 0 "#PWR029" H 5200 5250 50  0001 C CNN
F 1 "GND" H 5205 5327 50  0000 C CNN
F 2 "" H 5200 5500 50  0001 C CNN
F 3 "" H 5200 5500 50  0001 C CNN
	1    5200 5500
	1    0    0    -1  
$EndComp
Wire Wire Line
	5200 4850 5200 4700
$Comp
L Device:R_Potentiometer RV?
U 1 1 61289D2C
P 3100 3300
AR Path="/61044A2C/61289D2C" Ref="RV?"  Part="1" 
AR Path="/61086D02/61289D2C" Ref="RV?"  Part="1" 
AR Path="/6108D87D/61289D2C" Ref="RV?"  Part="1" 
AR Path="/6116F93D/61289D2C" Ref="RV2"  Part="1" 
F 0 "RV2" H 3030 3346 50  0000 R CNN
F 1 "R_Potentiometer" H 3030 3255 50  0000 R CNN
F 2 "Potentiometer_THT:Potentiometer_Bourns_3296Y_Vertical" H 3100 3300 50  0001 C CNN
F 3 "~" H 3100 3300 50  0001 C CNN
	1    3100 3300
	1    0    0    -1  
$EndComp
$Comp
L power:GND #PWR?
U 1 1 61289D2D
P 3100 3650
AR Path="/61044A2C/61289D2D" Ref="#PWR?"  Part="1" 
AR Path="/61086D02/61289D2D" Ref="#PWR?"  Part="1" 
AR Path="/6108D87D/61289D2D" Ref="#PWR?"  Part="1" 
AR Path="/6116F93D/61289D2D" Ref="#PWR020"  Part="1" 
F 0 "#PWR020" H 3100 3400 50  0001 C CNN
F 1 "GND" H 3105 3477 50  0000 C CNN
F 2 "" H 3100 3650 50  0001 C CNN
F 3 "" H 3100 3650 50  0001 C CNN
	1    3100 3650
	1    0    0    -1  
$EndComp
$Comp
L power:+12V #PWR?
U 1 1 61289D2E
P 3100 3000
AR Path="/61044A2C/61289D2E" Ref="#PWR?"  Part="1" 
AR Path="/61086D02/61289D2E" Ref="#PWR?"  Part="1" 
AR Path="/6108D87D/61289D2E" Ref="#PWR?"  Part="1" 
AR Path="/6116F93D/61289D2E" Ref="#PWR016"  Part="1" 
F 0 "#PWR016" H 3100 2850 50  0001 C CNN
F 1 "+12V" H 3115 3173 50  0000 C CNN
F 2 "" H 3100 3000 50  0001 C CNN
F 3 "" H 3100 3000 50  0001 C CNN
	1    3100 3000
	1    0    0    -1  
$EndComp
Wire Wire Line
	3100 3150 3100 3000
Wire Wire Line
	3100 3650 3100 3450
$Comp
L Device:R_Potentiometer RV?
U 1 1 61289D22
P 3150 4600
AR Path="/61044A2C/61289D22" Ref="RV?"  Part="1" 
AR Path="/61086D02/61289D22" Ref="RV?"  Part="1" 
AR Path="/6108D87D/61289D22" Ref="RV?"  Part="1" 
AR Path="/6116F93D/61289D22" Ref="RV3"  Part="1" 
F 0 "RV3" H 3080 4646 50  0000 R CNN
F 1 "R_Potentiometer" H 3080 4555 50  0000 R CNN
F 2 "Potentiometer_THT:Potentiometer_Bourns_3296Y_Vertical" H 3150 4600 50  0001 C CNN
F 3 "~" H 3150 4600 50  0001 C CNN
	1    3150 4600
	1    0    0    -1  
$EndComp
$Comp
L power:GND #PWR?
U 1 1 61084188
P 3150 4950
AR Path="/61044A2C/61084188" Ref="#PWR?"  Part="1" 
AR Path="/61086D02/61084188" Ref="#PWR?"  Part="1" 
AR Path="/6108D87D/61084188" Ref="#PWR?"  Part="1" 
AR Path="/6116F93D/61084188" Ref="#PWR027"  Part="1" 
F 0 "#PWR027" H 3150 4700 50  0001 C CNN
F 1 "GND" H 3155 4777 50  0000 C CNN
F 2 "" H 3150 4950 50  0001 C CNN
F 3 "" H 3150 4950 50  0001 C CNN
	1    3150 4950
	1    0    0    -1  
$EndComp
$Comp
L power:+12V #PWR?
U 1 1 6108418E
P 3150 4300
AR Path="/61044A2C/6108418E" Ref="#PWR?"  Part="1" 
AR Path="/61086D02/6108418E" Ref="#PWR?"  Part="1" 
AR Path="/6108D87D/6108418E" Ref="#PWR?"  Part="1" 
AR Path="/6116F93D/6108418E" Ref="#PWR025"  Part="1" 
F 0 "#PWR025" H 3150 4150 50  0001 C CNN
F 1 "+12V" H 3165 4473 50  0000 C CNN
F 2 "" H 3150 4300 50  0001 C CNN
F 3 "" H 3150 4300 50  0001 C CNN
	1    3150 4300
	1    0    0    -1  
$EndComp
Wire Wire Line
	3150 4450 3150 4300
Wire Wire Line
	3150 4950 3150 4750
Text HLabel 3950 3500 0    50   Input ~ 0
LV_PRSNT0
Text HLabel 4000 4800 0    50   Input ~ 0
LV_PRSNT1
Wire Wire Line
	4500 3500 4130 3500
Wire Wire Line
	4000 4800 4180 4800
$Comp
L Comparator:LM393 U?
U 1 1 61193094
P 9100 3300
AR Path="/61044A2C/61193094" Ref="U?"  Part="1" 
AR Path="/61086D02/61193094" Ref="U?"  Part="1" 
AR Path="/6108D87D/61193094" Ref="U?"  Part="1" 
AR Path="/6116F93D/61193094" Ref="U1"  Part="1" 
F 0 "U1" H 9100 3667 50  0000 C CNN
F 1 "LM393" H 9100 3576 50  0000 C CNN
F 2 "Package_SO:SOIC-8W_5.3x5.3mm_P1.27mm" H 9100 3300 50  0001 C CNN
F 3 "http://www.ti.com/lit/ds/symlink/lm393.pdf" H 9100 3300 50  0001 C CNN
	1    9100 3300
	1    0    0    -1  
$EndComp
$Comp
L Comparator:LM393 U?
U 2 1 6119309A
P 9100 4600
AR Path="/61044A2C/6119309A" Ref="U?"  Part="2" 
AR Path="/61086D02/6119309A" Ref="U?"  Part="2" 
AR Path="/6108D87D/6119309A" Ref="U?"  Part="2" 
AR Path="/6116F93D/6119309A" Ref="U1"  Part="2" 
F 0 "U1" H 9100 4967 50  0000 C CNN
F 1 "LM393" H 9100 4876 50  0000 C CNN
F 2 "Package_SO:SOIC-8W_5.3x5.3mm_P1.27mm" H 9100 4600 50  0001 C CNN
F 3 "http://www.ti.com/lit/ds/symlink/lm393.pdf" H 9100 4600 50  0001 C CNN
	2    9100 4600
	1    0    0    -1  
$EndComp
$Comp
L Comparator:LM393 U?
U 3 1 611930A0
P 8950 1850
AR Path="/61044A2C/611930A0" Ref="U?"  Part="3" 
AR Path="/61086D02/611930A0" Ref="U?"  Part="3" 
AR Path="/6108D87D/611930A0" Ref="U?"  Part="3" 
AR Path="/6116F93D/611930A0" Ref="U1"  Part="3" 
F 0 "U1" H 8908 1896 50  0000 L CNN
F 1 "LM393" H 8908 1805 50  0000 L CNN
F 2 "Package_SO:SOIC-8W_5.3x5.3mm_P1.27mm" H 8950 1850 50  0001 C CNN
F 3 "http://www.ti.com/lit/ds/symlink/lm393.pdf" H 8950 1850 50  0001 C CNN
	3    8950 1850
	0    1    1    0   
$EndComp
$Comp
L power:+12V #PWR?
U 1 1 611930A6
P 9450 1400
AR Path="/61044A2C/611930A6" Ref="#PWR?"  Part="1" 
AR Path="/61086D02/611930A6" Ref="#PWR?"  Part="1" 
AR Path="/6108D87D/611930A6" Ref="#PWR?"  Part="1" 
AR Path="/6116F93D/611930A6" Ref="#PWR09"  Part="1" 
F 0 "#PWR09" H 9450 1250 50  0001 C CNN
F 1 "+12V" H 9465 1573 50  0000 C CNN
F 2 "" H 9450 1400 50  0001 C CNN
F 3 "" H 9450 1400 50  0001 C CNN
	1    9450 1400
	1    0    0    -1  
$EndComp
Wire Wire Line
	9450 1750 9250 1750
$Comp
L power:GND #PWR?
U 1 1 611930AD
P 8400 1800
AR Path="/61044A2C/611930AD" Ref="#PWR?"  Part="1" 
AR Path="/61086D02/611930AD" Ref="#PWR?"  Part="1" 
AR Path="/6108D87D/611930AD" Ref="#PWR?"  Part="1" 
AR Path="/6116F93D/611930AD" Ref="#PWR012"  Part="1" 
F 0 "#PWR012" H 8400 1550 50  0001 C CNN
F 1 "GND" H 8405 1627 50  0000 C CNN
F 2 "" H 8400 1800 50  0001 C CNN
F 3 "" H 8400 1800 50  0001 C CNN
	1    8400 1800
	1    0    0    -1  
$EndComp
Wire Wire Line
	8650 1750 8400 1750
Wire Wire Line
	8400 1750 8400 1800
$Comp
L Device:C C?
U 1 1 611930BB
P 9750 1750
AR Path="/61044A2C/611930BB" Ref="C?"  Part="1" 
AR Path="/61086D02/611930BB" Ref="C?"  Part="1" 
AR Path="/6108D87D/611930BB" Ref="C?"  Part="1" 
AR Path="/6116F93D/611930BB" Ref="C3"  Part="1" 
F 0 "C3" V 9900 1750 50  0000 C CNN
F 1 "0.1uF" V 9589 1750 50  0000 C CNN
F 2 "Capacitor_SMD:C_0805_2012Metric" H 9788 1600 50  0001 C CNN
F 3 "~" H 9750 1750 50  0001 C CNN
	1    9750 1750
	0    1    1    0   
$EndComp
$Comp
L power:GND #PWR?
U 1 1 611930C1
P 10100 1750
AR Path="/61044A2C/611930C1" Ref="#PWR?"  Part="1" 
AR Path="/61086D02/611930C1" Ref="#PWR?"  Part="1" 
AR Path="/6108D87D/611930C1" Ref="#PWR?"  Part="1" 
AR Path="/6116F93D/611930C1" Ref="#PWR011"  Part="1" 
F 0 "#PWR011" H 10100 1500 50  0001 C CNN
F 1 "GND" H 10105 1577 50  0000 C CNN
F 2 "" H 10100 1750 50  0001 C CNN
F 3 "" H 10100 1750 50  0001 C CNN
	1    10100 1750
	1    0    0    -1  
$EndComp
Wire Wire Line
	10100 1750 9900 1750
Wire Wire Line
	9600 1750 9450 1750
Connection ~ 9450 1750
Wire Wire Line
	9450 1400 9450 1750
Wire Wire Line
	9400 3300 9500 3300
$Comp
L Device:C C?
U 1 1 611930CC
P 9500 3600
AR Path="/61044A2C/611930CC" Ref="C?"  Part="1" 
AR Path="/61086D02/611930CC" Ref="C?"  Part="1" 
AR Path="/6108D87D/611930CC" Ref="C?"  Part="1" 
AR Path="/6116F93D/611930CC" Ref="C6"  Part="1" 
F 0 "C6" H 9615 3646 50  0000 L CNN
F 1 "15pF" H 9615 3555 50  0000 L CNN
F 2 "Capacitor_SMD:C_0805_2012Metric" H 9538 3450 50  0001 C CNN
F 3 "~" H 9500 3600 50  0001 C CNN
	1    9500 3600
	1    0    0    -1  
$EndComp
$Comp
L power:GND #PWR?
U 1 1 611930D2
P 9500 4150
AR Path="/61044A2C/611930D2" Ref="#PWR?"  Part="1" 
AR Path="/61086D02/611930D2" Ref="#PWR?"  Part="1" 
AR Path="/6108D87D/611930D2" Ref="#PWR?"  Part="1" 
AR Path="/6116F93D/611930D2" Ref="#PWR023"  Part="1" 
F 0 "#PWR023" H 9500 3900 50  0001 C CNN
F 1 "GND" H 9505 3977 50  0000 C CNN
F 2 "" H 9500 4150 50  0001 C CNN
F 3 "" H 9500 4150 50  0001 C CNN
	1    9500 4150
	1    0    0    -1  
$EndComp
Wire Wire Line
	9500 3450 9500 3300
$Comp
L Device:R_Potentiometer RV?
U 1 1 6119311D
P 7400 3200
AR Path="/61044A2C/6119311D" Ref="RV?"  Part="1" 
AR Path="/61086D02/6119311D" Ref="RV?"  Part="1" 
AR Path="/6108D87D/6119311D" Ref="RV?"  Part="1" 
AR Path="/6116F93D/6119311D" Ref="RV1"  Part="1" 
F 0 "RV1" H 7330 3246 50  0000 R CNN
F 1 "R_Potentiometer" H 7330 3155 50  0000 R CNN
F 2 "Potentiometer_THT:Potentiometer_Bourns_3296Y_Vertical" H 7400 3200 50  0001 C CNN
F 3 "~" H 7400 3200 50  0001 C CNN
	1    7400 3200
	1    0    0    -1  
$EndComp
$Comp
L power:GND #PWR?
U 1 1 61193123
P 7400 3550
AR Path="/61044A2C/61193123" Ref="#PWR?"  Part="1" 
AR Path="/61086D02/61193123" Ref="#PWR?"  Part="1" 
AR Path="/6108D87D/61193123" Ref="#PWR?"  Part="1" 
AR Path="/6116F93D/61193123" Ref="#PWR018"  Part="1" 
F 0 "#PWR018" H 7400 3300 50  0001 C CNN
F 1 "GND" H 7405 3377 50  0000 C CNN
F 2 "" H 7400 3550 50  0001 C CNN
F 3 "" H 7400 3550 50  0001 C CNN
	1    7400 3550
	1    0    0    -1  
$EndComp
$Comp
L power:+12V #PWR?
U 1 1 61193129
P 7400 2900
AR Path="/61044A2C/61193129" Ref="#PWR?"  Part="1" 
AR Path="/61086D02/61193129" Ref="#PWR?"  Part="1" 
AR Path="/6108D87D/61193129" Ref="#PWR?"  Part="1" 
AR Path="/6116F93D/61193129" Ref="#PWR015"  Part="1" 
F 0 "#PWR015" H 7400 2750 50  0001 C CNN
F 1 "+12V" H 7415 3073 50  0000 C CNN
F 2 "" H 7400 2900 50  0001 C CNN
F 3 "" H 7400 2900 50  0001 C CNN
	1    7400 2900
	1    0    0    -1  
$EndComp
Wire Wire Line
	7400 3050 7400 2900
Wire Wire Line
	7400 3550 7400 3350
Text HLabel 8250 3400 0    50   Input ~ 0
LV_PRSNT2
Wire Wire Line
	8800 3400 8420 3400
NoConn ~ 9400 4600
NoConn ~ 8800 4500
NoConn ~ 8800 4700
Connection ~ 5200 3400
Wire Wire Line
	5200 3850 5200 4250
Connection ~ 5200 4700
Wire Wire Line
	5200 5150 5200 5500
Connection ~ 9500 3300
Wire Wire Line
	9500 3750 9500 4150
$Comp
L Device:C C?
U 1 1 6145E759
P 4130 3650
AR Path="/61044A2C/6145E759" Ref="C?"  Part="1" 
AR Path="/61086D02/6145E759" Ref="C?"  Part="1" 
AR Path="/6108D87D/6145E759" Ref="C?"  Part="1" 
AR Path="/6116F93D/6145E759" Ref="C7"  Part="1" 
F 0 "C7" H 4245 3696 50  0000 L CNN
F 1 "0.1uF" H 4245 3605 50  0000 L CNN
F 2 "Capacitor_SMD:C_0805_2012Metric" H 4168 3500 50  0001 C CNN
F 3 "~" H 4130 3650 50  0001 C CNN
	1    4130 3650
	1    0    0    -1  
$EndComp
Connection ~ 4130 3500
Wire Wire Line
	4130 3500 3950 3500
$Comp
L power:GND #PWR?
U 1 1 6145ECEC
P 4130 3800
AR Path="/61044A2C/6145ECEC" Ref="#PWR?"  Part="1" 
AR Path="/61086D02/6145ECEC" Ref="#PWR?"  Part="1" 
AR Path="/6108D87D/6145ECEC" Ref="#PWR?"  Part="1" 
AR Path="/6116F93D/6145ECEC" Ref="#PWR022"  Part="1" 
F 0 "#PWR022" H 4130 3550 50  0001 C CNN
F 1 "GND" H 4135 3627 50  0000 C CNN
F 2 "" H 4130 3800 50  0001 C CNN
F 3 "" H 4130 3800 50  0001 C CNN
	1    4130 3800
	1    0    0    -1  
$EndComp
$Comp
L Device:C C?
U 1 1 614618DD
P 4180 4950
AR Path="/61044A2C/614618DD" Ref="C?"  Part="1" 
AR Path="/61086D02/614618DD" Ref="C?"  Part="1" 
AR Path="/6108D87D/614618DD" Ref="C?"  Part="1" 
AR Path="/6116F93D/614618DD" Ref="C9"  Part="1" 
F 0 "C9" H 4295 4996 50  0000 L CNN
F 1 "0.1uF" H 4295 4905 50  0000 L CNN
F 2 "Capacitor_SMD:C_0805_2012Metric" H 4218 4800 50  0001 C CNN
F 3 "~" H 4180 4950 50  0001 C CNN
	1    4180 4950
	1    0    0    -1  
$EndComp
$Comp
L power:GND #PWR?
U 1 1 614618E3
P 4180 5100
AR Path="/61044A2C/614618E3" Ref="#PWR?"  Part="1" 
AR Path="/61086D02/614618E3" Ref="#PWR?"  Part="1" 
AR Path="/6108D87D/614618E3" Ref="#PWR?"  Part="1" 
AR Path="/6116F93D/614618E3" Ref="#PWR028"  Part="1" 
F 0 "#PWR028" H 4180 4850 50  0001 C CNN
F 1 "GND" H 4185 4927 50  0000 C CNN
F 2 "" H 4180 5100 50  0001 C CNN
F 3 "" H 4180 5100 50  0001 C CNN
	1    4180 5100
	1    0    0    -1  
$EndComp
Connection ~ 4180 4800
Wire Wire Line
	4180 4800 4500 4800
$Comp
L Device:C C?
U 1 1 61463C16
P 8420 3550
AR Path="/61044A2C/61463C16" Ref="C?"  Part="1" 
AR Path="/61086D02/61463C16" Ref="C?"  Part="1" 
AR Path="/6108D87D/61463C16" Ref="C?"  Part="1" 
AR Path="/6116F93D/61463C16" Ref="C5"  Part="1" 
F 0 "C5" H 8535 3596 50  0000 L CNN
F 1 "0.1uF" H 8535 3505 50  0000 L CNN
F 2 "Capacitor_SMD:C_0805_2012Metric" H 8458 3400 50  0001 C CNN
F 3 "~" H 8420 3550 50  0001 C CNN
	1    8420 3550
	1    0    0    -1  
$EndComp
$Comp
L power:GND #PWR?
U 1 1 61463C1C
P 8420 3700
AR Path="/61044A2C/61463C1C" Ref="#PWR?"  Part="1" 
AR Path="/61086D02/61463C1C" Ref="#PWR?"  Part="1" 
AR Path="/6108D87D/61463C1C" Ref="#PWR?"  Part="1" 
AR Path="/6116F93D/61463C1C" Ref="#PWR021"  Part="1" 
F 0 "#PWR021" H 8420 3450 50  0001 C CNN
F 1 "GND" H 8425 3527 50  0000 C CNN
F 2 "" H 8420 3700 50  0001 C CNN
F 3 "" H 8420 3700 50  0001 C CNN
	1    8420 3700
	1    0    0    -1  
$EndComp
Connection ~ 8420 3400
Wire Wire Line
	8420 3400 8250 3400
Wire Wire Line
	5200 3400 5560 3400
Wire Wire Line
	5200 4700 5580 4700
Wire Wire Line
	9500 3300 9870 3300
Wire Wire Line
	3250 3300 3690 3300
Wire Wire Line
	3300 4600 3670 4600
Wire Wire Line
	7550 3200 8000 3200
$Comp
L Connector_Generic:Conn_02x03_Odd_Even J1
U 1 1 61453077
P 4640 6490
F 0 "J1" H 4690 6807 50  0000 C CNN
F 1 "Conn_02x03_Odd_Even" H 4690 6716 50  0000 C CNN
F 2 "Connector_PinHeader_2.54mm:PinHeader_2x03_P2.54mm_Vertical_SMD" H 4640 6490 50  0001 C CNN
F 3 "~" H 4640 6490 50  0001 C CNN
	1    4640 6490
	1    0    0    -1  
$EndComp
$Comp
L power:GND #PWR?
U 1 1 61454811
P 5280 6730
AR Path="/61044A2C/61454811" Ref="#PWR?"  Part="1" 
AR Path="/61086D02/61454811" Ref="#PWR?"  Part="1" 
AR Path="/6108D87D/61454811" Ref="#PWR?"  Part="1" 
AR Path="/6116F93D/61454811" Ref="#PWR030"  Part="1" 
F 0 "#PWR030" H 5280 6480 50  0001 C CNN
F 1 "GND" H 5285 6557 50  0000 C CNN
F 2 "" H 5280 6730 50  0001 C CNN
F 3 "" H 5280 6730 50  0001 C CNN
	1    5280 6730
	1    0    0    -1  
$EndComp
Wire Wire Line
	4940 6390 4940 6490
Connection ~ 4940 6490
Wire Wire Line
	4940 6490 4940 6590
Wire Wire Line
	4940 6490 5280 6490
Wire Wire Line
	5280 6490 5280 6730
Text Label 3690 3180 0    50   ~ 0
LV0Set
Text Label 3670 4470 0    50   ~ 0
LV1Set
Text Label 8000 3110 0    50   ~ 0
LV2Set
Wire Wire Line
	8000 3110 8000 3200
Connection ~ 8000 3200
Wire Wire Line
	8000 3200 8800 3200
Wire Wire Line
	3690 3180 3690 3300
Connection ~ 3690 3300
Wire Wire Line
	3690 3300 4500 3300
Wire Wire Line
	3670 4470 3670 4600
Connection ~ 3670 4600
Wire Wire Line
	3670 4600 4500 4600
Text Label 4320 6390 2    50   ~ 0
LV0Set
Text Label 4320 6490 2    50   ~ 0
LV1Set
Text Label 4320 6590 2    50   ~ 0
LV2Set
Wire Wire Line
	4440 6390 4320 6390
Wire Wire Line
	4440 6490 4320 6490
Wire Wire Line
	4440 6590 4320 6590
Text HLabel 5800 3500 0    50   Output ~ 0
LV_NoPRSNT0Out
$Comp
L interlock:OS102011MS2QN1 S?
U 1 1 616984E2
P 6150 3500
AR Path="/61119591/616984E2" Ref="S?"  Part="1" 
AR Path="/614C2E34/616984E2" Ref="S?"  Part="1" 
AR Path="/614C4D35/616984E2" Ref="S?"  Part="1" 
AR Path="/6116F93D/616984E2" Ref="S5"  Part="1" 
F 0 "S5" H 6270 3546 50  0000 L CNN
F 1 "SW" H 6270 3455 50  0000 L CNN
F 2 "interlock:SW_OS102011MS2QN1" H 6150 3500 50  0001 L BNN
F 3 "" H 6150 3500 50  0001 L BNN
F 4 "C&K" H 6150 3500 50  0001 L BNN "MANUFACTURER"
F 5 "MANUFACTURER RECOMMENDATIONS" H 6150 3500 50  0001 L BNN "STANDARD"
	1    6150 3500
	1    0    0    -1  
$EndComp
$Comp
L power:GND #PWR?
U 1 1 616984E8
P 5850 3600
AR Path="/61119591/616984E8" Ref="#PWR?"  Part="1" 
AR Path="/614C2E34/616984E8" Ref="#PWR?"  Part="1" 
AR Path="/614C4D35/616984E8" Ref="#PWR?"  Part="1" 
AR Path="/6116F93D/616984E8" Ref="#PWR019"  Part="1" 
F 0 "#PWR019" H 5850 3350 50  0001 C CNN
F 1 "GND" H 5855 3427 50  0000 C CNN
F 2 "" H 5850 3600 50  0001 C CNN
F 3 "" H 5850 3600 50  0001 C CNN
	1    5850 3600
	1    0    0    -1  
$EndComp
Wire Wire Line
	5950 3600 5850 3600
Wire Wire Line
	5950 3500 5800 3500
Text HLabel 5800 4800 0    50   Output ~ 0
LV_NoPRSNT1Out
$Comp
L interlock:OS102011MS2QN1 S?
U 1 1 6169BF8C
P 6150 4800
AR Path="/61119591/6169BF8C" Ref="S?"  Part="1" 
AR Path="/614C2E34/6169BF8C" Ref="S?"  Part="1" 
AR Path="/614C4D35/6169BF8C" Ref="S?"  Part="1" 
AR Path="/6116F93D/6169BF8C" Ref="S6"  Part="1" 
F 0 "S6" H 6270 4846 50  0000 L CNN
F 1 "SW" H 6270 4755 50  0000 L CNN
F 2 "interlock:SW_OS102011MS2QN1" H 6150 4800 50  0001 L BNN
F 3 "" H 6150 4800 50  0001 L BNN
F 4 "C&K" H 6150 4800 50  0001 L BNN "MANUFACTURER"
F 5 "MANUFACTURER RECOMMENDATIONS" H 6150 4800 50  0001 L BNN "STANDARD"
	1    6150 4800
	1    0    0    -1  
$EndComp
$Comp
L power:GND #PWR?
U 1 1 6169BF92
P 5850 4900
AR Path="/61119591/6169BF92" Ref="#PWR?"  Part="1" 
AR Path="/614C2E34/6169BF92" Ref="#PWR?"  Part="1" 
AR Path="/614C4D35/6169BF92" Ref="#PWR?"  Part="1" 
AR Path="/6116F93D/6169BF92" Ref="#PWR026"  Part="1" 
F 0 "#PWR026" H 5850 4650 50  0001 C CNN
F 1 "GND" H 5855 4727 50  0000 C CNN
F 2 "" H 5850 4900 50  0001 C CNN
F 3 "" H 5850 4900 50  0001 C CNN
	1    5850 4900
	1    0    0    -1  
$EndComp
Wire Wire Line
	5950 4900 5850 4900
Wire Wire Line
	5950 4800 5800 4800
Text HLabel 10100 3400 0    50   Output ~ 0
LV_NoPRSNT2Out
$Comp
L interlock:OS102011MS2QN1 S?
U 1 1 6169FACE
P 10450 3400
AR Path="/61119591/6169FACE" Ref="S?"  Part="1" 
AR Path="/614C2E34/6169FACE" Ref="S?"  Part="1" 
AR Path="/614C4D35/6169FACE" Ref="S?"  Part="1" 
AR Path="/6116F93D/6169FACE" Ref="S4"  Part="1" 
F 0 "S4" H 10570 3446 50  0000 L CNN
F 1 "SW" H 10570 3355 50  0000 L CNN
F 2 "interlock:SW_OS102011MS2QN1" H 10450 3400 50  0001 L BNN
F 3 "" H 10450 3400 50  0001 L BNN
F 4 "C&K" H 10450 3400 50  0001 L BNN "MANUFACTURER"
F 5 "MANUFACTURER RECOMMENDATIONS" H 10450 3400 50  0001 L BNN "STANDARD"
	1    10450 3400
	1    0    0    -1  
$EndComp
$Comp
L power:GND #PWR?
U 1 1 6169FAD4
P 10150 3500
AR Path="/61119591/6169FAD4" Ref="#PWR?"  Part="1" 
AR Path="/614C2E34/6169FAD4" Ref="#PWR?"  Part="1" 
AR Path="/614C4D35/6169FAD4" Ref="#PWR?"  Part="1" 
AR Path="/6116F93D/6169FAD4" Ref="#PWR017"  Part="1" 
F 0 "#PWR017" H 10150 3250 50  0001 C CNN
F 1 "GND" H 10155 3327 50  0000 C CNN
F 2 "" H 10150 3500 50  0001 C CNN
F 3 "" H 10150 3500 50  0001 C CNN
	1    10150 3500
	1    0    0    -1  
$EndComp
Wire Wire Line
	10250 3500 10150 3500
Wire Wire Line
	10250 3400 10100 3400
$Comp
L Device:R R?
U 1 1 614AD7E1
P 5560 3130
AR Path="/61044A2C/614AD7E1" Ref="R?"  Part="1" 
AR Path="/61086D02/614AD7E1" Ref="R?"  Part="1" 
AR Path="/61422789/614AD7E1" Ref="R?"  Part="1" 
AR Path="/61422AED/614AD7E1" Ref="R?"  Part="1" 
AR Path="/61424501/614AD7E1" Ref="R?"  Part="1" 
AR Path="/6142478E/614AD7E1" Ref="R?"  Part="1" 
AR Path="/614278B4/614AD7E1" Ref="R?"  Part="1" 
AR Path="/6116F93D/614AD7E1" Ref="R65"  Part="1" 
F 0 "R65" V 5660 3130 50  0000 C CNN
F 1 "50k" V 5560 3130 50  0000 C CNN
F 2 "Resistor_SMD:R_0805_2012Metric" V 5490 3130 50  0001 C CNN
F 3 "~" H 5560 3130 50  0001 C CNN
	1    5560 3130
	-1   0    0    1   
$EndComp
$Comp
L Device:R R?
U 1 1 614AF2D2
P 5580 4460
AR Path="/61044A2C/614AF2D2" Ref="R?"  Part="1" 
AR Path="/61086D02/614AF2D2" Ref="R?"  Part="1" 
AR Path="/61422789/614AF2D2" Ref="R?"  Part="1" 
AR Path="/61422AED/614AF2D2" Ref="R?"  Part="1" 
AR Path="/61424501/614AF2D2" Ref="R?"  Part="1" 
AR Path="/6142478E/614AF2D2" Ref="R?"  Part="1" 
AR Path="/614278B4/614AF2D2" Ref="R?"  Part="1" 
AR Path="/6116F93D/614AF2D2" Ref="R66"  Part="1" 
F 0 "R66" V 5680 4460 50  0000 C CNN
F 1 "50k" V 5580 4460 50  0000 C CNN
F 2 "Resistor_SMD:R_0805_2012Metric" V 5510 4460 50  0001 C CNN
F 3 "~" H 5580 4460 50  0001 C CNN
	1    5580 4460
	-1   0    0    1   
$EndComp
$Comp
L Device:R R?
U 1 1 614B0EDC
P 9870 3070
AR Path="/61044A2C/614B0EDC" Ref="R?"  Part="1" 
AR Path="/61086D02/614B0EDC" Ref="R?"  Part="1" 
AR Path="/61422789/614B0EDC" Ref="R?"  Part="1" 
AR Path="/61422AED/614B0EDC" Ref="R?"  Part="1" 
AR Path="/61424501/614B0EDC" Ref="R?"  Part="1" 
AR Path="/6142478E/614B0EDC" Ref="R?"  Part="1" 
AR Path="/614278B4/614B0EDC" Ref="R?"  Part="1" 
AR Path="/6116F93D/614B0EDC" Ref="R64"  Part="1" 
F 0 "R64" V 9970 3070 50  0000 C CNN
F 1 "50k" V 9870 3070 50  0000 C CNN
F 2 "Resistor_SMD:R_0805_2012Metric" V 9800 3070 50  0001 C CNN
F 3 "~" H 9870 3070 50  0001 C CNN
	1    9870 3070
	-1   0    0    1   
$EndComp
Wire Wire Line
	5560 3280 5560 3400
Connection ~ 5560 3400
Wire Wire Line
	5560 3400 5950 3400
Wire Wire Line
	5580 4610 5580 4700
Connection ~ 5580 4700
Wire Wire Line
	5580 4700 5950 4700
Wire Wire Line
	9870 3220 9870 3300
Connection ~ 9870 3300
Wire Wire Line
	9870 3300 10250 3300
$Comp
L power:+12V #PWR?
U 1 1 618C159B
P 5560 2680
AR Path="/61044A2C/618C159B" Ref="#PWR?"  Part="1" 
AR Path="/61086D02/618C159B" Ref="#PWR?"  Part="1" 
AR Path="/61422789/618C159B" Ref="#PWR?"  Part="1" 
AR Path="/61422AED/618C159B" Ref="#PWR?"  Part="1" 
AR Path="/61424501/618C159B" Ref="#PWR?"  Part="1" 
AR Path="/6142478E/618C159B" Ref="#PWR?"  Part="1" 
AR Path="/614278B4/618C159B" Ref="#PWR?"  Part="1" 
AR Path="/6116F93D/618C159B" Ref="#PWR0221"  Part="1" 
F 0 "#PWR0221" H 5560 2530 50  0001 C CNN
F 1 "+12V" H 5575 2853 50  0000 C CNN
F 2 "" H 5560 2680 50  0001 C CNN
F 3 "" H 5560 2680 50  0001 C CNN
	1    5560 2680
	1    0    0    -1  
$EndComp
$Comp
L Device:LED D?
U 1 1 618C15A1
P 5560 2830
AR Path="/61119591/618C15A1" Ref="D?"  Part="1" 
AR Path="/614C2E34/618C15A1" Ref="D?"  Part="1" 
AR Path="/614C4D35/618C15A1" Ref="D?"  Part="1" 
AR Path="/61422AED/618C15A1" Ref="D?"  Part="1" 
AR Path="/6116F93D/618C15A1" Ref="D26"  Part="1" 
F 0 "D26" V 5599 2712 50  0000 R CNN
F 1 "LED" V 5508 2712 50  0000 R CNN
F 2 "LED_SMD:LED_1206_3216Metric_Pad1.42x1.75mm_HandSolder" H 5560 2830 50  0001 C CNN
F 3 "~" H 5560 2830 50  0001 C CNN
	1    5560 2830
	0    -1   -1   0   
$EndComp
$Comp
L power:+12V #PWR?
U 1 1 618C47F5
P 5580 4010
AR Path="/61044A2C/618C47F5" Ref="#PWR?"  Part="1" 
AR Path="/61086D02/618C47F5" Ref="#PWR?"  Part="1" 
AR Path="/61422789/618C47F5" Ref="#PWR?"  Part="1" 
AR Path="/61422AED/618C47F5" Ref="#PWR?"  Part="1" 
AR Path="/61424501/618C47F5" Ref="#PWR?"  Part="1" 
AR Path="/6142478E/618C47F5" Ref="#PWR?"  Part="1" 
AR Path="/614278B4/618C47F5" Ref="#PWR?"  Part="1" 
AR Path="/6116F93D/618C47F5" Ref="#PWR0222"  Part="1" 
F 0 "#PWR0222" H 5580 3860 50  0001 C CNN
F 1 "+12V" H 5595 4183 50  0000 C CNN
F 2 "" H 5580 4010 50  0001 C CNN
F 3 "" H 5580 4010 50  0001 C CNN
	1    5580 4010
	1    0    0    -1  
$EndComp
$Comp
L Device:LED D?
U 1 1 618C47FB
P 5580 4160
AR Path="/61119591/618C47FB" Ref="D?"  Part="1" 
AR Path="/614C2E34/618C47FB" Ref="D?"  Part="1" 
AR Path="/614C4D35/618C47FB" Ref="D?"  Part="1" 
AR Path="/61422AED/618C47FB" Ref="D?"  Part="1" 
AR Path="/6116F93D/618C47FB" Ref="D27"  Part="1" 
F 0 "D27" V 5619 4042 50  0000 R CNN
F 1 "LED" V 5528 4042 50  0000 R CNN
F 2 "LED_SMD:LED_1206_3216Metric_Pad1.42x1.75mm_HandSolder" H 5580 4160 50  0001 C CNN
F 3 "~" H 5580 4160 50  0001 C CNN
	1    5580 4160
	0    -1   -1   0   
$EndComp
$Comp
L power:+12V #PWR?
U 1 1 618C7C32
P 9870 2620
AR Path="/61044A2C/618C7C32" Ref="#PWR?"  Part="1" 
AR Path="/61086D02/618C7C32" Ref="#PWR?"  Part="1" 
AR Path="/61422789/618C7C32" Ref="#PWR?"  Part="1" 
AR Path="/61422AED/618C7C32" Ref="#PWR?"  Part="1" 
AR Path="/61424501/618C7C32" Ref="#PWR?"  Part="1" 
AR Path="/6142478E/618C7C32" Ref="#PWR?"  Part="1" 
AR Path="/614278B4/618C7C32" Ref="#PWR?"  Part="1" 
AR Path="/6116F93D/618C7C32" Ref="#PWR0220"  Part="1" 
F 0 "#PWR0220" H 9870 2470 50  0001 C CNN
F 1 "+12V" H 9885 2793 50  0000 C CNN
F 2 "" H 9870 2620 50  0001 C CNN
F 3 "" H 9870 2620 50  0001 C CNN
	1    9870 2620
	1    0    0    -1  
$EndComp
$Comp
L Device:LED D?
U 1 1 618C7C38
P 9870 2770
AR Path="/61119591/618C7C38" Ref="D?"  Part="1" 
AR Path="/614C2E34/618C7C38" Ref="D?"  Part="1" 
AR Path="/614C4D35/618C7C38" Ref="D?"  Part="1" 
AR Path="/61422AED/618C7C38" Ref="D?"  Part="1" 
AR Path="/6116F93D/618C7C38" Ref="D25"  Part="1" 
F 0 "D25" V 9909 2652 50  0000 R CNN
F 1 "LED" V 9818 2652 50  0000 R CNN
F 2 "LED_SMD:LED_1206_3216Metric_Pad1.42x1.75mm_HandSolder" H 9870 2770 50  0001 C CNN
F 3 "~" H 9870 2770 50  0001 C CNN
	1    9870 2770
	0    -1   -1   0   
$EndComp
$EndSCHEMATC
