EESchema Schematic File Version 4
EELAYER 30 0
EELAYER END
$Descr A4 11693 8268
encoding utf-8
Sheet 4 14
Title ""
Date ""
Rev ""
Comp ""
Comment1 ""
Comment2 ""
Comment3 ""
Comment4 ""
$EndDescr
$Comp
L interlock:MAX4662EAE+T U3
U 1 1 612360C3
P 4250 1500
F 0 "U3" H 5450 1887 60  0000 C CNN
F 1 "MAX4662EAE+T" H 5450 1781 60  0000 C CNN
F 2 "interlock:MAX4662EAE" H 5450 1740 60  0001 C CNN
F 3 "" H 4250 1500 60  0000 C CNN
	1    4250 1500
	1    0    0    -1  
$EndComp
Text HLabel 4000 1500 0    50   Input ~ 0
YellowOrRedIn
Wire Wire Line
	4250 1500 4000 1500
Text HLabel 4000 2200 0    50   Input ~ 0
RedIn
Text HLabel 6850 1500 2    50   Input ~ 0
YellowIn
Text HLabel 6850 2200 2    50   Input ~ 0
GreenIn
Wire Wire Line
	6850 1500 6650 1500
Wire Wire Line
	6850 2200 6650 2200
Wire Wire Line
	4250 2200 4000 2200
$Comp
L power:GND #PWR?
U 1 1 6123B2E1
P 2325 5025
AR Path="/61119591/6123B2E1" Ref="#PWR?"  Part="1" 
AR Path="/612351A1/6123B2E1" Ref="#PWR049"  Part="1" 
F 0 "#PWR049" H 2325 4775 50  0001 C CNN
F 1 "GND" H 2330 4852 50  0000 C CNN
F 2 "" H 2325 5025 50  0001 C CNN
F 3 "" H 2325 5025 50  0001 C CNN
	1    2325 5025
	1    0    0    -1  
$EndComp
Wire Wire Line
	2325 4975 2325 5025
Wire Wire Line
	7750 1700 7750 1800
Connection ~ 7750 1700
Wire Wire Line
	7850 1700 7750 1700
$Comp
L Device:C C?
U 1 1 6123B2ED
P 1975 4975
AR Path="/61119591/6123B2ED" Ref="C?"  Part="1" 
AR Path="/612351A1/6123B2ED" Ref="C15"  Part="1" 
F 0 "C15" V 2125 4975 50  0000 C CNN
F 1 "1uF" V 1814 4975 50  0000 C CNN
F 2 "Capacitor_SMD:C_0805_2012Metric" H 2013 4825 50  0001 C CNN
F 3 "~" H 1975 4975 50  0001 C CNN
	1    1975 4975
	0    1    1    0   
$EndComp
$Comp
L power:+12V #PWR?
U 1 1 6123B2F3
P 7750 1550
AR Path="/61119591/6123B2F3" Ref="#PWR?"  Part="1" 
AR Path="/612351A1/6123B2F3" Ref="#PWR033"  Part="1" 
F 0 "#PWR033" H 7750 1400 50  0001 C CNN
F 1 "+12V" H 7765 1723 50  0000 C CNN
F 2 "" H 7750 1550 50  0001 C CNN
F 3 "" H 7750 1550 50  0001 C CNN
	1    7750 1550
	1    0    0    -1  
$EndComp
Wire Wire Line
	2125 4975 2325 4975
Wire Wire Line
	6650 1800 7750 1800
Wire Wire Line
	6650 1900 6650 1800
Connection ~ 6650 1800
$Comp
L power:GND #PWR?
U 1 1 6123BF6A
P 3350 2275
AR Path="/61119591/6123BF6A" Ref="#PWR?"  Part="1" 
AR Path="/612351A1/6123BF6A" Ref="#PWR042"  Part="1" 
F 0 "#PWR042" H 3350 2025 50  0001 C CNN
F 1 "GND" H 3355 2102 50  0000 C CNN
F 2 "" H 3350 2275 50  0001 C CNN
F 3 "" H 3350 2275 50  0001 C CNN
	1    3350 2275
	1    0    0    -1  
$EndComp
Wire Wire Line
	4250 1800 3350 1800
Wire Wire Line
	4250 1900 4250 1800
Connection ~ 4250 1800
$Comp
L power:+12V #PWR?
U 1 1 6123E852
P 2950 1450
AR Path="/61119591/6123E852" Ref="#PWR?"  Part="1" 
AR Path="/612351A1/6123E852" Ref="#PWR031"  Part="1" 
F 0 "#PWR031" H 2950 1300 50  0001 C CNN
F 1 "+12V" H 2965 1623 50  0000 C CNN
F 2 "" H 2950 1450 50  0001 C CNN
F 3 "" H 2950 1450 50  0001 C CNN
	1    2950 1450
	1    0    0    -1  
$EndComp
$Comp
L Device:C C?
U 1 1 6123EF4D
P 2600 1550
AR Path="/61119591/6123EF4D" Ref="C?"  Part="1" 
AR Path="/612351A1/6123EF4D" Ref="C11"  Part="1" 
F 0 "C11" V 2750 1550 50  0000 C CNN
F 1 "0.1uF" V 2439 1550 50  0000 C CNN
F 2 "Capacitor_SMD:C_0805_2012Metric" H 2638 1400 50  0001 C CNN
F 3 "~" H 2600 1550 50  0001 C CNN
	1    2600 1550
	0    1    1    0   
$EndComp
$Comp
L power:GND #PWR?
U 1 1 6123F758
P 2150 1650
AR Path="/61119591/6123F758" Ref="#PWR?"  Part="1" 
AR Path="/612351A1/6123F758" Ref="#PWR034"  Part="1" 
F 0 "#PWR034" H 2150 1400 50  0001 C CNN
F 1 "GND" H 2155 1477 50  0000 C CNN
F 2 "" H 2150 1650 50  0001 C CNN
F 3 "" H 2150 1650 50  0001 C CNN
	1    2150 1650
	1    0    0    -1  
$EndComp
Wire Wire Line
	2750 1550 2950 1550
Wire Wire Line
	2950 1550 2950 1450
Wire Wire Line
	2450 1550 2150 1550
Wire Wire Line
	2150 1550 2150 1650
Wire Wire Line
	2950 1550 2950 1600
Wire Wire Line
	2950 1600 4250 1600
Connection ~ 2950 1550
Text Label 4000 1700 2    50   ~ 0
YellowOrRed
Wire Wire Line
	4250 1700 4000 1700
Text Label 4000 2000 2    50   ~ 0
Red
Wire Wire Line
	4250 2000 4000 2000
Text Label 6850 1700 0    50   ~ 0
Yellow
Text Label 6850 2000 0    50   ~ 0
Green
Wire Wire Line
	6850 1700 6650 1700
Wire Wire Line
	6850 2000 6650 2000
$Comp
L Reference_Voltage:LT1461CxS8-5 U5
U 1 1 61284BF5
P 1775 5525
F 0 "U5" H 1525 5775 50  0000 L CNN
F 1 "LT1461CxS8-5" H 1825 5275 50  0000 L CNN
F 2 "Package_SO:SOIC-8_3.9x4.9mm_P1.27mm" H 1425 5525 50  0001 C CNN
F 3 "https://www.analog.com/media/en/technical-documentation/data-sheets/LT1461.pdf" H 1425 5525 50  0001 C CNN
	1    1775 5525
	1    0    0    -1  
$EndComp
$Comp
L power:GND #PWR?
U 1 1 612855BB
P 1325 5875
AR Path="/61119591/612855BB" Ref="#PWR?"  Part="1" 
AR Path="/612351A1/612855BB" Ref="#PWR056"  Part="1" 
F 0 "#PWR056" H 1325 5625 50  0001 C CNN
F 1 "GND" H 1330 5702 50  0000 C CNN
F 2 "" H 1325 5875 50  0001 C CNN
F 3 "" H 1325 5875 50  0001 C CNN
	1    1325 5875
	1    0    0    -1  
$EndComp
Wire Wire Line
	1775 5825 1325 5825
Wire Wire Line
	1325 5825 1325 5875
Wire Wire Line
	1375 5525 1325 5525
Wire Wire Line
	1775 5225 1775 4975
Wire Wire Line
	1825 4975 1775 4975
Text Label 1325 5525 2    50   ~ 0
YellowOrRed
Wire Wire Line
	1775 4975 1625 4975
Connection ~ 1775 4975
Wire Wire Line
	2175 5525 2525 5525
$Comp
L Device:C C?
U 1 1 6111D9AD
P 2525 5925
AR Path="/61119591/6111D9AD" Ref="C?"  Part="1" 
AR Path="/612351A1/6111D9AD" Ref="C16"  Part="1" 
F 0 "C16" H 2675 5925 50  0000 C CNN
F 1 "2uF" H 2364 5925 50  0000 C CNN
F 2 "Capacitor_SMD:C_0805_2012Metric" H 2563 5775 50  0001 C CNN
F 3 "~" H 2525 5925 50  0001 C CNN
	1    2525 5925
	-1   0    0    1   
$EndComp
$Comp
L power:GND #PWR?
U 1 1 6111F203
P 2525 6175
AR Path="/61119591/6111F203" Ref="#PWR?"  Part="1" 
AR Path="/612351A1/6111F203" Ref="#PWR057"  Part="1" 
F 0 "#PWR057" H 2525 5925 50  0001 C CNN
F 1 "GND" H 2530 6002 50  0000 C CNN
F 2 "" H 2525 6175 50  0001 C CNN
F 3 "" H 2525 6175 50  0001 C CNN
	1    2525 6175
	1    0    0    -1  
$EndComp
Wire Wire Line
	2525 5775 2525 5525
Connection ~ 2525 5525
Wire Wire Line
	2525 5525 2575 5525
Wire Wire Line
	2525 6175 2525 6075
$Comp
L power:GND #PWR?
U 1 1 6112E326
P 8350 1750
AR Path="/61119591/6112E326" Ref="#PWR?"  Part="1" 
AR Path="/612351A1/6112E326" Ref="#PWR035"  Part="1" 
F 0 "#PWR035" H 8350 1500 50  0001 C CNN
F 1 "GND" H 8355 1577 50  0000 C CNN
F 2 "" H 8350 1750 50  0001 C CNN
F 3 "" H 8350 1750 50  0001 C CNN
	1    8350 1750
	1    0    0    -1  
$EndComp
Wire Wire Line
	8350 1700 8350 1750
$Comp
L Device:C C?
U 1 1 6112E32D
P 8000 1700
AR Path="/61119591/6112E32D" Ref="C?"  Part="1" 
AR Path="/612351A1/6112E32D" Ref="C12"  Part="1" 
F 0 "C12" V 8150 1700 50  0000 C CNN
F 1 "0.1uF" V 7839 1700 50  0000 C CNN
F 2 "Capacitor_SMD:C_0805_2012Metric" H 8038 1550 50  0001 C CNN
F 3 "~" H 8000 1700 50  0001 C CNN
	1    8000 1700
	0    1    1    0   
$EndComp
Wire Wire Line
	8150 1700 8350 1700
Text Label 1475 3375 2    50   ~ 0
YellowOrRed
Text Label 6275 3275 0    50   ~ 0
LV_IT
$Comp
L Device:C C?
U 1 1 6115FE59
P 5275 3450
AR Path="/61119591/6115FE59" Ref="C?"  Part="1" 
AR Path="/612351A1/6115FE59" Ref="C13"  Part="1" 
F 0 "C13" V 5425 3450 50  0000 C CNN
F 1 "0.1uF" V 5114 3450 50  0000 C CNN
F 2 "Capacitor_SMD:C_0805_2012Metric" H 5313 3300 50  0001 C CNN
F 3 "~" H 5275 3450 50  0001 C CNN
	1    5275 3450
	0    1    1    0   
$EndComp
$Comp
L power:+12V #PWR?
U 1 1 611636E1
P 4925 3125
AR Path="/61119591/611636E1" Ref="#PWR?"  Part="1" 
AR Path="/612351A1/611636E1" Ref="#PWR043"  Part="1" 
F 0 "#PWR043" H 4925 2975 50  0001 C CNN
F 1 "+12V" H 4940 3298 50  0000 C CNN
F 2 "" H 4925 3125 50  0001 C CNN
F 3 "" H 4925 3125 50  0001 C CNN
	1    4925 3125
	1    0    0    -1  
$EndComp
$Comp
L power:GND #PWR?
U 1 1 6116610D
P 1825 3775
AR Path="/61119591/6116610D" Ref="#PWR?"  Part="1" 
AR Path="/612351A1/6116610D" Ref="#PWR045"  Part="1" 
F 0 "#PWR045" H 1825 3525 50  0001 C CNN
F 1 "GND" H 1830 3602 50  0000 C CNN
F 2 "" H 1825 3775 50  0001 C CNN
F 3 "" H 1825 3775 50  0001 C CNN
	1    1825 3775
	1    0    0    -1  
$EndComp
Wire Wire Line
	2425 3575 2350 3575
Wire Wire Line
	1825 3575 1825 3775
$Comp
L power:GND #PWR?
U 1 1 611704CB
P 5425 3675
AR Path="/61119591/611704CB" Ref="#PWR?"  Part="1" 
AR Path="/612351A1/611704CB" Ref="#PWR044"  Part="1" 
F 0 "#PWR044" H 5425 3425 50  0001 C CNN
F 1 "GND" H 5430 3502 50  0000 C CNN
F 2 "" H 5425 3675 50  0001 C CNN
F 3 "" H 5425 3675 50  0001 C CNN
	1    5425 3675
	1    0    0    -1  
$EndComp
Text Label 4825 3775 0    50   ~ 0
Chiller_5
Wire Wire Line
	4625 3775 4825 3775
Text Label 4825 3975 0    50   ~ 0
Chiller_6
Wire Wire Line
	4825 3975 4625 3975
Text Label 2575 5525 0    50   ~ 0
HV_SIG_P
Text Notes 1245 7490 0    87   ~ 0
to enable LV: provide 12V on LV_IT\nto shutdown LV: provide 0V on LV_IT\nto enable HV: provide 5V on HV_SIG_P\nto shutdown HV: provide 0V on HV_SIG_P\nto enable chiller: short two pins (5 and 6) on the chiller\nto shutdown chiller: do not short two pins (5 and 6) on the chiller
$Comp
L power:+12V #PWR?
U 1 1 61225243
P 1625 4975
AR Path="/61119591/61225243" Ref="#PWR?"  Part="1" 
AR Path="/612351A1/61225243" Ref="#PWR048"  Part="1" 
F 0 "#PWR048" H 1625 4825 50  0001 C CNN
F 1 "+12V" H 1640 5148 50  0000 C CNN
F 2 "" H 1625 4975 50  0001 C CNN
F 3 "" H 1625 4975 50  0001 C CNN
	1    1625 4975
	1    0    0    -1  
$EndComp
Text Notes 3000 3675 0    50   ~ 0
normally closed switch; \nOn-resistance 1.25ohm
Wire Wire Line
	7750 1550 7750 1700
$Comp
L power:GND #PWR?
U 1 1 6113DF32
P 7475 1525
AR Path="/61119591/6113DF32" Ref="#PWR?"  Part="1" 
AR Path="/612351A1/6113DF32" Ref="#PWR032"  Part="1" 
F 0 "#PWR032" H 7475 1275 50  0001 C CNN
F 1 "GND" H 7480 1352 50  0000 C CNN
F 2 "" H 7475 1525 50  0001 C CNN
F 3 "" H 7475 1525 50  0001 C CNN
	1    7475 1525
	1    0    0    -1  
$EndComp
Wire Wire Line
	6650 1600 7275 1600
Wire Wire Line
	7275 1600 7275 1400
Wire Wire Line
	7275 1400 7475 1400
Wire Wire Line
	7475 1400 7475 1525
$Comp
L power:GND #PWR?
U 1 1 61143D56
P 7475 2150
AR Path="/61119591/61143D56" Ref="#PWR?"  Part="1" 
AR Path="/612351A1/61143D56" Ref="#PWR041"  Part="1" 
F 0 "#PWR041" H 7475 1900 50  0001 C CNN
F 1 "GND" H 7480 1977 50  0000 C CNN
F 2 "" H 7475 2150 50  0001 C CNN
F 3 "" H 7475 2150 50  0001 C CNN
	1    7475 2150
	1    0    0    -1  
$EndComp
Wire Wire Line
	6650 2100 7475 2100
Wire Wire Line
	7475 2100 7475 2150
Wire Wire Line
	3350 1800 3350 2100
Wire Wire Line
	4250 2100 3350 2100
Connection ~ 3350 2100
Wire Wire Line
	3350 2100 3350 2275
Text Notes 6700 2800 0    50   ~ 0
adafruit tower light (2993):\nconnect red/yellow/green pins to GND to light up red/yellow/green LED
$Comp
L Device:R R7
U 1 1 61181272
P 6835 5045
F 0 "R7" V 6915 4990 50  0000 L CNN
F 1 "0" V 6830 4985 50  0000 L CNN
F 2 "Resistor_SMD:R_0805_2012Metric" V 6765 5045 50  0001 C CNN
F 3 "~" H 6835 5045 50  0001 C CNN
	1    6835 5045
	1    0    0    -1  
$EndComp
$Comp
L Device:R R13
U 1 1 61181EA7
P 6835 5485
F 0 "R13" V 6915 5430 50  0000 L CNN
F 1 "1M" V 6830 5425 50  0000 L CNN
F 2 "Resistor_SMD:R_0805_2012Metric" V 6765 5485 50  0001 C CNN
F 3 "~" H 6835 5485 50  0001 C CNN
	1    6835 5485
	1    0    0    -1  
$EndComp
$Comp
L power:GND #PWR?
U 1 1 611828DF
P 6835 5795
AR Path="/61119591/611828DF" Ref="#PWR?"  Part="1" 
AR Path="/612351A1/611828DF" Ref="#PWR050"  Part="1" 
F 0 "#PWR050" H 6835 5545 50  0001 C CNN
F 1 "GND" H 6840 5622 50  0000 C CNN
F 2 "" H 6835 5795 50  0001 C CNN
F 3 "" H 6835 5795 50  0001 C CNN
	1    6835 5795
	1    0    0    -1  
$EndComp
Text Label 8605 4715 2    50   ~ 0
LV_IT
Wire Wire Line
	6835 5795 6835 5635
Text Label 6880 5260 0    50   ~ 0
LV_IT_0
Wire Wire Line
	6835 5335 6835 5260
Wire Wire Line
	6880 5260 6835 5260
Connection ~ 6835 5260
Wire Wire Line
	6835 5260 6835 5195
$Comp
L Device:R R8
U 1 1 61191B3D
P 7375 5050
F 0 "R8" V 7455 4995 50  0000 L CNN
F 1 "0" V 7370 4990 50  0000 L CNN
F 2 "Resistor_SMD:R_0805_2012Metric" V 7305 5050 50  0001 C CNN
F 3 "~" H 7375 5050 50  0001 C CNN
	1    7375 5050
	1    0    0    -1  
$EndComp
$Comp
L Device:R R14
U 1 1 61191B43
P 7375 5490
F 0 "R14" V 7455 5435 50  0000 L CNN
F 1 "1M" V 7370 5430 50  0000 L CNN
F 2 "Resistor_SMD:R_0805_2012Metric" V 7305 5490 50  0001 C CNN
F 3 "~" H 7375 5490 50  0001 C CNN
	1    7375 5490
	1    0    0    -1  
$EndComp
$Comp
L power:GND #PWR?
U 1 1 61191B49
P 7375 5800
AR Path="/61119591/61191B49" Ref="#PWR?"  Part="1" 
AR Path="/612351A1/61191B49" Ref="#PWR051"  Part="1" 
F 0 "#PWR051" H 7375 5550 50  0001 C CNN
F 1 "GND" H 7380 5627 50  0000 C CNN
F 2 "" H 7375 5800 50  0001 C CNN
F 3 "" H 7375 5800 50  0001 C CNN
	1    7375 5800
	1    0    0    -1  
$EndComp
Wire Wire Line
	7375 5800 7375 5640
Text Label 7420 5265 0    50   ~ 0
LV_IT_1
Wire Wire Line
	7375 5340 7375 5265
Wire Wire Line
	7420 5265 7375 5265
Connection ~ 7375 5265
Wire Wire Line
	7375 5265 7375 5200
$Comp
L Device:R R9
U 1 1 611957D7
P 7880 5060
F 0 "R9" V 7960 5005 50  0000 L CNN
F 1 "0" V 7875 5000 50  0000 L CNN
F 2 "Resistor_SMD:R_0805_2012Metric" V 7810 5060 50  0001 C CNN
F 3 "~" H 7880 5060 50  0001 C CNN
	1    7880 5060
	1    0    0    -1  
$EndComp
$Comp
L Device:R R15
U 1 1 611957DD
P 7880 5500
F 0 "R15" V 7960 5445 50  0000 L CNN
F 1 "1M" V 7875 5440 50  0000 L CNN
F 2 "Resistor_SMD:R_0805_2012Metric" V 7810 5500 50  0001 C CNN
F 3 "~" H 7880 5500 50  0001 C CNN
	1    7880 5500
	1    0    0    -1  
$EndComp
$Comp
L power:GND #PWR?
U 1 1 611957E3
P 7880 5810
AR Path="/61119591/611957E3" Ref="#PWR?"  Part="1" 
AR Path="/612351A1/611957E3" Ref="#PWR052"  Part="1" 
F 0 "#PWR052" H 7880 5560 50  0001 C CNN
F 1 "GND" H 7885 5637 50  0000 C CNN
F 2 "" H 7880 5810 50  0001 C CNN
F 3 "" H 7880 5810 50  0001 C CNN
	1    7880 5810
	1    0    0    -1  
$EndComp
Wire Wire Line
	7880 5810 7880 5650
Text Label 7925 5275 0    50   ~ 0
LV_IT_2
Wire Wire Line
	7880 5350 7880 5275
Wire Wire Line
	7925 5275 7880 5275
Connection ~ 7880 5275
Wire Wire Line
	7880 5275 7880 5210
$Comp
L Device:R R10
U 1 1 61198D91
P 8385 5060
F 0 "R10" V 8465 5005 50  0000 L CNN
F 1 "0" V 8380 5000 50  0000 L CNN
F 2 "Resistor_SMD:R_0805_2012Metric" V 8315 5060 50  0001 C CNN
F 3 "~" H 8385 5060 50  0001 C CNN
	1    8385 5060
	1    0    0    -1  
$EndComp
$Comp
L Device:R R16
U 1 1 61198D97
P 8385 5500
F 0 "R16" V 8465 5445 50  0000 L CNN
F 1 "1M" V 8380 5440 50  0000 L CNN
F 2 "Resistor_SMD:R_0805_2012Metric" V 8315 5500 50  0001 C CNN
F 3 "~" H 8385 5500 50  0001 C CNN
	1    8385 5500
	1    0    0    -1  
$EndComp
$Comp
L power:GND #PWR?
U 1 1 61198D9D
P 8385 5810
AR Path="/61119591/61198D9D" Ref="#PWR?"  Part="1" 
AR Path="/612351A1/61198D9D" Ref="#PWR053"  Part="1" 
F 0 "#PWR053" H 8385 5560 50  0001 C CNN
F 1 "GND" H 8390 5637 50  0000 C CNN
F 2 "" H 8385 5810 50  0001 C CNN
F 3 "" H 8385 5810 50  0001 C CNN
	1    8385 5810
	1    0    0    -1  
$EndComp
Wire Wire Line
	8385 5810 8385 5650
Text Label 8430 5275 0    50   ~ 0
~LV_IT_0
Wire Wire Line
	8385 5350 8385 5275
Wire Wire Line
	8430 5275 8385 5275
Connection ~ 8385 5275
Wire Wire Line
	8385 5275 8385 5210
$Comp
L Device:R R11
U 1 1 6119DBD2
P 8920 5060
F 0 "R11" V 9000 5005 50  0000 L CNN
F 1 "0" V 8915 5000 50  0000 L CNN
F 2 "Resistor_SMD:R_0805_2012Metric" V 8850 5060 50  0001 C CNN
F 3 "~" H 8920 5060 50  0001 C CNN
	1    8920 5060
	1    0    0    -1  
$EndComp
$Comp
L Device:R R17
U 1 1 6119DBD8
P 8920 5500
F 0 "R17" V 9000 5445 50  0000 L CNN
F 1 "1M" V 8915 5440 50  0000 L CNN
F 2 "Resistor_SMD:R_0805_2012Metric" V 8850 5500 50  0001 C CNN
F 3 "~" H 8920 5500 50  0001 C CNN
	1    8920 5500
	1    0    0    -1  
$EndComp
$Comp
L power:GND #PWR?
U 1 1 6119DBDE
P 8920 5810
AR Path="/61119591/6119DBDE" Ref="#PWR?"  Part="1" 
AR Path="/612351A1/6119DBDE" Ref="#PWR054"  Part="1" 
F 0 "#PWR054" H 8920 5560 50  0001 C CNN
F 1 "GND" H 8925 5637 50  0000 C CNN
F 2 "" H 8920 5810 50  0001 C CNN
F 3 "" H 8920 5810 50  0001 C CNN
	1    8920 5810
	1    0    0    -1  
$EndComp
Wire Wire Line
	8920 5810 8920 5650
Text Label 8965 5275 0    50   ~ 0
~LV_IT_1
Wire Wire Line
	8920 5350 8920 5275
Wire Wire Line
	8965 5275 8920 5275
Connection ~ 8920 5275
Wire Wire Line
	8920 5275 8920 5210
$Comp
L Device:R R12
U 1 1 611A1D51
P 9440 5070
F 0 "R12" V 9520 5015 50  0000 L CNN
F 1 "0" V 9435 5010 50  0000 L CNN
F 2 "Resistor_SMD:R_0805_2012Metric" V 9370 5070 50  0001 C CNN
F 3 "~" H 9440 5070 50  0001 C CNN
	1    9440 5070
	1    0    0    -1  
$EndComp
$Comp
L Device:R R18
U 1 1 611A1D57
P 9440 5510
F 0 "R18" V 9520 5455 50  0000 L CNN
F 1 "1M" V 9435 5450 50  0000 L CNN
F 2 "Resistor_SMD:R_0805_2012Metric" V 9370 5510 50  0001 C CNN
F 3 "~" H 9440 5510 50  0001 C CNN
	1    9440 5510
	1    0    0    -1  
$EndComp
$Comp
L power:GND #PWR?
U 1 1 611A1D5D
P 9440 5820
AR Path="/61119591/611A1D5D" Ref="#PWR?"  Part="1" 
AR Path="/612351A1/611A1D5D" Ref="#PWR055"  Part="1" 
F 0 "#PWR055" H 9440 5570 50  0001 C CNN
F 1 "GND" H 9445 5647 50  0000 C CNN
F 2 "" H 9440 5820 50  0001 C CNN
F 3 "" H 9440 5820 50  0001 C CNN
	1    9440 5820
	1    0    0    -1  
$EndComp
Wire Wire Line
	9440 5820 9440 5660
Text Label 9485 5285 0    50   ~ 0
~LV_IT_2
Wire Wire Line
	9440 5360 9440 5285
Wire Wire Line
	9485 5285 9440 5285
Connection ~ 9440 5285
Wire Wire Line
	9440 5285 9440 5220
Wire Wire Line
	6615 4820 6835 4820
Wire Wire Line
	9440 4820 9440 4920
Wire Wire Line
	6835 4895 6835 4820
Connection ~ 6835 4820
Wire Wire Line
	6835 4820 7375 4820
Wire Wire Line
	7375 4900 7375 4820
Connection ~ 7375 4820
Wire Wire Line
	7375 4820 7880 4820
Wire Wire Line
	7880 4910 7880 4820
Wire Wire Line
	8385 4910 8385 4820
Wire Wire Line
	8385 4820 8605 4820
Wire Wire Line
	8920 4910 8920 4820
Connection ~ 8920 4820
Wire Wire Line
	8920 4820 9440 4820
Text Notes 5570 6185 0    50   ~ 0
no need to place R30 to R35 if 12V is needed. Those resistors are place holders for voltage divider in case other voltage values are needed.
$Comp
L interlock:MAX4680CAE+ U4
U 1 1 611DBFA1
P 2425 3275
F 0 "U4" H 3525 3662 60  0000 C CNN
F 1 "MAX4680CAE+" H 3525 3556 60  0000 C CNN
F 2 "interlock:MAX4680CAE" H 3525 3515 60  0001 C CNN
F 3 "" H 2425 3275 60  0000 C CNN
	1    2425 3275
	1    0    0    -1  
$EndComp
Wire Wire Line
	5425 3450 5425 3625
Wire Wire Line
	5125 3450 4925 3450
Wire Wire Line
	4925 3450 4925 3125
Wire Wire Line
	4625 3475 4925 3475
Wire Wire Line
	4925 3475 4925 3450
Connection ~ 4925 3450
Wire Wire Line
	4625 3575 4925 3575
Wire Wire Line
	4925 3575 4925 3475
Connection ~ 4925 3475
Wire Wire Line
	4625 3675 4925 3675
Wire Wire Line
	4925 3675 4925 3575
Connection ~ 4925 3575
Wire Wire Line
	2425 3375 1650 3375
Wire Wire Line
	2425 3875 2100 3875
Wire Wire Line
	2100 3875 2100 4125
Wire Wire Line
	2100 4125 1650 4125
Wire Wire Line
	1650 4125 1650 3375
Connection ~ 1650 3375
Wire Wire Line
	1650 3375 1475 3375
Wire Wire Line
	2425 3675 2350 3675
Wire Wire Line
	2350 3675 2350 3575
Connection ~ 2350 3575
Wire Wire Line
	2350 3575 1825 3575
Text Label 9275 1425 0    50   ~ 0
Red
$Comp
L Device:R R2
U 1 1 6128C2DC
P 9275 1725
F 0 "R2" V 9375 1675 50  0000 L CNN
F 1 "1M" V 9275 1675 50  0000 L CNN
F 2 "Resistor_SMD:R_0805_2012Metric" V 9205 1725 50  0001 C CNN
F 3 "~" H 9275 1725 50  0001 C CNN
	1    9275 1725
	1    0    0    -1  
$EndComp
$Comp
L power:GND #PWR?
U 1 1 6128CCE8
P 9275 2025
AR Path="/61119591/6128CCE8" Ref="#PWR?"  Part="1" 
AR Path="/612351A1/6128CCE8" Ref="#PWR036"  Part="1" 
F 0 "#PWR036" H 9275 1775 50  0001 C CNN
F 1 "GND" H 9280 1852 50  0000 C CNN
F 2 "" H 9275 2025 50  0001 C CNN
F 3 "" H 9275 2025 50  0001 C CNN
	1    9275 2025
	1    0    0    -1  
$EndComp
Wire Wire Line
	9275 2025 9275 1875
Wire Wire Line
	9275 1575 9275 1425
Text Label 9725 1450 0    50   ~ 0
Yellow
$Comp
L Device:R R3
U 1 1 61297E61
P 9725 1750
F 0 "R3" V 9825 1700 50  0000 L CNN
F 1 "1M" V 9725 1700 50  0000 L CNN
F 2 "Resistor_SMD:R_0805_2012Metric" V 9655 1750 50  0001 C CNN
F 3 "~" H 9725 1750 50  0001 C CNN
	1    9725 1750
	1    0    0    -1  
$EndComp
$Comp
L power:GND #PWR?
U 1 1 61297E67
P 9725 2050
AR Path="/61119591/61297E67" Ref="#PWR?"  Part="1" 
AR Path="/612351A1/61297E67" Ref="#PWR037"  Part="1" 
F 0 "#PWR037" H 9725 1800 50  0001 C CNN
F 1 "GND" H 9730 1877 50  0000 C CNN
F 2 "" H 9725 2050 50  0001 C CNN
F 3 "" H 9725 2050 50  0001 C CNN
	1    9725 2050
	1    0    0    -1  
$EndComp
Wire Wire Line
	9725 2050 9725 1900
Wire Wire Line
	9725 1600 9725 1450
Text Label 10150 1475 0    50   ~ 0
Green
$Comp
L Device:R R4
U 1 1 6129D924
P 10150 1775
F 0 "R4" V 10250 1725 50  0000 L CNN
F 1 "1M" V 10150 1725 50  0000 L CNN
F 2 "Resistor_SMD:R_0805_2012Metric" V 10080 1775 50  0001 C CNN
F 3 "~" H 10150 1775 50  0001 C CNN
	1    10150 1775
	1    0    0    -1  
$EndComp
$Comp
L power:GND #PWR?
U 1 1 6129D92A
P 10150 2075
AR Path="/61119591/6129D92A" Ref="#PWR?"  Part="1" 
AR Path="/612351A1/6129D92A" Ref="#PWR038"  Part="1" 
F 0 "#PWR038" H 10150 1825 50  0001 C CNN
F 1 "GND" H 10155 1902 50  0000 C CNN
F 2 "" H 10150 2075 50  0001 C CNN
F 3 "" H 10150 2075 50  0001 C CNN
	1    10150 2075
	1    0    0    -1  
$EndComp
Wire Wire Line
	10150 2075 10150 1925
Wire Wire Line
	10150 1625 10150 1475
Wire Wire Line
	4625 3275 5850 3275
$Comp
L Device:C C?
U 1 1 612B22FE
P 5850 3475
AR Path="/61119591/612B22FE" Ref="C?"  Part="1" 
AR Path="/612351A1/612B22FE" Ref="C14"  Part="1" 
F 0 "C14" V 6000 3475 50  0000 C CNN
F 1 "15pF" V 5689 3475 50  0000 C CNN
F 2 "Capacitor_SMD:C_0805_2012Metric" H 5888 3325 50  0001 C CNN
F 3 "~" H 5850 3475 50  0001 C CNN
	1    5850 3475
	-1   0    0    1   
$EndComp
Wire Wire Line
	5850 3325 5850 3275
Connection ~ 5850 3275
Wire Wire Line
	5850 3275 6275 3275
Wire Wire Line
	5850 3625 5425 3625
Connection ~ 5425 3625
Wire Wire Line
	5425 3625 5425 3675
Text Label 10490 1475 0    50   ~ 0
Chiller_5
$Comp
L Device:R R5
U 1 1 61565BF3
P 10490 1775
F 0 "R5" V 10590 1725 50  0000 L CNN
F 1 "1M" V 10490 1725 50  0000 L CNN
F 2 "Resistor_SMD:R_0805_2012Metric" V 10420 1775 50  0001 C CNN
F 3 "~" H 10490 1775 50  0001 C CNN
	1    10490 1775
	1    0    0    -1  
$EndComp
$Comp
L power:GND #PWR?
U 1 1 61565BF9
P 10490 2075
AR Path="/61119591/61565BF9" Ref="#PWR?"  Part="1" 
AR Path="/612351A1/61565BF9" Ref="#PWR039"  Part="1" 
F 0 "#PWR039" H 10490 1825 50  0001 C CNN
F 1 "GND" H 10495 1902 50  0000 C CNN
F 2 "" H 10490 2075 50  0001 C CNN
F 3 "" H 10490 2075 50  0001 C CNN
	1    10490 2075
	1    0    0    -1  
$EndComp
Wire Wire Line
	10490 2075 10490 1925
Wire Wire Line
	10490 1625 10490 1475
Text Label 10840 1485 0    50   ~ 0
Chiller_6
$Comp
L Device:R R6
U 1 1 6156C0C4
P 10840 1785
F 0 "R6" V 10940 1735 50  0000 L CNN
F 1 "1M" V 10840 1735 50  0000 L CNN
F 2 "Resistor_SMD:R_0805_2012Metric" V 10770 1785 50  0001 C CNN
F 3 "~" H 10840 1785 50  0001 C CNN
	1    10840 1785
	1    0    0    -1  
$EndComp
$Comp
L power:GND #PWR?
U 1 1 6156C0CA
P 10840 2085
AR Path="/61119591/6156C0CA" Ref="#PWR?"  Part="1" 
AR Path="/612351A1/6156C0CA" Ref="#PWR040"  Part="1" 
F 0 "#PWR040" H 10840 1835 50  0001 C CNN
F 1 "GND" H 10845 1912 50  0000 C CNN
F 2 "" H 10840 2085 50  0001 C CNN
F 3 "" H 10840 2085 50  0001 C CNN
	1    10840 2085
	1    0    0    -1  
$EndComp
Wire Wire Line
	10840 2085 10840 1935
Wire Wire Line
	10840 1635 10840 1485
$Comp
L Connector_Generic:Conn_01x10 J3
U 1 1 61A13057
P 10640 4640
F 0 "J3" H 10720 4682 50  0000 L CNN
F 1 "Conn_01x10" H 10720 4591 50  0000 L CNN
F 2 "TerminalBlock_RND:TerminalBlock_RND_205-00053_1x10_P5.00mm_Horizontal" H 10640 4640 50  0001 C CNN
F 3 "~" H 10640 4640 50  0001 C CNN
	1    10640 4640
	1    0    0    -1  
$EndComp
Text Label 10340 4840 2    50   ~ 0
~HV_SIG_P
Text Label 10340 4940 2    50   ~ 0
HV_SIG_P
Text Label 10350 2940 2    50   ~ 0
LV_IT_0
Text Label 10350 3040 2    50   ~ 0
LV_IT_1
Text Label 10350 3140 2    50   ~ 0
LV_IT_2
Text Label 10350 3240 2    50   ~ 0
~LV_IT_0
Text Label 10350 3340 2    50   ~ 0
~LV_IT_1
Text Label 10350 3440 2    50   ~ 0
~LV_IT_2
Wire Wire Line
	10440 4840 10340 4840
Wire Wire Line
	10340 4940 10440 4940
Wire Wire Line
	10440 2940 10350 2940
Wire Wire Line
	10350 3040 10440 3040
Wire Wire Line
	10350 3140 10440 3140
Wire Wire Line
	10350 3240 10440 3240
Wire Wire Line
	10350 3340 10440 3340
Wire Wire Line
	10350 3440 10440 3440
$Comp
L power:GND #PWR?
U 1 1 61AA3960
P 9630 3920
AR Path="/61119591/61AA3960" Ref="#PWR?"  Part="1" 
AR Path="/612351A1/61AA3960" Ref="#PWR046"  Part="1" 
F 0 "#PWR046" H 9630 3670 50  0001 C CNN
F 1 "GND" H 9635 3747 50  0000 C CNN
F 2 "" H 9630 3920 50  0001 C CNN
F 3 "" H 9630 3920 50  0001 C CNN
	1    9630 3920
	1    0    0    -1  
$EndComp
Text Label 10340 4440 2    50   ~ 0
Green
Text Label 10340 4340 2    50   ~ 0
Yellow
Text Label 10340 4540 2    50   ~ 0
Red
Text Label 7865 3740 2    50   ~ 0
Red
Wire Wire Line
	10440 4240 10340 4240
Wire Wire Line
	10440 4340 10340 4340
Wire Wire Line
	10440 4440 10340 4440
Wire Wire Line
	10440 4540 10340 4540
$Comp
L power:+12V #PWR?
U 1 1 61506A71
P 9960 4610
AR Path="/61119591/61506A71" Ref="#PWR?"  Part="1" 
AR Path="/612351A1/61506A71" Ref="#PWR047"  Part="1" 
F 0 "#PWR047" H 9960 4460 50  0001 C CNN
F 1 "+12V" H 9975 4783 50  0000 C CNN
F 2 "" H 9960 4610 50  0001 C CNN
F 3 "" H 9960 4610 50  0001 C CNN
	1    9960 4610
	1    0    0    -1  
$EndComp
Wire Wire Line
	10440 4640 9960 4640
Wire Wire Line
	9960 4640 9960 4610
Text Label 6615 4820 2    50   ~ 0
YellowOrRed
Wire Wire Line
	8605 4715 8605 4820
Connection ~ 8605 4820
Wire Wire Line
	8605 4820 8920 4820
$Comp
L power:GND #PWR?
U 1 1 6155FE3D
P 4745 5010
AR Path="/61119591/6155FE3D" Ref="#PWR?"  Part="1" 
AR Path="/612351A1/6155FE3D" Ref="#PWR0238"  Part="1" 
F 0 "#PWR0238" H 4745 4760 50  0001 C CNN
F 1 "GND" H 4750 4837 50  0000 C CNN
F 2 "" H 4745 5010 50  0001 C CNN
F 3 "" H 4745 5010 50  0001 C CNN
	1    4745 5010
	1    0    0    -1  
$EndComp
Wire Wire Line
	4745 4960 4745 5010
$Comp
L Device:C C?
U 1 1 6155FE44
P 4395 4960
AR Path="/61119591/6155FE44" Ref="C?"  Part="1" 
AR Path="/612351A1/6155FE44" Ref="C59"  Part="1" 
F 0 "C59" V 4545 4960 50  0000 C CNN
F 1 "1uF" V 4234 4960 50  0000 C CNN
F 2 "Capacitor_SMD:C_0805_2012Metric" H 4433 4810 50  0001 C CNN
F 3 "~" H 4395 4960 50  0001 C CNN
	1    4395 4960
	0    1    1    0   
$EndComp
Wire Wire Line
	4545 4960 4745 4960
$Comp
L Reference_Voltage:LT1461CxS8-5 U26
U 1 1 6155FE4B
P 4195 5510
F 0 "U26" H 3945 5760 50  0000 L CNN
F 1 "LT1461CxS8-5" H 4245 5260 50  0000 L CNN
F 2 "Package_SO:SOIC-8_3.9x4.9mm_P1.27mm" H 3845 5510 50  0001 C CNN
F 3 "https://www.analog.com/media/en/technical-documentation/data-sheets/LT1461.pdf" H 3845 5510 50  0001 C CNN
	1    4195 5510
	1    0    0    -1  
$EndComp
$Comp
L power:GND #PWR?
U 1 1 6155FE51
P 3745 5860
AR Path="/61119591/6155FE51" Ref="#PWR?"  Part="1" 
AR Path="/612351A1/6155FE51" Ref="#PWR0239"  Part="1" 
F 0 "#PWR0239" H 3745 5610 50  0001 C CNN
F 1 "GND" H 3750 5687 50  0000 C CNN
F 2 "" H 3745 5860 50  0001 C CNN
F 3 "" H 3745 5860 50  0001 C CNN
	1    3745 5860
	1    0    0    -1  
$EndComp
Wire Wire Line
	4195 5810 3745 5810
Wire Wire Line
	3745 5810 3745 5860
Wire Wire Line
	3795 5510 3745 5510
Wire Wire Line
	4195 5210 4195 4960
Wire Wire Line
	4245 4960 4195 4960
Text Label 3745 5510 2    50   ~ 0
LV_IT
Wire Wire Line
	4195 4960 4045 4960
Connection ~ 4195 4960
Wire Wire Line
	4595 5510 4945 5510
$Comp
L Device:C C?
U 1 1 6155FE60
P 4945 5910
AR Path="/61119591/6155FE60" Ref="C?"  Part="1" 
AR Path="/612351A1/6155FE60" Ref="C60"  Part="1" 
F 0 "C60" H 5095 5910 50  0000 C CNN
F 1 "2uF" H 4784 5910 50  0000 C CNN
F 2 "Capacitor_SMD:C_0805_2012Metric" H 4983 5760 50  0001 C CNN
F 3 "~" H 4945 5910 50  0001 C CNN
	1    4945 5910
	-1   0    0    1   
$EndComp
$Comp
L power:GND #PWR?
U 1 1 6155FE66
P 4945 6160
AR Path="/61119591/6155FE66" Ref="#PWR?"  Part="1" 
AR Path="/612351A1/6155FE66" Ref="#PWR0240"  Part="1" 
F 0 "#PWR0240" H 4945 5910 50  0001 C CNN
F 1 "GND" H 4950 5987 50  0000 C CNN
F 2 "" H 4945 6160 50  0001 C CNN
F 3 "" H 4945 6160 50  0001 C CNN
	1    4945 6160
	1    0    0    -1  
$EndComp
Wire Wire Line
	4945 5760 4945 5510
Connection ~ 4945 5510
Wire Wire Line
	4945 5510 4995 5510
Wire Wire Line
	4945 6160 4945 6060
Text Label 4995 5510 0    50   ~ 0
~HV_SIG_P
$Comp
L power:+12V #PWR?
U 1 1 6155FE71
P 4045 4960
AR Path="/61119591/6155FE71" Ref="#PWR?"  Part="1" 
AR Path="/612351A1/6155FE71" Ref="#PWR0237"  Part="1" 
F 0 "#PWR0237" H 4045 4810 50  0001 C CNN
F 1 "+12V" H 4060 5133 50  0000 C CNN
F 2 "" H 4045 4960 50  0001 C CNN
F 3 "" H 4045 4960 50  0001 C CNN
	1    4045 4960
	1    0    0    -1  
$EndComp
$Comp
L Connector_Generic:Conn_01x10 J2
U 1 1 61A0FBB2
P 10640 3240
F 0 "J2" H 10720 3232 50  0000 L CNN
F 1 "Conn_01x10" H 10720 3141 50  0000 L CNN
F 2 "TerminalBlock_RND:TerminalBlock_RND_205-00053_1x10_P5.00mm_Horizontal" H 10640 3240 50  0001 C CNN
F 3 "~" H 10640 3240 50  0001 C CNN
	1    10640 3240
	1    0    0    -1  
$EndComp
Wire Wire Line
	10350 3740 10440 3740
Wire Wire Line
	10350 3640 10440 3640
Text Label 10350 3740 2    50   ~ 0
Chiller_6
Text Label 10350 3640 2    50   ~ 0
Chiller_5
Wire Wire Line
	10440 2840 9630 2840
$Comp
L power:GND #PWR?
U 1 1 61693E06
P 9860 5170
AR Path="/61119591/61693E06" Ref="#PWR?"  Part="1" 
AR Path="/612351A1/61693E06" Ref="#PWR0249"  Part="1" 
F 0 "#PWR0249" H 9860 4920 50  0001 C CNN
F 1 "GND" H 9865 4997 50  0000 C CNN
F 2 "" H 9860 5170 50  0001 C CNN
F 3 "" H 9860 5170 50  0001 C CNN
	1    9860 5170
	1    0    0    -1  
$EndComp
Wire Wire Line
	10440 4740 9860 4740
Wire Wire Line
	9860 4740 9860 5040
Wire Wire Line
	10440 5040 9860 5040
Connection ~ 9860 5040
Wire Wire Line
	9860 5040 9860 5170
Wire Wire Line
	10440 5140 10440 5040
Wire Wire Line
	10440 5040 10435 5040
Connection ~ 10440 5040
Wire Wire Line
	10440 3540 9630 3540
Wire Wire Line
	9630 2840 9630 3540
Connection ~ 9630 3540
Wire Wire Line
	9630 3540 9630 3920
$Comp
L interlock:OS102011MS2QN1 S?
U 1 1 61467394
P 8160 3840
AR Path="/61119591/61467394" Ref="S?"  Part="1" 
AR Path="/614C2E34/61467394" Ref="S?"  Part="1" 
AR Path="/614C4D35/61467394" Ref="S?"  Part="1" 
AR Path="/6142D6FB/61467394" Ref="S?"  Part="1" 
AR Path="/612351A1/61467394" Ref="S21"  Part="1" 
F 0 "S21" H 8280 3886 50  0000 L CNN
F 1 "SW" H 8280 3795 50  0000 L CNN
F 2 "interlock:SW_OS102011MS2QN1" H 8160 3840 50  0001 L BNN
F 3 "" H 8160 3840 50  0001 L BNN
F 4 "C&K" H 8160 3840 50  0001 L BNN "MANUFACTURER"
F 5 "MANUFACTURER RECOMMENDATIONS" H 8160 3840 50  0001 L BNN "STANDARD"
	1    8160 3840
	1    0    0    -1  
$EndComp
NoConn ~ 7960 3940
Text Label 7860 3840 2    50   ~ 0
Buzz
Wire Wire Line
	7960 3740 7865 3740
Wire Wire Line
	7960 3840 7860 3840
Text Label 10340 4240 2    50   ~ 0
Buzz
$EndSCHEMATC
