EESchema Schematic File Version 4
EELAYER 30 0
EELAYER END
$Descr A4 11693 8268
encoding utf-8
Sheet 1 14
Title ""
Date ""
Rev ""
Comp ""
Comment1 ""
Comment2 ""
Comment3 ""
Comment4 ""
$EndDescr
$Sheet
S 2820 4690 1010 500 
U 61093DB5
F0 "door" 50
F1 "door.sch" 50
F2 "Door1OpenOut" O R 3830 4790 50 
F3 "Door1B" I L 2820 4890 50 
F4 "Door1A" I L 2820 4790 50 
F5 "Door2OpenOut" O R 3830 4940 50 
F6 "Door2B" I L 2820 5090 50 
F7 "Door2A" I L 2820 4990 50 
$EndSheet
$Sheet
S 2820 5590 1010 750 
U 6116F93D
F0 "LV_PRESENT" 50
F1 "LV_PRESENT.sch" 50
F2 "LV_NoPRSNT1Out" O R 3830 6140 50 
F3 "LV_NoPRSNT0Out" O R 3830 6040 50 
F4 "LV_PRSNT0" I L 2820 5640 50 
F5 "LV_PRSNT1" I L 2820 5740 50 
F6 "LV_NoPRSNT2Out" O R 3830 6240 50 
F7 "LV_PRSNT2" I L 2820 5840 50 
$EndSheet
$Sheet
S 8500 3200 1500 1300
U 612351A1
F0 "Output" 50
F1 "Output.sch" 50
F2 "YellowOrRedIn" I L 8500 3450 50 
F3 "RedIn" I L 8500 3650 50 
F4 "YellowIn" I L 8500 3850 50 
F5 "GreenIn" I L 8500 4050 50 
$EndSheet
Wire Wire Line
	8500 3450 7450 3450
Wire Wire Line
	7450 3650 8500 3650
Wire Wire Line
	8500 3850 7450 3850
Wire Wire Line
	7450 4050 8500 4050
$Sheet
S 810  2530 1000 1950
U 61211A3B
F0 "Input" 50
F1 "Input.sch" 50
F2 "Flow" O R 1810 3230 50 
F3 "Door1A" O R 1810 3430 50 
F4 "Door2A" O R 1810 3630 50 
F5 "LV_PRSNT0" O R 1810 4030 50 
F6 "LV_PRSNT1" O R 1810 4160 50 
F7 "LV_PRSNT2" O R 1810 4280 50 
F8 "Door1B" O R 1810 3530 50 
F9 "Door2B" O R 1810 3730 50 
F10 "NTC1" O R 1810 2620 50 
F11 "NTC2" O R 1810 2720 50 
F12 "NTC3" O R 1810 2830 50 
F13 "NTC4" O R 1810 2930 50 
F14 "Hum1" O R 1810 3020 50 
F15 "Hum2" O R 1810 3120 50 
$EndSheet
$Comp
L Mechanical:MountingHole H2
U 1 1 613E259A
P 7560 5255
F 0 "H2" H 7660 5301 50  0000 L CNN
F 1 "MountingHole" H 7660 5210 50  0000 L CNN
F 2 "MountingHole:MountingHole_4mm" H 7560 5255 50  0001 C CNN
F 3 "~" H 7560 5255 50  0001 C CNN
	1    7560 5255
	1    0    0    -1  
$EndComp
$Comp
L Mechanical:MountingHole H1
U 1 1 613E2A94
P 8590 5240
F 0 "H1" H 8690 5286 50  0000 L CNN
F 1 "MountingHole" H 8690 5195 50  0000 L CNN
F 2 "MountingHole:MountingHole_4mm" H 8590 5240 50  0001 C CNN
F 3 "~" H 8590 5240 50  0001 C CNN
	1    8590 5240
	1    0    0    -1  
$EndComp
$Comp
L Mechanical:MountingHole H4
U 1 1 613E2F55
P 7560 5860
F 0 "H4" H 7660 5906 50  0000 L CNN
F 1 "MountingHole" H 7660 5815 50  0000 L CNN
F 2 "MountingHole:MountingHole_4mm" H 7560 5860 50  0001 C CNN
F 3 "~" H 7560 5860 50  0001 C CNN
	1    7560 5860
	1    0    0    -1  
$EndComp
$Comp
L Mechanical:MountingHole H3
U 1 1 613E3327
P 8585 5855
F 0 "H3" H 8685 5901 50  0000 L CNN
F 1 "MountingHole" H 8685 5810 50  0000 L CNN
F 2 "MountingHole:MountingHole_4mm" H 8585 5855 50  0001 C CNN
F 3 "~" H 8585 5855 50  0001 C CNN
	1    8585 5855
	1    0    0    -1  
$EndComp
$Sheet
S 2790 830  1000 310 
U 61044A2C
F0 "temperature1" 50
F1 "temperature1.sch" 50
F2 "NTCIn" I L 2790 930 50 
F3 "TempLowOut" O R 3790 930 50 
F4 "TempHighOut" O R 3790 1040 50 
$EndSheet
$Sheet
S 2800 1370 1000 310 
U 61422AED
F0 "temperatures2" 50
F1 "temperature2.sch" 50
F2 "NTCIn" I L 2800 1470 50 
F3 "TempLowOut" O R 3800 1470 50 
F4 "TempHighOut" O R 3800 1580 50 
$EndSheet
$Sheet
S 2800 1900 1000 310 
U 61424501
F0 "temperature3" 50
F1 "temperature3.sch" 50
F2 "NTCIn" I L 2800 2000 50 
F3 "TempLowOut" O R 3800 2000 50 
F4 "TempHighOut" O R 3800 2110 50 
$EndSheet
$Sheet
S 2800 2430 1000 310 
U 6142478E
F0 "temperature4" 50
F1 "temperature4.sch" 50
F2 "NTCIn" I L 2800 2530 50 
F3 "TempLowOut" O R 3800 2530 50 
F4 "TempHighOut" O R 3800 2640 50 
$EndSheet
$Sheet
S 2810 2950 1000 310 
U 6142D6FB
F0 "humidity1" 50
F1 "humidity1.sch" 50
F2 "HumHighOut" O R 3810 3180 50 
F3 "HumLowOut" O R 3810 3070 50 
F4 "HumIn" I L 2810 3060 50 
$EndSheet
$Sheet
S 2810 3460 1000 310 
U 6143C8B2
F0 "humidity2" 50
F1 "humidity2.sch" 50
F2 "HumHighOut" O R 3810 3690 50 
F3 "HumLowOut" O R 3810 3580 50 
F4 "HumIn" I L 2810 3570 50 
$EndSheet
$Sheet
S 2820 4010 1000 310 
U 6143F4F0
F0 "flow" 50
F1 "flow.sch" 50
F2 "FlowHighOut" O R 3820 4250 50 
F3 "FlowLowOut" O R 3820 4140 50 
F4 "FlowIn" I L 2820 4130 50 
$EndSheet
Wire Wire Line
	1810 2620 1880 2620
Wire Wire Line
	1880 2620 1880 930 
Wire Wire Line
	1880 930  2790 930 
Wire Wire Line
	1810 2720 1930 2720
Wire Wire Line
	1930 2720 1930 1470
Wire Wire Line
	1930 1470 2800 1470
Wire Wire Line
	1810 2830 2000 2830
Wire Wire Line
	2000 2830 2000 2000
Wire Wire Line
	2000 2000 2800 2000
Wire Wire Line
	1810 2930 2050 2930
Wire Wire Line
	2050 2930 2050 2530
Wire Wire Line
	2050 2530 2800 2530
Wire Wire Line
	1810 4280 1850 4280
Wire Wire Line
	1850 4280 1850 5840
Wire Wire Line
	1850 5840 2820 5840
Wire Wire Line
	1810 4160 1880 4160
Wire Wire Line
	1880 4160 1880 5740
Wire Wire Line
	1880 5740 2820 5740
Wire Wire Line
	2820 5640 1920 5640
Wire Wire Line
	1920 5640 1920 4030
Wire Wire Line
	1920 4030 1810 4030
Wire Wire Line
	1810 3730 1950 3730
Wire Wire Line
	1950 3730 1950 5090
Wire Wire Line
	1950 5090 2820 5090
Wire Wire Line
	2820 4990 1980 4990
Wire Wire Line
	1980 3630 1810 3630
Wire Wire Line
	1980 3630 1980 4990
Wire Wire Line
	1810 3530 2000 3530
Wire Wire Line
	2000 3530 2000 4890
Wire Wire Line
	2000 4890 2820 4890
Wire Wire Line
	2820 4790 2020 4790
Wire Wire Line
	2020 4790 2020 3430
Wire Wire Line
	2020 3430 1810 3430
Wire Wire Line
	1810 3230 2040 3230
Wire Wire Line
	2040 3230 2040 4130
Wire Wire Line
	2040 4130 2820 4130
Wire Wire Line
	1810 3120 2080 3120
Wire Wire Line
	2080 3120 2080 3570
Wire Wire Line
	2080 3570 2810 3570
Wire Wire Line
	1810 3020 2730 3020
Wire Wire Line
	2730 3020 2730 3060
Wire Wire Line
	2810 3060 2730 3060
$Sheet
S 4470 2650 1150 2250
U 614C4D35
F0 "SRLatch" 50
F1 "SRLatch.sch" 50
F2 "Door2" I L 4470 4450 50 
F3 "Door1" I L 4470 4360 50 
F4 "Reset" I R 5620 2740 50 
F5 "TempHigh1" I L 4470 2820 50 
F6 "TempLow1" I L 4470 2720 50 
F7 "TempHigh2" I L 4470 3050 50 
F8 "TempLow2" I L 4470 2950 50 
F9 "TempHigh3" I L 4470 3260 50 
F10 "TempLow3" I L 4470 3170 50 
F11 "TempHigh4" I L 4470 3470 50 
F12 "TempLow4" I L 4470 3370 50 
F13 "HumHigh1" I L 4470 3670 50 
F14 "HumLow1" I L 4470 3580 50 
F15 "HumHigh2" I L 4470 3910 50 
F16 "HumLow2" I L 4470 3800 50 
F17 "FlowHigh" I L 4470 4160 50 
F18 "FlowLow" I L 4470 4040 50 
F19 "LV0" I L 4470 4560 50 
F20 "LV1" I L 4470 4680 50 
F21 "LV2" I L 4470 4790 50 
F22 "BigOROut" O R 5620 3860 50 
$EndSheet
$Comp
L dk_Tactile-Switches:1825910-6 S?
U 1 1 616BC7E1
P 5420 1430
AR Path="/61119591/616BC7E1" Ref="S?"  Part="1" 
AR Path="/614C2E34/616BC7E1" Ref="S?"  Part="1" 
AR Path="/614C4D35/616BC7E1" Ref="S?"  Part="1" 
AR Path="/616BC7E1" Ref="S1"  Part="1" 
F 0 "S1" H 5420 1777 60  0000 C CNN
F 1 "1825910-6" H 5420 1671 60  0000 C CNN
F 2 "digikey-footprints:Switch_Tactile_THT_6x6mm" H 5620 1630 60  0001 L CNN
F 3 "https://www.te.com/commerce/DocumentDelivery/DDEController?Action=srchrtrv&DocNm=1825910&DocType=Customer+Drawing&DocLang=English" H 5620 1730 60  0001 L CNN
F 4 "450-1650-ND" H 5620 1830 60  0001 L CNN "Digi-Key_PN"
F 5 "1825910-6" H 5620 1930 60  0001 L CNN "MPN"
F 6 "Switches" H 5620 2030 60  0001 L CNN "Category"
F 7 "Tactile Switches" H 5620 2130 60  0001 L CNN "Family"
F 8 "https://www.te.com/commerce/DocumentDelivery/DDEController?Action=srchrtrv&DocNm=1825910&DocType=Customer+Drawing&DocLang=English" H 5620 2230 60  0001 L CNN "DK_Datasheet_Link"
F 9 "/product-detail/en/te-connectivity-alcoswitch-switches/1825910-6/450-1650-ND/1632536" H 5620 2330 60  0001 L CNN "DK_Detail_Page"
F 10 "SWITCH TACTILE SPST-NO 0.05A 24V" H 5620 2430 60  0001 L CNN "Description"
F 11 "TE Connectivity ALCOSWITCH Switches" H 5620 2530 60  0001 L CNN "Manufacturer"
F 12 "Active" H 5620 2630 60  0001 L CNN "Status"
	1    5420 1430
	1    0    0    -1  
$EndComp
Wire Wire Line
	5220 1530 5220 1380
$Comp
L power:+12V #PWR?
U 1 1 616BC7E8
P 4870 1380
AR Path="/61119591/616BC7E8" Ref="#PWR?"  Part="1" 
AR Path="/614C2E34/616BC7E8" Ref="#PWR?"  Part="1" 
AR Path="/614C4D35/616BC7E8" Ref="#PWR?"  Part="1" 
AR Path="/616BC7E8" Ref="#PWR01"  Part="1" 
F 0 "#PWR01" H 4870 1230 50  0001 C CNN
F 1 "+12V" H 4885 1553 50  0000 C CNN
F 2 "" H 4870 1380 50  0001 C CNN
F 3 "" H 4870 1380 50  0001 C CNN
	1    4870 1380
	1    0    0    -1  
$EndComp
Wire Wire Line
	4870 1380 5220 1380
Connection ~ 5220 1380
Wire Wire Line
	5220 1380 5220 1330
Wire Wire Line
	5620 1330 5620 1430
Connection ~ 5620 1430
Wire Wire Line
	5620 1430 5620 1530
$Comp
L Device:R R?
U 1 1 616BC7F6
P 5710 1610
AR Path="/61119591/616BC7F6" Ref="R?"  Part="1" 
AR Path="/614C2E34/616BC7F6" Ref="R?"  Part="1" 
AR Path="/614C4D35/616BC7F6" Ref="R?"  Part="1" 
AR Path="/616BC7F6" Ref="R1"  Part="1" 
F 0 "R1" H 5780 1656 50  0000 L CNN
F 1 "10k" H 5780 1565 50  0000 L CNN
F 2 "Resistor_SMD:R_0805_2012Metric" V 5640 1610 50  0001 C CNN
F 3 "~" H 5710 1610 50  0001 C CNN
	1    5710 1610
	1    0    0    -1  
$EndComp
$Comp
L power:GND #PWR?
U 1 1 616BC7FC
P 5710 1820
AR Path="/61119591/616BC7FC" Ref="#PWR?"  Part="1" 
AR Path="/614C2E34/616BC7FC" Ref="#PWR?"  Part="1" 
AR Path="/614C4D35/616BC7FC" Ref="#PWR?"  Part="1" 
AR Path="/616BC7FC" Ref="#PWR02"  Part="1" 
F 0 "#PWR02" H 5710 1570 50  0001 C CNN
F 1 "GND" H 5715 1647 50  0000 C CNN
F 2 "" H 5710 1820 50  0001 C CNN
F 3 "" H 5710 1820 50  0001 C CNN
	1    5710 1820
	1    0    0    -1  
$EndComp
Wire Wire Line
	5710 1820 5710 1760
Wire Wire Line
	5710 1460 5710 1430
Connection ~ 5710 1430
Wire Wire Line
	5710 1430 5620 1430
$Sheet
S 6250 3200 1200 1300
U 61119591
F0 "RedYellowGreen" 50
F1 "RedYellowGreen.sch" 50
F2 "OutRed" O R 7450 3650 50 
F3 "OutGreen" O R 7450 4050 50 
F4 "OutYellow" O R 7450 3850 50 
F5 "OutYellowOrRed" O R 7450 3450 50 
F6 "BigOR" I L 6250 3860 50 
F7 "Reset" I L 6250 3400 50 
$EndSheet
Wire Wire Line
	6080 1430 6080 2740
Wire Wire Line
	6080 2740 5620 2740
Wire Wire Line
	5710 1430 6080 1430
Wire Wire Line
	6250 3400 6080 3400
Wire Wire Line
	6080 3400 6080 2740
Connection ~ 6080 2740
Wire Wire Line
	5620 3860 6250 3860
Wire Wire Line
	4470 2720 4440 2720
Wire Wire Line
	4440 2720 4440 930 
Wire Wire Line
	4440 930  3790 930 
Wire Wire Line
	3790 1040 4420 1040
Wire Wire Line
	4420 1040 4420 2820
Wire Wire Line
	4420 2820 4470 2820
Wire Wire Line
	4470 2950 4400 2950
Wire Wire Line
	4400 2950 4400 1470
Wire Wire Line
	4400 1470 3800 1470
Wire Wire Line
	3800 1580 4380 1580
Wire Wire Line
	4380 1580 4380 3050
Wire Wire Line
	4380 3050 4470 3050
Wire Wire Line
	4470 3170 4360 3170
Wire Wire Line
	4360 3170 4360 2000
Wire Wire Line
	4360 2000 3800 2000
Wire Wire Line
	3800 2110 4340 2110
Wire Wire Line
	4340 2110 4340 3260
Wire Wire Line
	4340 3260 4470 3260
Wire Wire Line
	4310 3370 4310 2530
Wire Wire Line
	4310 2530 3800 2530
Wire Wire Line
	4310 3370 4470 3370
Wire Wire Line
	3800 2640 4290 2640
Wire Wire Line
	4290 2640 4290 3470
Wire Wire Line
	4290 3470 4470 3470
Wire Wire Line
	4470 3580 4270 3580
Wire Wire Line
	4270 3580 4270 3070
Wire Wire Line
	4270 3070 3810 3070
Wire Wire Line
	3810 3180 4250 3180
Wire Wire Line
	4250 3180 4250 3670
Wire Wire Line
	4250 3670 4470 3670
Wire Wire Line
	3810 3580 4220 3580
Wire Wire Line
	4220 3580 4220 3800
Wire Wire Line
	4220 3800 4470 3800
Wire Wire Line
	3810 3690 4200 3690
Wire Wire Line
	4200 3690 4200 3910
Wire Wire Line
	4200 3910 4470 3910
Wire Wire Line
	4470 4790 4440 4790
Wire Wire Line
	4440 4790 4440 6240
Wire Wire Line
	4440 6240 3830 6240
Wire Wire Line
	3830 6140 4410 6140
Wire Wire Line
	4410 6140 4410 4680
Wire Wire Line
	4410 4680 4470 4680
Wire Wire Line
	3830 6040 4380 6040
Wire Wire Line
	4380 6040 4380 4560
Wire Wire Line
	4380 4560 4470 4560
Wire Wire Line
	3830 4940 4300 4940
Wire Wire Line
	4300 4940 4300 4450
Wire Wire Line
	4300 4450 4470 4450
Wire Wire Line
	3830 4790 4280 4790
Wire Wire Line
	4280 4790 4280 4360
Wire Wire Line
	4280 4360 4470 4360
Wire Wire Line
	3820 4140 4360 4140
Wire Wire Line
	4360 4140 4360 4040
Wire Wire Line
	4360 4040 4470 4040
Wire Wire Line
	4470 4160 3860 4160
Wire Wire Line
	3860 4160 3860 4250
Wire Wire Line
	3860 4250 3820 4250
$EndSCHEMATC
