EESchema Schematic File Version 4
EELAYER 30 0
EELAYER END
$Descr A4 11693 8268
encoding utf-8
Sheet 14 14
Title ""
Date ""
Rev ""
Comp ""
Comment1 ""
Comment2 ""
Comment3 ""
Comment4 ""
$EndDescr
$Comp
L interlock:CD4072BM U22
U 1 1 6111F9FF
P 2360 2060
AR Path="/61119591/6111F9FF" Ref="U22"  Part="1" 
AR Path="/614C2E34/6111F9FF" Ref="U?"  Part="1" 
AR Path="/614C4D35/6111F9FF" Ref="U?"  Part="1" 
F 0 "U22" H 2360 2930 50  0000 C CNN
F 1 "CD4072BM" H 2360 2839 50  0000 C CNN
F 2 "interlock:SOIC127P600X175-14N" H 2360 2060 50  0001 L BNN
F 3 "" H 2360 2060 50  0001 L BNN
	1    2360 2060
	1    0    0    -1  
$EndComp
$Comp
L power:+12V #PWR0200
U 1 1 61127D02
P 3260 1210
AR Path="/61119591/61127D02" Ref="#PWR0200"  Part="1" 
AR Path="/614C2E34/61127D02" Ref="#PWR?"  Part="1" 
AR Path="/614C4D35/61127D02" Ref="#PWR?"  Part="1" 
F 0 "#PWR0200" H 3260 1060 50  0001 C CNN
F 1 "+12V" H 3275 1383 50  0000 C CNN
F 2 "" H 3260 1210 50  0001 C CNN
F 3 "" H 3260 1210 50  0001 C CNN
	1    3260 1210
	1    0    0    -1  
$EndComp
$Comp
L Device:C C55
U 1 1 61127D08
P 3510 1360
AR Path="/61119591/61127D08" Ref="C55"  Part="1" 
AR Path="/614C2E34/61127D08" Ref="C?"  Part="1" 
AR Path="/614C4D35/61127D08" Ref="C?"  Part="1" 
F 0 "C55" V 3660 1360 50  0000 C CNN
F 1 "0.1uF" V 3349 1360 50  0000 C CNN
F 2 "Capacitor_SMD:C_0805_2012Metric" H 3548 1210 50  0001 C CNN
F 3 "~" H 3510 1360 50  0001 C CNN
	1    3510 1360
	0    1    1    0   
$EndComp
$Comp
L power:GND #PWR0201
U 1 1 61127D0E
P 3860 1410
AR Path="/61119591/61127D0E" Ref="#PWR0201"  Part="1" 
AR Path="/614C2E34/61127D0E" Ref="#PWR?"  Part="1" 
AR Path="/614C4D35/61127D0E" Ref="#PWR?"  Part="1" 
F 0 "#PWR0201" H 3860 1160 50  0001 C CNN
F 1 "GND" H 3865 1237 50  0000 C CNN
F 2 "" H 3860 1410 50  0001 C CNN
F 3 "" H 3860 1410 50  0001 C CNN
	1    3860 1410
	1    0    0    -1  
$EndComp
Wire Wire Line
	3660 1360 3860 1360
Wire Wire Line
	3860 1360 3860 1410
Wire Wire Line
	3260 1210 3260 1360
Wire Wire Line
	3260 1460 3060 1460
Wire Wire Line
	3360 1360 3260 1360
Connection ~ 3260 1360
Wire Wire Line
	3260 1360 3260 1460
$Comp
L power:GND #PWR0203
U 1 1 61129225
P 3060 2810
AR Path="/61119591/61129225" Ref="#PWR0203"  Part="1" 
AR Path="/614C2E34/61129225" Ref="#PWR?"  Part="1" 
AR Path="/614C4D35/61129225" Ref="#PWR?"  Part="1" 
F 0 "#PWR0203" H 3060 2560 50  0001 C CNN
F 1 "GND" H 3065 2637 50  0000 C CNN
F 2 "" H 3060 2810 50  0001 C CNN
F 3 "" H 3060 2810 50  0001 C CNN
	1    3060 2810
	1    0    0    -1  
$EndComp
Wire Wire Line
	3060 2810 3060 2660
Text HLabel 7900 4450 1    50   Output ~ 0
OutRed
$Comp
L Device:R R59
U 1 1 611411B4
P 7900 4950
AR Path="/61119591/611411B4" Ref="R59"  Part="1" 
AR Path="/614C2E34/611411B4" Ref="R?"  Part="1" 
AR Path="/614C4D35/611411B4" Ref="R?"  Part="1" 
F 0 "R59" V 8000 4900 50  0000 L CNN
F 1 "8k" V 7900 4850 50  0000 L CNN
F 2 "Resistor_SMD:R_0805_2012Metric" V 7830 4950 50  0001 C CNN
F 3 "~" H 7900 4950 50  0001 C CNN
	1    7900 4950
	1    0    0    -1  
$EndComp
$Comp
L Device:LED D20
U 1 1 61141F08
P 7900 5450
AR Path="/61119591/61141F08" Ref="D20"  Part="1" 
AR Path="/614C2E34/61141F08" Ref="D?"  Part="1" 
AR Path="/614C4D35/61141F08" Ref="D?"  Part="1" 
F 0 "D20" V 7939 5332 50  0000 R CNN
F 1 "RedLED" V 7848 5332 50  0000 R CNN
F 2 "LED_SMD:LED_1206_3216Metric_Pad1.42x1.75mm_HandSolder" H 7900 5450 50  0001 C CNN
F 3 "~" H 7900 5450 50  0001 C CNN
	1    7900 5450
	0    -1   -1   0   
$EndComp
$Comp
L power:GND #PWR0212
U 1 1 61143457
P 7900 5850
AR Path="/61119591/61143457" Ref="#PWR0212"  Part="1" 
AR Path="/614C2E34/61143457" Ref="#PWR?"  Part="1" 
AR Path="/614C4D35/61143457" Ref="#PWR?"  Part="1" 
F 0 "#PWR0212" H 7900 5600 50  0001 C CNN
F 1 "GND" H 7905 5677 50  0000 C CNN
F 2 "" H 7900 5850 50  0001 C CNN
F 3 "" H 7900 5850 50  0001 C CNN
	1    7900 5850
	1    0    0    -1  
$EndComp
Wire Wire Line
	7900 5850 7900 5600
Wire Wire Line
	7900 5300 7900 5100
$Comp
L Device:R R60
U 1 1 61147046
P 8900 4950
AR Path="/61119591/61147046" Ref="R60"  Part="1" 
AR Path="/614C2E34/61147046" Ref="R?"  Part="1" 
AR Path="/614C4D35/61147046" Ref="R?"  Part="1" 
F 0 "R60" V 9000 4900 50  0000 L CNN
F 1 "8k" V 8900 4850 50  0000 L CNN
F 2 "Resistor_SMD:R_0805_2012Metric" V 8830 4950 50  0001 C CNN
F 3 "~" H 8900 4950 50  0001 C CNN
	1    8900 4950
	1    0    0    -1  
$EndComp
$Comp
L power:GND #PWR0213
U 1 1 61147052
P 8900 5850
AR Path="/61119591/61147052" Ref="#PWR0213"  Part="1" 
AR Path="/614C2E34/61147052" Ref="#PWR?"  Part="1" 
AR Path="/614C4D35/61147052" Ref="#PWR?"  Part="1" 
F 0 "#PWR0213" H 8900 5600 50  0001 C CNN
F 1 "GND" H 8905 5677 50  0000 C CNN
F 2 "" H 8900 5850 50  0001 C CNN
F 3 "" H 8900 5850 50  0001 C CNN
	1    8900 5850
	1    0    0    -1  
$EndComp
Wire Wire Line
	8900 5850 8900 5600
Wire Wire Line
	8900 5300 8900 5100
$Comp
L Device:LED D21
U 1 1 6114704C
P 8900 5450
AR Path="/61119591/6114704C" Ref="D21"  Part="1" 
AR Path="/614C2E34/6114704C" Ref="D?"  Part="1" 
AR Path="/614C4D35/6114704C" Ref="D?"  Part="1" 
F 0 "D21" V 8939 5332 50  0000 R CNN
F 1 "YellowLED" V 8848 5332 50  0000 R CNN
F 2 "LED_SMD:LED_1206_3216Metric_Pad1.42x1.75mm_HandSolder" H 8900 5450 50  0001 C CNN
F 3 "~" H 8900 5450 50  0001 C CNN
	1    8900 5450
	0    -1   -1   0   
$EndComp
Text HLabel 8900 4600 1    50   Output ~ 0
OutYellow
Wire Wire Line
	7900 4450 7900 4650
Wire Wire Line
	7550 4650 7900 4650
Connection ~ 7900 4650
Wire Wire Line
	7900 4650 7900 4800
Text Notes 660  5955 0    87   ~ 0
Red: BigOR high (interlock signal not cleared)\nYellow: BigOR low, reset button not pressed (interlock signal cleared, ready to restart, SigReset still high)\nGreen: BigOR low, reset button pressed (SigReset becomes low)
Text Label 8600 4750 2    50   ~ 0
SigYellow
Wire Wire Line
	8900 4800 8900 4750
Wire Wire Line
	8600 4750 8900 4750
Connection ~ 8900 4750
Wire Wire Line
	8900 4750 8900 4600
$Comp
L Device:R R61
U 1 1 61205946
P 9950 4950
AR Path="/61119591/61205946" Ref="R61"  Part="1" 
AR Path="/614C2E34/61205946" Ref="R?"  Part="1" 
AR Path="/614C4D35/61205946" Ref="R?"  Part="1" 
F 0 "R61" V 10050 4900 50  0000 L CNN
F 1 "8k" V 9950 4850 50  0000 L CNN
F 2 "Resistor_SMD:R_0805_2012Metric" V 9880 4950 50  0001 C CNN
F 3 "~" H 9950 4950 50  0001 C CNN
	1    9950 4950
	1    0    0    -1  
$EndComp
$Comp
L power:GND #PWR0214
U 1 1 6120594C
P 9950 5850
AR Path="/61119591/6120594C" Ref="#PWR0214"  Part="1" 
AR Path="/614C2E34/6120594C" Ref="#PWR?"  Part="1" 
AR Path="/614C4D35/6120594C" Ref="#PWR?"  Part="1" 
F 0 "#PWR0214" H 9950 5600 50  0001 C CNN
F 1 "GND" H 9955 5677 50  0000 C CNN
F 2 "" H 9950 5850 50  0001 C CNN
F 3 "" H 9950 5850 50  0001 C CNN
	1    9950 5850
	1    0    0    -1  
$EndComp
Wire Wire Line
	9950 5850 9950 5600
Wire Wire Line
	9950 5300 9950 5100
$Comp
L Device:LED D22
U 1 1 61205954
P 9950 5450
AR Path="/61119591/61205954" Ref="D22"  Part="1" 
AR Path="/614C2E34/61205954" Ref="D?"  Part="1" 
AR Path="/614C4D35/61205954" Ref="D?"  Part="1" 
F 0 "D22" V 9989 5332 50  0000 R CNN
F 1 "GreenLED" V 9898 5332 50  0000 R CNN
F 2 "LED_SMD:LED_1206_3216Metric_Pad1.42x1.75mm_HandSolder" H 9950 5450 50  0001 C CNN
F 3 "~" H 9950 5450 50  0001 C CNN
	1    9950 5450
	0    -1   -1   0   
$EndComp
Text HLabel 9950 4600 1    50   Output ~ 0
OutGreen
Text Label 9650 4750 2    50   ~ 0
SigGreen
Wire Wire Line
	9950 4800 9950 4750
Wire Wire Line
	9650 4750 9950 4750
Connection ~ 9950 4750
Wire Wire Line
	9950 4750 9950 4600
$Comp
L power:GND #PWR0202
U 1 1 61222452
P 1510 1960
AR Path="/61119591/61222452" Ref="#PWR0202"  Part="1" 
AR Path="/614C2E34/61222452" Ref="#PWR?"  Part="1" 
AR Path="/614C4D35/61222452" Ref="#PWR?"  Part="1" 
F 0 "#PWR0202" H 1510 1710 50  0001 C CNN
F 1 "GND" H 1515 1787 50  0000 C CNN
F 2 "" H 1510 1960 50  0001 C CNN
F 3 "" H 1510 1960 50  0001 C CNN
	1    1510 1960
	1    0    0    -1  
$EndComp
Wire Wire Line
	1660 1860 1510 1860
Wire Wire Line
	1510 1860 1510 1960
Text Label 1360 1760 2    50   ~ 0
SigYellow
Wire Wire Line
	1360 1660 1660 1660
Wire Wire Line
	1660 1760 1360 1760
Text HLabel 3310 1860 2    50   Output ~ 0
OutYellowOrRed
Wire Wire Line
	3060 1660 3210 1660
Wire Wire Line
	3210 1660 3210 1860
Wire Wire Line
	3210 1860 3310 1860
Text Notes 2220 2470 0    50   ~ 0
OR gate
Wire Wire Line
	1660 1960 1660 1860
Connection ~ 1660 1860
NoConn ~ 1660 2060
NoConn ~ 1660 2160
NoConn ~ 1660 2260
NoConn ~ 1660 2360
NoConn ~ 3060 1760
Text HLabel 1360 1660 0    50   Input ~ 0
BigOR
Text HLabel 7550 4650 0    50   Input ~ 0
BigOR
Text HLabel 3700 3690 2    50   Input ~ 0
BigOR
NoConn ~ 1600 3440
NoConn ~ 1600 3540
NoConn ~ 1600 3640
NoConn ~ 1600 3740
NoConn ~ 1600 3840
NoConn ~ 1600 3940
Text Notes 5295 4695 0    50   ~ 0
AND gate
Text Notes 2210 4060 0    50   ~ 0
NOR gate
Wire Wire Line
	6150 3740 6300 3740
Text Label 3600 4140 0    50   ~ 0
SigGreen
Wire Wire Line
	4750 4140 4600 4140
Wire Wire Line
	4750 3740 4600 3740
Text Label 3600 4240 0    50   ~ 0
SigReset
NoConn ~ 4750 3840
NoConn ~ 4750 3940
NoConn ~ 4750 4040
NoConn ~ 4750 4240
NoConn ~ 4750 4340
NoConn ~ 4750 4440
NoConn ~ 6150 4040
NoConn ~ 6150 3940
NoConn ~ 6150 3840
Wire Wire Line
	6150 4740 6150 4890
$Comp
L power:GND #PWR0217
U 1 1 611D3416
P 6150 4890
AR Path="/61119591/611D3416" Ref="#PWR0217"  Part="1" 
AR Path="/614C2E34/611D3416" Ref="#PWR?"  Part="1" 
AR Path="/614C4D35/611D3416" Ref="#PWR?"  Part="1" 
F 0 "#PWR0217" H 6150 4640 50  0001 C CNN
F 1 "GND" H 6155 4717 50  0000 C CNN
F 2 "" H 6150 4890 50  0001 C CNN
F 3 "" H 6150 4890 50  0001 C CNN
	1    6150 4890
	1    0    0    -1  
$EndComp
Wire Wire Line
	6750 3440 6950 3440
$Comp
L power:+12V #PWR0210
U 1 1 611CE501
P 6350 3290
AR Path="/61119591/611CE501" Ref="#PWR0210"  Part="1" 
AR Path="/614C2E34/611CE501" Ref="#PWR?"  Part="1" 
AR Path="/614C4D35/611CE501" Ref="#PWR?"  Part="1" 
F 0 "#PWR0210" H 6350 3140 50  0001 C CNN
F 1 "+12V" H 6365 3463 50  0000 C CNN
F 2 "" H 6350 3290 50  0001 C CNN
F 3 "" H 6350 3290 50  0001 C CNN
	1    6350 3290
	1    0    0    -1  
$EndComp
$Comp
L Device:C C58
U 1 1 611CE4FB
P 6600 3440
AR Path="/61119591/611CE4FB" Ref="C58"  Part="1" 
AR Path="/614C2E34/611CE4FB" Ref="C?"  Part="1" 
AR Path="/614C4D35/611CE4FB" Ref="C?"  Part="1" 
F 0 "C58" V 6750 3440 50  0000 C CNN
F 1 "0.1uF" V 6439 3440 50  0000 C CNN
F 2 "Capacitor_SMD:C_0805_2012Metric" H 6638 3290 50  0001 C CNN
F 3 "~" H 6600 3440 50  0001 C CNN
	1    6600 3440
	0    1    1    0   
$EndComp
Wire Wire Line
	6350 3290 6350 3440
Wire Wire Line
	6350 3540 6150 3540
Wire Wire Line
	6450 3440 6350 3440
Connection ~ 6350 3440
Wire Wire Line
	6350 3440 6350 3540
Wire Wire Line
	6950 3440 6950 3490
$Comp
L power:GND #PWR0215
U 1 1 611CE4EE
P 6950 3490
AR Path="/61119591/611CE4EE" Ref="#PWR0215"  Part="1" 
AR Path="/614C2E34/611CE4EE" Ref="#PWR?"  Part="1" 
AR Path="/614C4D35/611CE4EE" Ref="#PWR?"  Part="1" 
F 0 "#PWR0215" H 6950 3240 50  0001 C CNN
F 1 "GND" H 6955 3317 50  0000 C CNN
F 2 "" H 6950 3490 50  0001 C CNN
F 3 "" H 6950 3490 50  0001 C CNN
	1    6950 3490
	1    0    0    -1  
$EndComp
$Comp
L interlock:MC14081BDG U25
U 1 1 611BC65A
P 5450 4140
AR Path="/61119591/611BC65A" Ref="U25"  Part="1" 
AR Path="/614C2E34/611BC65A" Ref="U?"  Part="1" 
AR Path="/614C4D35/611BC65A" Ref="U?"  Part="1" 
F 0 "U25" H 5450 5010 50  0000 C CNN
F 1 "MC14081BDG" H 5450 4919 50  0000 C CNN
F 2 "Package_SO:SOIC-14_3.9x8.7mm_P1.27mm" H 5450 4140 50  0001 L BNN
F 3 "" H 5450 4140 50  0001 L BNN
	1    5450 4140
	1    0    0    -1  
$EndComp
Wire Wire Line
	3650 3740 3200 3740
Wire Wire Line
	3650 3840 3650 3740
Wire Wire Line
	3700 3840 3650 3840
Wire Wire Line
	3600 3690 3700 3690
Wire Wire Line
	3600 3640 3600 3690
Wire Wire Line
	3200 3640 3600 3640
Text Label 3700 3840 0    50   ~ 0
NotBigOR
Wire Wire Line
	3850 3340 4000 3340
Connection ~ 3850 3340
Wire Wire Line
	3850 3540 3850 3340
Wire Wire Line
	3200 3540 3850 3540
Wire Wire Line
	3200 3840 3550 3840
Wire Wire Line
	3550 4140 3550 3840
Wire Wire Line
	3600 4140 3550 4140
Wire Wire Line
	3200 3940 3500 3940
Wire Wire Line
	3500 4240 3600 4240
Wire Wire Line
	3500 3940 3500 4240
Wire Wire Line
	3450 4340 3600 4340
Wire Wire Line
	3450 4040 3450 4340
Text Label 6300 3740 0    50   ~ 0
SigYellow
Wire Wire Line
	3200 4040 3450 4040
Text Label 4600 3740 2    50   ~ 0
SigReset
$Comp
L interlock:MC14001BDTR2G U24
U 1 1 61132DDB
P 1600 3440
AR Path="/61119591/61132DDB" Ref="U24"  Part="1" 
AR Path="/614C2E34/61132DDB" Ref="U?"  Part="1" 
AR Path="/614C4D35/61132DDB" Ref="U?"  Part="1" 
F 0 "U24" H 2400 3827 60  0000 C CNN
F 1 "MC14001BDTR2G" H 2400 3721 60  0000 C CNN
F 2 "Package_SO:TSSOP-14_4.4x5mm_P0.65mm" H 2400 3680 60  0001 C CNN
F 3 "" H 1600 3440 60  0000 C CNN
	1    1600 3440
	1    0    0    -1  
$EndComp
$Comp
L power:GND #PWR0216
U 1 1 61149F4B
P 1550 4140
AR Path="/61119591/61149F4B" Ref="#PWR0216"  Part="1" 
AR Path="/614C2E34/61149F4B" Ref="#PWR?"  Part="1" 
AR Path="/614C4D35/61149F4B" Ref="#PWR?"  Part="1" 
F 0 "#PWR0216" H 1550 3890 50  0001 C CNN
F 1 "GND" H 1555 3967 50  0000 C CNN
F 2 "" H 1550 4140 50  0001 C CNN
F 3 "" H 1550 4140 50  0001 C CNN
	1    1550 4140
	1    0    0    -1  
$EndComp
Wire Wire Line
	1550 4140 1550 4040
Wire Wire Line
	1550 4040 1600 4040
$Comp
L power:+12V #PWR0209
U 1 1 611504A7
P 3400 3190
AR Path="/61119591/611504A7" Ref="#PWR0209"  Part="1" 
AR Path="/614C2E34/611504A7" Ref="#PWR?"  Part="1" 
AR Path="/614C4D35/611504A7" Ref="#PWR?"  Part="1" 
F 0 "#PWR0209" H 3400 3040 50  0001 C CNN
F 1 "+12V" H 3415 3363 50  0000 C CNN
F 2 "" H 3400 3190 50  0001 C CNN
F 3 "" H 3400 3190 50  0001 C CNN
	1    3400 3190
	1    0    0    -1  
$EndComp
$Comp
L Device:C C57
U 1 1 611504AD
P 3650 3340
AR Path="/61119591/611504AD" Ref="C57"  Part="1" 
AR Path="/614C2E34/611504AD" Ref="C?"  Part="1" 
AR Path="/614C4D35/611504AD" Ref="C?"  Part="1" 
F 0 "C57" V 3800 3340 50  0000 C CNN
F 1 "0.1uF" V 3489 3340 50  0000 C CNN
F 2 "Capacitor_SMD:C_0805_2012Metric" H 3688 3190 50  0001 C CNN
F 3 "~" H 3650 3340 50  0001 C CNN
	1    3650 3340
	0    1    1    0   
$EndComp
Wire Wire Line
	3800 3340 3850 3340
Wire Wire Line
	3400 3190 3400 3340
Wire Wire Line
	3400 3440 3200 3440
Wire Wire Line
	3500 3340 3400 3340
Connection ~ 3400 3340
Wire Wire Line
	3400 3340 3400 3440
Wire Wire Line
	4000 3340 4000 3390
$Comp
L power:GND #PWR0211
U 1 1 611504B3
P 4000 3390
AR Path="/61119591/611504B3" Ref="#PWR0211"  Part="1" 
AR Path="/614C2E34/611504B3" Ref="#PWR?"  Part="1" 
AR Path="/614C4D35/611504B3" Ref="#PWR?"  Part="1" 
F 0 "#PWR0211" H 4000 3140 50  0001 C CNN
F 1 "GND" H 4005 3217 50  0000 C CNN
F 2 "" H 4000 3390 50  0001 C CNN
F 3 "" H 4000 3390 50  0001 C CNN
	1    4000 3390
	1    0    0    -1  
$EndComp
Text HLabel 4610 1670 0    50   Input ~ 0
Reset
Text HLabel 4610 2070 0    50   Input ~ 0
BigOR
Text Notes 5290 2260 0    50   ~ 0
S-R latch
Wire Wire Line
	4610 1350 4610 1570
Wire Wire Line
	6230 2770 6230 2820
Wire Wire Line
	6160 2770 6230 2770
$Comp
L power:GND #PWR0208
U 1 1 61AEA471
P 6230 2820
AR Path="/61119591/61AEA471" Ref="#PWR0208"  Part="1" 
AR Path="/614C2E34/61AEA471" Ref="#PWR?"  Part="1" 
AR Path="/614C4D35/61AEA471" Ref="#PWR?"  Part="1" 
F 0 "#PWR0208" H 6230 2570 50  0001 C CNN
F 1 "GND" H 6235 2647 50  0000 C CNN
F 2 "" H 6230 2820 50  0001 C CNN
F 3 "" H 6230 2820 50  0001 C CNN
	1    6230 2820
	1    0    0    -1  
$EndComp
Wire Wire Line
	4760 1570 4610 1570
$Comp
L power:+12V #PWR0205
U 1 1 61AEA470
P 4610 1350
AR Path="/61119591/61AEA470" Ref="#PWR0205"  Part="1" 
AR Path="/614C2E34/61AEA470" Ref="#PWR?"  Part="1" 
AR Path="/614C4D35/61AEA470" Ref="#PWR?"  Part="1" 
F 0 "#PWR0205" H 4610 1200 50  0001 C CNN
F 1 "+12V" H 4625 1523 50  0000 C CNN
F 2 "" H 4610 1350 50  0001 C CNN
F 3 "" H 4610 1350 50  0001 C CNN
	1    4610 1350
	1    0    0    -1  
$EndComp
Wire Wire Line
	6300 1310 6300 1140
Connection ~ 6300 1310
Wire Wire Line
	6360 1310 6300 1310
Wire Wire Line
	6300 1370 6300 1310
Wire Wire Line
	6160 1370 6300 1370
Wire Wire Line
	6830 1310 6830 1400
Wire Wire Line
	6660 1310 6830 1310
$Comp
L power:GND #PWR0206
U 1 1 6138534B
P 6830 1400
AR Path="/61119591/6138534B" Ref="#PWR0206"  Part="1" 
AR Path="/614C2E34/6138534B" Ref="#PWR?"  Part="1" 
AR Path="/614C4D35/6138534B" Ref="#PWR?"  Part="1" 
F 0 "#PWR0206" H 6830 1150 50  0001 C CNN
F 1 "GND" H 6835 1227 50  0000 C CNN
F 2 "" H 6830 1400 50  0001 C CNN
F 3 "" H 6830 1400 50  0001 C CNN
	1    6830 1400
	1    0    0    -1  
$EndComp
$Comp
L Device:C C56
U 1 1 61AEA46E
P 6510 1310
AR Path="/61119591/61AEA46E" Ref="C56"  Part="1" 
AR Path="/614C2E34/61AEA46E" Ref="C?"  Part="1" 
AR Path="/614C4D35/61AEA46E" Ref="C?"  Part="1" 
F 0 "C56" V 6660 1310 50  0000 C CNN
F 1 "0.1uF" V 6349 1310 50  0000 C CNN
F 2 "Capacitor_SMD:C_0805_2012Metric" H 6548 1160 50  0001 C CNN
F 3 "~" H 6510 1310 50  0001 C CNN
	1    6510 1310
	0    1    1    0   
$EndComp
$Comp
L power:+12V #PWR0204
U 1 1 61AEA46D
P 6300 1140
AR Path="/61119591/61AEA46D" Ref="#PWR0204"  Part="1" 
AR Path="/614C2E34/61AEA46D" Ref="#PWR?"  Part="1" 
AR Path="/614C4D35/61AEA46D" Ref="#PWR?"  Part="1" 
F 0 "#PWR0204" H 6300 990 50  0001 C CNN
F 1 "+12V" H 6315 1313 50  0000 C CNN
F 2 "" H 6300 1140 50  0001 C CNN
F 3 "" H 6300 1140 50  0001 C CNN
	1    6300 1140
	1    0    0    -1  
$EndComp
NoConn ~ 6160 1870
NoConn ~ 6160 1770
NoConn ~ 6160 1670
Wire Wire Line
	6350 1570 6160 1570
Wire Wire Line
	4760 2070 4610 2070
Wire Wire Line
	4760 1670 4610 1670
Text Label 6350 1570 0    50   ~ 0
SigReset
$Comp
L interlock:MC14043BDG U23
U 1 1 61AEA46C
P 5460 2070
AR Path="/61119591/61AEA46C" Ref="U23"  Part="1" 
AR Path="/614C2E34/61AEA46C" Ref="U?"  Part="1" 
AR Path="/614C4D35/61AEA46C" Ref="U?"  Part="1" 
F 0 "U23" H 5460 3040 50  0000 C CNN
F 1 "MC14043BDG" H 5460 2949 50  0000 C CNN
F 2 "Package_SO:SOIC-16_3.9x9.9mm_P1.27mm" H 5460 2070 50  0001 L BNN
F 3 "" H 5460 2070 50  0001 L BNN
	1    5460 2070
	1    0    0    -1  
$EndComp
Text Label 4600 4140 2    50   ~ 0
NotBigOR
Text HLabel 3600 4340 2    50   Input ~ 0
BigOR
NoConn ~ 4760 2570
Wire Wire Line
	4760 2370 4760 2270
Connection ~ 4760 2270
Wire Wire Line
	4760 2270 4760 2170
Wire Wire Line
	4230 1570 4610 1570
Connection ~ 4610 1570
Wire Wire Line
	4760 2270 4230 2270
Wire Wire Line
	4230 1570 4230 1870
Wire Wire Line
	4760 1970 4760 1870
Wire Wire Line
	4760 1870 4760 1770
Connection ~ 4760 1870
Wire Wire Line
	4760 1870 4230 1870
Connection ~ 4230 1870
Wire Wire Line
	4230 1870 4230 2270
$EndSCHEMATC
