EESchema Schematic File Version 4
EELAYER 30 0
EELAYER END
$Descr A4 11693 8268
encoding utf-8
Sheet 13 14
Title ""
Date ""
Rev ""
Comp ""
Comment1 ""
Comment2 ""
Comment3 ""
Comment4 ""
$EndDescr
$Comp
L interlock:MC14043BDG U?
U 1 1 6132646F
P 2040 1740
AR Path="/61119591/6132646F" Ref="U?"  Part="1" 
AR Path="/614C2E34/6132646F" Ref="U?"  Part="1" 
AR Path="/614C4D35/6132646F" Ref="U15"  Part="1" 
F 0 "U15" H 2040 2710 50  0000 C CNN
F 1 "MC14043BDG" H 2040 2619 50  0000 C CNN
F 2 "Package_SO:SOIC-16_3.9x9.9mm_P1.27mm" H 2040 1740 50  0001 L BNN
F 3 "" H 2040 1740 50  0001 L BNN
	1    2040 1740
	1    0    0    -1  
$EndComp
Wire Wire Line
	1340 1340 1190 1340
Wire Wire Line
	1340 1740 1190 1740
$Comp
L power:+12V #PWR?
U 1 1 6138415D
P 2880 810
AR Path="/61119591/6138415D" Ref="#PWR?"  Part="1" 
AR Path="/614C2E34/6138415D" Ref="#PWR?"  Part="1" 
AR Path="/614C4D35/6138415D" Ref="#PWR0172"  Part="1" 
F 0 "#PWR0172" H 2880 660 50  0001 C CNN
F 1 "+12V" H 2895 983 50  0000 C CNN
F 2 "" H 2880 810 50  0001 C CNN
F 3 "" H 2880 810 50  0001 C CNN
	1    2880 810 
	1    0    0    -1  
$EndComp
$Comp
L Device:C C?
U 1 1 6138474C
P 3140 860
AR Path="/61119591/6138474C" Ref="C?"  Part="1" 
AR Path="/614C2E34/6138474C" Ref="C?"  Part="1" 
AR Path="/614C4D35/6138474C" Ref="C48"  Part="1" 
F 0 "C48" V 3290 860 50  0000 C CNN
F 1 "0.1uF" V 2979 860 50  0000 C CNN
F 2 "Capacitor_SMD:C_0805_2012Metric" H 3178 710 50  0001 C CNN
F 3 "~" H 3140 860 50  0001 C CNN
	1    3140 860 
	0    1    1    0   
$EndComp
$Comp
L power:GND #PWR?
U 1 1 61AEA46F
P 3460 950
AR Path="/61119591/61AEA46F" Ref="#PWR?"  Part="1" 
AR Path="/614C2E34/61AEA46F" Ref="#PWR?"  Part="1" 
AR Path="/614C4D35/61AEA46F" Ref="#PWR0175"  Part="1" 
F 0 "#PWR0175" H 3460 700 50  0001 C CNN
F 1 "GND" H 3465 777 50  0000 C CNN
F 2 "" H 3460 950 50  0001 C CNN
F 3 "" H 3460 950 50  0001 C CNN
	1    3460 950 
	1    0    0    -1  
$EndComp
Wire Wire Line
	3290 860  3460 860 
Wire Wire Line
	3460 860  3460 950 
Wire Wire Line
	2740 1040 2880 1040
$Comp
L power:+12V #PWR?
U 1 1 6139B074
P 1190 1020
AR Path="/61119591/6139B074" Ref="#PWR?"  Part="1" 
AR Path="/614C2E34/6139B074" Ref="#PWR?"  Part="1" 
AR Path="/614C4D35/6139B074" Ref="#PWR0178"  Part="1" 
F 0 "#PWR0178" H 1190 870 50  0001 C CNN
F 1 "+12V" H 1205 1193 50  0000 C CNN
F 2 "" H 1190 1020 50  0001 C CNN
F 3 "" H 1190 1020 50  0001 C CNN
	1    1190 1020
	1    0    0    -1  
$EndComp
Wire Wire Line
	1340 1240 1190 1240
$Comp
L power:GND #PWR?
U 1 1 613CB4C7
P 2810 2490
AR Path="/61119591/613CB4C7" Ref="#PWR?"  Part="1" 
AR Path="/614C2E34/613CB4C7" Ref="#PWR?"  Part="1" 
AR Path="/614C4D35/613CB4C7" Ref="#PWR0181"  Part="1" 
F 0 "#PWR0181" H 2810 2240 50  0001 C CNN
F 1 "GND" H 2815 2317 50  0000 C CNN
F 2 "" H 2810 2490 50  0001 C CNN
F 3 "" H 2810 2490 50  0001 C CNN
	1    2810 2490
	1    0    0    -1  
$EndComp
Wire Wire Line
	2740 2440 2810 2440
Wire Wire Line
	2810 2440 2810 2490
Wire Wire Line
	1190 1020 1190 1240
Wire Wire Line
	1340 1640 1340 1540
Connection ~ 1340 1340
Connection ~ 1340 1440
Wire Wire Line
	1340 1440 1340 1340
Connection ~ 1340 1540
Wire Wire Line
	1340 1540 1340 1440
Wire Wire Line
	1340 1840 1190 1840
Wire Wire Line
	1340 1940 1190 1940
Wire Wire Line
	1340 2040 1190 2040
NoConn ~ 1340 2240
Wire Wire Line
	2990 860  2880 860 
Wire Wire Line
	2880 810  2880 860 
Connection ~ 2880 860 
Wire Wire Line
	2880 860  2880 1040
$Comp
L Device:LED D?
U 1 1 6154D3A9
P 3370 1760
AR Path="/61119591/6154D3A9" Ref="D?"  Part="1" 
AR Path="/614C2E34/6154D3A9" Ref="D?"  Part="1" 
AR Path="/614C4D35/6154D3A9" Ref="D7"  Part="1" 
F 0 "D7" V 3409 1642 50  0000 R CNN
F 1 "LED" V 3318 1642 50  0000 R CNN
F 2 "LED_SMD:LED_1206_3216Metric_Pad1.42x1.75mm_HandSolder" H 3370 1760 50  0001 C CNN
F 3 "~" H 3370 1760 50  0001 C CNN
	1    3370 1760
	0    -1   -1   0   
$EndComp
$Comp
L Device:LED D?
U 1 1 6154DBB0
P 3740 1760
AR Path="/61119591/6154DBB0" Ref="D?"  Part="1" 
AR Path="/614C2E34/6154DBB0" Ref="D?"  Part="1" 
AR Path="/614C4D35/6154DBB0" Ref="D8"  Part="1" 
F 0 "D8" V 3779 1642 50  0000 R CNN
F 1 "LED" V 3688 1642 50  0000 R CNN
F 2 "LED_SMD:LED_1206_3216Metric_Pad1.42x1.75mm_HandSolder" H 3740 1760 50  0001 C CNN
F 3 "~" H 3740 1760 50  0001 C CNN
	1    3740 1760
	0    -1   -1   0   
$EndComp
$Comp
L Device:R R?
U 1 1 61557B65
P 3080 2130
AR Path="/61119591/61557B65" Ref="R?"  Part="1" 
AR Path="/614C2E34/61557B65" Ref="R?"  Part="1" 
AR Path="/614C4D35/61557B65" Ref="R45"  Part="1" 
F 0 "R45" V 3180 2080 50  0000 L CNN
F 1 "10k" V 3080 2030 50  0000 L CNN
F 2 "Resistor_SMD:R_0805_2012Metric" V 3010 2130 50  0001 C CNN
F 3 "~" H 3080 2130 50  0001 C CNN
	1    3080 2130
	1    0    0    -1  
$EndComp
Wire Wire Line
	3080 1980 3080 1910
$Comp
L Device:R R?
U 1 1 6155A9D6
P 3370 2130
AR Path="/61119591/6155A9D6" Ref="R?"  Part="1" 
AR Path="/614C2E34/6155A9D6" Ref="R?"  Part="1" 
AR Path="/614C4D35/6155A9D6" Ref="R46"  Part="1" 
F 0 "R46" V 3470 2080 50  0000 L CNN
F 1 "10k" V 3370 2030 50  0000 L CNN
F 2 "Resistor_SMD:R_0805_2012Metric" V 3300 2130 50  0001 C CNN
F 3 "~" H 3370 2130 50  0001 C CNN
	1    3370 2130
	1    0    0    -1  
$EndComp
Wire Wire Line
	3370 1980 3370 1910
$Comp
L Device:R R?
U 1 1 6155DB97
P 3740 2130
AR Path="/61119591/6155DB97" Ref="R?"  Part="1" 
AR Path="/614C2E34/6155DB97" Ref="R?"  Part="1" 
AR Path="/614C4D35/6155DB97" Ref="R47"  Part="1" 
F 0 "R47" V 3840 2080 50  0000 L CNN
F 1 "10k" V 3740 2030 50  0000 L CNN
F 2 "Resistor_SMD:R_0805_2012Metric" V 3670 2130 50  0001 C CNN
F 3 "~" H 3740 2130 50  0001 C CNN
	1    3740 2130
	1    0    0    -1  
$EndComp
Wire Wire Line
	3740 1980 3740 1910
$Comp
L Device:LED D?
U 1 1 6154C0C2
P 3080 1760
AR Path="/61119591/6154C0C2" Ref="D?"  Part="1" 
AR Path="/614C2E34/6154C0C2" Ref="D?"  Part="1" 
AR Path="/614C4D35/6154C0C2" Ref="D6"  Part="1" 
F 0 "D6" V 3119 1642 50  0000 R CNN
F 1 "LED" V 3028 1642 50  0000 R CNN
F 2 "LED_SMD:LED_1206_3216Metric_Pad1.42x1.75mm_HandSolder" H 3080 1760 50  0001 C CNN
F 3 "~" H 3080 1760 50  0001 C CNN
	1    3080 1760
	0    -1   -1   0   
$EndComp
Text HLabel 1190 1340 0    50   Input ~ 0
Reset
Text HLabel 1190 1740 0    50   Input ~ 0
TempHigh1
Text HLabel 1190 1840 0    50   Input ~ 0
TempLow1
Text HLabel 1190 1940 0    50   Input ~ 0
TempHigh2
Text HLabel 1190 2040 0    50   Input ~ 0
TempLow2
Wire Wire Line
	2770 1980 2770 1910
$Comp
L Device:R R?
U 1 1 61550D1A
P 2770 2130
AR Path="/61119591/61550D1A" Ref="R?"  Part="1" 
AR Path="/614C2E34/61550D1A" Ref="R?"  Part="1" 
AR Path="/614C4D35/61550D1A" Ref="R44"  Part="1" 
F 0 "R44" V 2870 2080 50  0000 L CNN
F 1 "10k" V 2770 2030 50  0000 L CNN
F 2 "Resistor_SMD:R_0805_2012Metric" V 2700 2130 50  0001 C CNN
F 3 "~" H 2770 2130 50  0001 C CNN
	1    2770 2130
	1    0    0    -1  
$EndComp
$Comp
L Device:LED D?
U 1 1 615486DD
P 2770 1760
AR Path="/61119591/615486DD" Ref="D?"  Part="1" 
AR Path="/614C2E34/615486DD" Ref="D?"  Part="1" 
AR Path="/614C4D35/615486DD" Ref="D5"  Part="1" 
F 0 "D5" V 2809 1642 50  0000 R CNN
F 1 "LED" V 2718 1642 50  0000 R CNN
F 2 "LED_SMD:LED_1206_3216Metric_Pad1.42x1.75mm_HandSolder" H 2770 1760 50  0001 C CNN
F 3 "~" H 2770 1760 50  0001 C CNN
	1    2770 1760
	0    -1   -1   0   
$EndComp
Connection ~ 3080 2280
Wire Wire Line
	3080 2280 3250 2280
Connection ~ 3370 2280
Wire Wire Line
	3370 2280 3740 2280
Wire Wire Line
	2770 2280 3080 2280
Wire Wire Line
	2810 2440 3250 2440
Wire Wire Line
	3250 2440 3250 2280
Connection ~ 2810 2440
Connection ~ 3250 2280
Wire Wire Line
	3250 2280 3370 2280
Wire Wire Line
	2740 1540 2770 1540
Wire Wire Line
	2770 1540 2770 1610
Wire Wire Line
	2740 1440 3080 1440
Wire Wire Line
	3080 1440 3080 1610
Wire Wire Line
	2740 1340 3370 1340
Wire Wire Line
	3370 1340 3370 1610
Wire Wire Line
	2740 1240 3740 1240
Wire Wire Line
	3740 1240 3740 1610
Wire Wire Line
	4690 1330 4540 1330
Wire Wire Line
	4690 1730 4540 1730
$Comp
L power:+12V #PWR?
U 1 1 6172445D
P 6230 800
AR Path="/61119591/6172445D" Ref="#PWR?"  Part="1" 
AR Path="/614C2E34/6172445D" Ref="#PWR?"  Part="1" 
AR Path="/614C4D35/6172445D" Ref="#PWR0171"  Part="1" 
F 0 "#PWR0171" H 6230 650 50  0001 C CNN
F 1 "+12V" H 6245 973 50  0000 C CNN
F 2 "" H 6230 800 50  0001 C CNN
F 3 "" H 6230 800 50  0001 C CNN
	1    6230 800 
	1    0    0    -1  
$EndComp
$Comp
L Device:C C?
U 1 1 61724463
P 6490 850
AR Path="/61119591/61724463" Ref="C?"  Part="1" 
AR Path="/614C2E34/61724463" Ref="C?"  Part="1" 
AR Path="/614C4D35/61724463" Ref="C47"  Part="1" 
F 0 "C47" V 6640 850 50  0000 C CNN
F 1 "0.1uF" V 6329 850 50  0000 C CNN
F 2 "Capacitor_SMD:C_0805_2012Metric" H 6528 700 50  0001 C CNN
F 3 "~" H 6490 850 50  0001 C CNN
	1    6490 850 
	0    1    1    0   
$EndComp
$Comp
L power:GND #PWR?
U 1 1 61724469
P 6810 940
AR Path="/61119591/61724469" Ref="#PWR?"  Part="1" 
AR Path="/614C2E34/61724469" Ref="#PWR?"  Part="1" 
AR Path="/614C4D35/61724469" Ref="#PWR0174"  Part="1" 
F 0 "#PWR0174" H 6810 690 50  0001 C CNN
F 1 "GND" H 6815 767 50  0000 C CNN
F 2 "" H 6810 940 50  0001 C CNN
F 3 "" H 6810 940 50  0001 C CNN
	1    6810 940 
	1    0    0    -1  
$EndComp
Wire Wire Line
	6640 850  6810 850 
Wire Wire Line
	6810 850  6810 940 
$Comp
L power:+12V #PWR?
U 1 1 61724472
P 4540 1010
AR Path="/61119591/61724472" Ref="#PWR?"  Part="1" 
AR Path="/614C2E34/61724472" Ref="#PWR?"  Part="1" 
AR Path="/614C4D35/61724472" Ref="#PWR0177"  Part="1" 
F 0 "#PWR0177" H 4540 860 50  0001 C CNN
F 1 "+12V" H 4555 1183 50  0000 C CNN
F 2 "" H 4540 1010 50  0001 C CNN
F 3 "" H 4540 1010 50  0001 C CNN
	1    4540 1010
	1    0    0    -1  
$EndComp
Wire Wire Line
	4690 1230 4540 1230
$Comp
L power:GND #PWR?
U 1 1 61724479
P 6160 2480
AR Path="/61119591/61724479" Ref="#PWR?"  Part="1" 
AR Path="/614C2E34/61724479" Ref="#PWR?"  Part="1" 
AR Path="/614C4D35/61724479" Ref="#PWR0180"  Part="1" 
F 0 "#PWR0180" H 6160 2230 50  0001 C CNN
F 1 "GND" H 6165 2307 50  0000 C CNN
F 2 "" H 6160 2480 50  0001 C CNN
F 3 "" H 6160 2480 50  0001 C CNN
	1    6160 2480
	1    0    0    -1  
$EndComp
Wire Wire Line
	6160 2430 6160 2480
Wire Wire Line
	4540 1010 4540 1230
Wire Wire Line
	4690 1830 4540 1830
Wire Wire Line
	4690 1930 4540 1930
Wire Wire Line
	4690 2030 4540 2030
NoConn ~ 4690 2230
Wire Wire Line
	6340 850  6230 850 
Wire Wire Line
	6230 800  6230 850 
Connection ~ 6230 850 
Wire Wire Line
	6230 850  6230 1030
$Comp
L Device:LED D?
U 1 1 61724490
P 6720 1750
AR Path="/61119591/61724490" Ref="D?"  Part="1" 
AR Path="/614C2E34/61724490" Ref="D?"  Part="1" 
AR Path="/614C4D35/61724490" Ref="D3"  Part="1" 
F 0 "D3" V 6759 1632 50  0000 R CNN
F 1 "LED" V 6668 1632 50  0000 R CNN
F 2 "LED_SMD:LED_1206_3216Metric_Pad1.42x1.75mm_HandSolder" H 6720 1750 50  0001 C CNN
F 3 "~" H 6720 1750 50  0001 C CNN
	1    6720 1750
	0    -1   -1   0   
$EndComp
$Comp
L Device:LED D?
U 1 1 61724496
P 7090 1750
AR Path="/61119591/61724496" Ref="D?"  Part="1" 
AR Path="/614C2E34/61724496" Ref="D?"  Part="1" 
AR Path="/614C4D35/61724496" Ref="D4"  Part="1" 
F 0 "D4" V 7129 1632 50  0000 R CNN
F 1 "LED" V 7038 1632 50  0000 R CNN
F 2 "LED_SMD:LED_1206_3216Metric_Pad1.42x1.75mm_HandSolder" H 7090 1750 50  0001 C CNN
F 3 "~" H 7090 1750 50  0001 C CNN
	1    7090 1750
	0    -1   -1   0   
$EndComp
$Comp
L Device:R R?
U 1 1 6172449C
P 6430 2120
AR Path="/61119591/6172449C" Ref="R?"  Part="1" 
AR Path="/614C2E34/6172449C" Ref="R?"  Part="1" 
AR Path="/614C4D35/6172449C" Ref="R41"  Part="1" 
F 0 "R41" V 6530 2070 50  0000 L CNN
F 1 "10k" V 6430 2020 50  0000 L CNN
F 2 "Resistor_SMD:R_0805_2012Metric" V 6360 2120 50  0001 C CNN
F 3 "~" H 6430 2120 50  0001 C CNN
	1    6430 2120
	1    0    0    -1  
$EndComp
Wire Wire Line
	6430 1970 6430 1900
$Comp
L Device:R R?
U 1 1 617244A3
P 6720 2120
AR Path="/61119591/617244A3" Ref="R?"  Part="1" 
AR Path="/614C2E34/617244A3" Ref="R?"  Part="1" 
AR Path="/614C4D35/617244A3" Ref="R42"  Part="1" 
F 0 "R42" V 6820 2070 50  0000 L CNN
F 1 "10k" V 6720 2020 50  0000 L CNN
F 2 "Resistor_SMD:R_0805_2012Metric" V 6650 2120 50  0001 C CNN
F 3 "~" H 6720 2120 50  0001 C CNN
	1    6720 2120
	1    0    0    -1  
$EndComp
Wire Wire Line
	6720 1970 6720 1900
$Comp
L Device:R R?
U 1 1 617244AA
P 7090 2120
AR Path="/61119591/617244AA" Ref="R?"  Part="1" 
AR Path="/614C2E34/617244AA" Ref="R?"  Part="1" 
AR Path="/614C4D35/617244AA" Ref="R43"  Part="1" 
F 0 "R43" V 7190 2070 50  0000 L CNN
F 1 "10k" V 7090 2020 50  0000 L CNN
F 2 "Resistor_SMD:R_0805_2012Metric" V 7020 2120 50  0001 C CNN
F 3 "~" H 7090 2120 50  0001 C CNN
	1    7090 2120
	1    0    0    -1  
$EndComp
Wire Wire Line
	7090 1970 7090 1900
$Comp
L Device:LED D?
U 1 1 617244B1
P 6430 1750
AR Path="/61119591/617244B1" Ref="D?"  Part="1" 
AR Path="/614C2E34/617244B1" Ref="D?"  Part="1" 
AR Path="/614C4D35/617244B1" Ref="D2"  Part="1" 
F 0 "D2" V 6469 1632 50  0000 R CNN
F 1 "LED" V 6378 1632 50  0000 R CNN
F 2 "LED_SMD:LED_1206_3216Metric_Pad1.42x1.75mm_HandSolder" H 6430 1750 50  0001 C CNN
F 3 "~" H 6430 1750 50  0001 C CNN
	1    6430 1750
	0    -1   -1   0   
$EndComp
Text HLabel 4540 1330 0    50   Input ~ 0
Reset
Text HLabel 4540 1730 0    50   Input ~ 0
TempHigh3
Text HLabel 4540 1830 0    50   Input ~ 0
TempLow3
Text HLabel 4540 1930 0    50   Input ~ 0
TempHigh4
Text HLabel 4540 2030 0    50   Input ~ 0
TempLow4
Wire Wire Line
	6120 1970 6120 1900
$Comp
L Device:R R?
U 1 1 617244BD
P 6120 2120
AR Path="/61119591/617244BD" Ref="R?"  Part="1" 
AR Path="/614C2E34/617244BD" Ref="R?"  Part="1" 
AR Path="/614C4D35/617244BD" Ref="R40"  Part="1" 
F 0 "R40" V 6220 2070 50  0000 L CNN
F 1 "10k" V 6120 2020 50  0000 L CNN
F 2 "Resistor_SMD:R_0805_2012Metric" V 6050 2120 50  0001 C CNN
F 3 "~" H 6120 2120 50  0001 C CNN
	1    6120 2120
	1    0    0    -1  
$EndComp
$Comp
L Device:LED D?
U 1 1 617244C3
P 6120 1750
AR Path="/61119591/617244C3" Ref="D?"  Part="1" 
AR Path="/614C2E34/617244C3" Ref="D?"  Part="1" 
AR Path="/614C4D35/617244C3" Ref="D1"  Part="1" 
F 0 "D1" V 6159 1632 50  0000 R CNN
F 1 "LED" V 6068 1632 50  0000 R CNN
F 2 "LED_SMD:LED_1206_3216Metric_Pad1.42x1.75mm_HandSolder" H 6120 1750 50  0001 C CNN
F 3 "~" H 6120 1750 50  0001 C CNN
	1    6120 1750
	0    -1   -1   0   
$EndComp
Connection ~ 6430 2270
Wire Wire Line
	6430 2270 6600 2270
Connection ~ 6720 2270
Wire Wire Line
	6720 2270 7090 2270
Wire Wire Line
	6120 2270 6430 2270
Wire Wire Line
	6160 2430 6600 2430
Wire Wire Line
	6600 2430 6600 2270
Connection ~ 6160 2430
Connection ~ 6600 2270
Wire Wire Line
	6600 2270 6720 2270
Wire Wire Line
	6120 1530 6120 1600
Wire Wire Line
	6430 1430 6430 1600
Wire Wire Line
	6720 1330 6720 1600
Wire Wire Line
	7090 1230 7090 1600
$Comp
L interlock:MC14043BDG U?
U 1 1 6172B21F
P 8830 1780
AR Path="/61119591/6172B21F" Ref="U?"  Part="1" 
AR Path="/614C2E34/6172B21F" Ref="U?"  Part="1" 
AR Path="/614C4D35/6172B21F" Ref="U16"  Part="1" 
F 0 "U16" H 8830 2750 50  0000 C CNN
F 1 "MC14043BDG" H 8830 2659 50  0000 C CNN
F 2 "Package_SO:SOIC-16_3.9x9.9mm_P1.27mm" H 8830 1780 50  0001 L BNN
F 3 "" H 8830 1780 50  0001 L BNN
	1    8830 1780
	1    0    0    -1  
$EndComp
Wire Wire Line
	8130 1380 7980 1380
Wire Wire Line
	8130 1780 7980 1780
$Comp
L power:+12V #PWR?
U 1 1 6172B227
P 9670 850
AR Path="/61119591/6172B227" Ref="#PWR?"  Part="1" 
AR Path="/614C2E34/6172B227" Ref="#PWR?"  Part="1" 
AR Path="/614C4D35/6172B227" Ref="#PWR0173"  Part="1" 
F 0 "#PWR0173" H 9670 700 50  0001 C CNN
F 1 "+12V" H 9685 1023 50  0000 C CNN
F 2 "" H 9670 850 50  0001 C CNN
F 3 "" H 9670 850 50  0001 C CNN
	1    9670 850 
	1    0    0    -1  
$EndComp
$Comp
L Device:C C?
U 1 1 6172B22D
P 9930 900
AR Path="/61119591/6172B22D" Ref="C?"  Part="1" 
AR Path="/614C2E34/6172B22D" Ref="C?"  Part="1" 
AR Path="/614C4D35/6172B22D" Ref="C49"  Part="1" 
F 0 "C49" V 10080 900 50  0000 C CNN
F 1 "0.1uF" V 9769 900 50  0000 C CNN
F 2 "Capacitor_SMD:C_0805_2012Metric" H 9968 750 50  0001 C CNN
F 3 "~" H 9930 900 50  0001 C CNN
	1    9930 900 
	0    1    1    0   
$EndComp
$Comp
L power:GND #PWR?
U 1 1 6172B233
P 10250 990
AR Path="/61119591/6172B233" Ref="#PWR?"  Part="1" 
AR Path="/614C2E34/6172B233" Ref="#PWR?"  Part="1" 
AR Path="/614C4D35/6172B233" Ref="#PWR0176"  Part="1" 
F 0 "#PWR0176" H 10250 740 50  0001 C CNN
F 1 "GND" H 10255 817 50  0000 C CNN
F 2 "" H 10250 990 50  0001 C CNN
F 3 "" H 10250 990 50  0001 C CNN
	1    10250 990 
	1    0    0    -1  
$EndComp
Wire Wire Line
	10080 900  10250 900 
Wire Wire Line
	10250 900  10250 990 
Wire Wire Line
	9530 1080 9670 1080
$Comp
L power:+12V #PWR?
U 1 1 6172B23C
P 7980 1060
AR Path="/61119591/6172B23C" Ref="#PWR?"  Part="1" 
AR Path="/614C2E34/6172B23C" Ref="#PWR?"  Part="1" 
AR Path="/614C4D35/6172B23C" Ref="#PWR0179"  Part="1" 
F 0 "#PWR0179" H 7980 910 50  0001 C CNN
F 1 "+12V" H 7995 1233 50  0000 C CNN
F 2 "" H 7980 1060 50  0001 C CNN
F 3 "" H 7980 1060 50  0001 C CNN
	1    7980 1060
	1    0    0    -1  
$EndComp
Wire Wire Line
	8130 1280 7980 1280
$Comp
L power:GND #PWR?
U 1 1 6172B243
P 9600 2530
AR Path="/61119591/6172B243" Ref="#PWR?"  Part="1" 
AR Path="/614C2E34/6172B243" Ref="#PWR?"  Part="1" 
AR Path="/614C4D35/6172B243" Ref="#PWR0182"  Part="1" 
F 0 "#PWR0182" H 9600 2280 50  0001 C CNN
F 1 "GND" H 9605 2357 50  0000 C CNN
F 2 "" H 9600 2530 50  0001 C CNN
F 3 "" H 9600 2530 50  0001 C CNN
	1    9600 2530
	1    0    0    -1  
$EndComp
Wire Wire Line
	9530 2480 9600 2480
Wire Wire Line
	9600 2480 9600 2530
Wire Wire Line
	7980 1060 7980 1280
Wire Wire Line
	8130 1680 8130 1580
Connection ~ 8130 1380
Connection ~ 8130 1480
Wire Wire Line
	8130 1480 8130 1380
Connection ~ 8130 1580
Wire Wire Line
	8130 1580 8130 1480
Wire Wire Line
	8130 1880 7980 1880
Wire Wire Line
	8130 1980 7980 1980
Wire Wire Line
	8130 2080 7980 2080
NoConn ~ 8130 2280
Wire Wire Line
	9780 900  9670 900 
Wire Wire Line
	9670 850  9670 900 
Connection ~ 9670 900 
Wire Wire Line
	9670 900  9670 1080
$Comp
L Device:LED D?
U 1 1 6172B25A
P 10160 1800
AR Path="/61119591/6172B25A" Ref="D?"  Part="1" 
AR Path="/614C2E34/6172B25A" Ref="D?"  Part="1" 
AR Path="/614C4D35/6172B25A" Ref="D11"  Part="1" 
F 0 "D11" V 10199 1682 50  0000 R CNN
F 1 "LED" V 10108 1682 50  0000 R CNN
F 2 "LED_SMD:LED_1206_3216Metric_Pad1.42x1.75mm_HandSolder" H 10160 1800 50  0001 C CNN
F 3 "~" H 10160 1800 50  0001 C CNN
	1    10160 1800
	0    -1   -1   0   
$EndComp
$Comp
L Device:LED D?
U 1 1 6172B260
P 10530 1800
AR Path="/61119591/6172B260" Ref="D?"  Part="1" 
AR Path="/614C2E34/6172B260" Ref="D?"  Part="1" 
AR Path="/614C4D35/6172B260" Ref="D12"  Part="1" 
F 0 "D12" V 10569 1682 50  0000 R CNN
F 1 "LED" V 10478 1682 50  0000 R CNN
F 2 "LED_SMD:LED_1206_3216Metric_Pad1.42x1.75mm_HandSolder" H 10530 1800 50  0001 C CNN
F 3 "~" H 10530 1800 50  0001 C CNN
	1    10530 1800
	0    -1   -1   0   
$EndComp
$Comp
L Device:R R?
U 1 1 6172B266
P 9870 2170
AR Path="/61119591/6172B266" Ref="R?"  Part="1" 
AR Path="/614C2E34/6172B266" Ref="R?"  Part="1" 
AR Path="/614C4D35/6172B266" Ref="R49"  Part="1" 
F 0 "R49" V 9970 2120 50  0000 L CNN
F 1 "10k" V 9870 2070 50  0000 L CNN
F 2 "Resistor_SMD:R_0805_2012Metric" V 9800 2170 50  0001 C CNN
F 3 "~" H 9870 2170 50  0001 C CNN
	1    9870 2170
	1    0    0    -1  
$EndComp
Wire Wire Line
	9870 2020 9870 1950
$Comp
L Device:R R?
U 1 1 6172B26D
P 10160 2170
AR Path="/61119591/6172B26D" Ref="R?"  Part="1" 
AR Path="/614C2E34/6172B26D" Ref="R?"  Part="1" 
AR Path="/614C4D35/6172B26D" Ref="R50"  Part="1" 
F 0 "R50" V 10260 2120 50  0000 L CNN
F 1 "10k" V 10160 2070 50  0000 L CNN
F 2 "Resistor_SMD:R_0805_2012Metric" V 10090 2170 50  0001 C CNN
F 3 "~" H 10160 2170 50  0001 C CNN
	1    10160 2170
	1    0    0    -1  
$EndComp
Wire Wire Line
	10160 2020 10160 1950
$Comp
L Device:R R?
U 1 1 6172B274
P 10530 2170
AR Path="/61119591/6172B274" Ref="R?"  Part="1" 
AR Path="/614C2E34/6172B274" Ref="R?"  Part="1" 
AR Path="/614C4D35/6172B274" Ref="R51"  Part="1" 
F 0 "R51" V 10630 2120 50  0000 L CNN
F 1 "10k" V 10530 2070 50  0000 L CNN
F 2 "Resistor_SMD:R_0805_2012Metric" V 10460 2170 50  0001 C CNN
F 3 "~" H 10530 2170 50  0001 C CNN
	1    10530 2170
	1    0    0    -1  
$EndComp
Wire Wire Line
	10530 2020 10530 1950
$Comp
L Device:LED D?
U 1 1 6172B27B
P 9870 1800
AR Path="/61119591/6172B27B" Ref="D?"  Part="1" 
AR Path="/614C2E34/6172B27B" Ref="D?"  Part="1" 
AR Path="/614C4D35/6172B27B" Ref="D10"  Part="1" 
F 0 "D10" V 9909 1682 50  0000 R CNN
F 1 "LED" V 9818 1682 50  0000 R CNN
F 2 "LED_SMD:LED_1206_3216Metric_Pad1.42x1.75mm_HandSolder" H 9870 1800 50  0001 C CNN
F 3 "~" H 9870 1800 50  0001 C CNN
	1    9870 1800
	0    -1   -1   0   
$EndComp
Text HLabel 7980 1380 0    50   Input ~ 0
Reset
Text HLabel 7980 1780 0    50   Input ~ 0
HumHigh1
Text HLabel 7980 1880 0    50   Input ~ 0
HumLow1
Text HLabel 7980 1980 0    50   Input ~ 0
HumHigh2
Text HLabel 7980 2080 0    50   Input ~ 0
HumLow2
Wire Wire Line
	9560 2020 9560 1950
$Comp
L Device:R R?
U 1 1 6172B287
P 9560 2170
AR Path="/61119591/6172B287" Ref="R?"  Part="1" 
AR Path="/614C2E34/6172B287" Ref="R?"  Part="1" 
AR Path="/614C4D35/6172B287" Ref="R48"  Part="1" 
F 0 "R48" V 9660 2120 50  0000 L CNN
F 1 "10k" V 9560 2070 50  0000 L CNN
F 2 "Resistor_SMD:R_0805_2012Metric" V 9490 2170 50  0001 C CNN
F 3 "~" H 9560 2170 50  0001 C CNN
	1    9560 2170
	1    0    0    -1  
$EndComp
$Comp
L Device:LED D?
U 1 1 6172B28D
P 9560 1800
AR Path="/61119591/6172B28D" Ref="D?"  Part="1" 
AR Path="/614C2E34/6172B28D" Ref="D?"  Part="1" 
AR Path="/614C4D35/6172B28D" Ref="D9"  Part="1" 
F 0 "D9" V 9599 1682 50  0000 R CNN
F 1 "LED" V 9508 1682 50  0000 R CNN
F 2 "LED_SMD:LED_1206_3216Metric_Pad1.42x1.75mm_HandSolder" H 9560 1800 50  0001 C CNN
F 3 "~" H 9560 1800 50  0001 C CNN
	1    9560 1800
	0    -1   -1   0   
$EndComp
Connection ~ 9870 2320
Wire Wire Line
	9870 2320 10040 2320
Connection ~ 10160 2320
Wire Wire Line
	10160 2320 10530 2320
Wire Wire Line
	9560 2320 9870 2320
Wire Wire Line
	9600 2480 10040 2480
Wire Wire Line
	10040 2480 10040 2320
Connection ~ 9600 2480
Connection ~ 10040 2320
Wire Wire Line
	10040 2320 10160 2320
Wire Wire Line
	9530 1580 9560 1580
Wire Wire Line
	9560 1580 9560 1650
Wire Wire Line
	9530 1480 9870 1480
Wire Wire Line
	9870 1480 9870 1650
Wire Wire Line
	9530 1380 10160 1380
Wire Wire Line
	10160 1380 10160 1650
Wire Wire Line
	9530 1280 10530 1280
Wire Wire Line
	10530 1280 10530 1650
$Comp
L interlock:MC14043BDG U?
U 1 1 61733D9F
P 2020 3900
AR Path="/61119591/61733D9F" Ref="U?"  Part="1" 
AR Path="/614C2E34/61733D9F" Ref="U?"  Part="1" 
AR Path="/614C4D35/61733D9F" Ref="U17"  Part="1" 
F 0 "U17" H 2020 4870 50  0000 C CNN
F 1 "MC14043BDG" H 2020 4779 50  0000 C CNN
F 2 "Package_SO:SOIC-16_3.9x9.9mm_P1.27mm" H 2020 3900 50  0001 L BNN
F 3 "" H 2020 3900 50  0001 L BNN
	1    2020 3900
	1    0    0    -1  
$EndComp
Wire Wire Line
	1320 3500 1170 3500
Wire Wire Line
	1320 3900 1170 3900
$Comp
L power:+12V #PWR?
U 1 1 61733DA7
P 2860 2970
AR Path="/61119591/61733DA7" Ref="#PWR?"  Part="1" 
AR Path="/614C2E34/61733DA7" Ref="#PWR?"  Part="1" 
AR Path="/614C4D35/61733DA7" Ref="#PWR0183"  Part="1" 
F 0 "#PWR0183" H 2860 2820 50  0001 C CNN
F 1 "+12V" H 2875 3143 50  0000 C CNN
F 2 "" H 2860 2970 50  0001 C CNN
F 3 "" H 2860 2970 50  0001 C CNN
	1    2860 2970
	1    0    0    -1  
$EndComp
$Comp
L Device:C C?
U 1 1 61733DAD
P 3120 3020
AR Path="/61119591/61733DAD" Ref="C?"  Part="1" 
AR Path="/614C2E34/61733DAD" Ref="C?"  Part="1" 
AR Path="/614C4D35/61733DAD" Ref="C50"  Part="1" 
F 0 "C50" V 3270 3020 50  0000 C CNN
F 1 "0.1uF" V 2959 3020 50  0000 C CNN
F 2 "Capacitor_SMD:C_0805_2012Metric" H 3158 2870 50  0001 C CNN
F 3 "~" H 3120 3020 50  0001 C CNN
	1    3120 3020
	0    1    1    0   
$EndComp
$Comp
L power:GND #PWR?
U 1 1 61733DB3
P 3440 3110
AR Path="/61119591/61733DB3" Ref="#PWR?"  Part="1" 
AR Path="/614C2E34/61733DB3" Ref="#PWR?"  Part="1" 
AR Path="/614C4D35/61733DB3" Ref="#PWR0185"  Part="1" 
F 0 "#PWR0185" H 3440 2860 50  0001 C CNN
F 1 "GND" H 3445 2937 50  0000 C CNN
F 2 "" H 3440 3110 50  0001 C CNN
F 3 "" H 3440 3110 50  0001 C CNN
	1    3440 3110
	1    0    0    -1  
$EndComp
Wire Wire Line
	3270 3020 3440 3020
Wire Wire Line
	3440 3020 3440 3110
Wire Wire Line
	2720 3200 2860 3200
$Comp
L power:+12V #PWR?
U 1 1 61733DBC
P 1170 3180
AR Path="/61119591/61733DBC" Ref="#PWR?"  Part="1" 
AR Path="/614C2E34/61733DBC" Ref="#PWR?"  Part="1" 
AR Path="/614C4D35/61733DBC" Ref="#PWR0187"  Part="1" 
F 0 "#PWR0187" H 1170 3030 50  0001 C CNN
F 1 "+12V" H 1185 3353 50  0000 C CNN
F 2 "" H 1170 3180 50  0001 C CNN
F 3 "" H 1170 3180 50  0001 C CNN
	1    1170 3180
	1    0    0    -1  
$EndComp
Wire Wire Line
	1320 3400 1170 3400
$Comp
L power:GND #PWR?
U 1 1 61733DC3
P 2790 4650
AR Path="/61119591/61733DC3" Ref="#PWR?"  Part="1" 
AR Path="/614C2E34/61733DC3" Ref="#PWR?"  Part="1" 
AR Path="/614C4D35/61733DC3" Ref="#PWR0190"  Part="1" 
F 0 "#PWR0190" H 2790 4400 50  0001 C CNN
F 1 "GND" H 2795 4477 50  0000 C CNN
F 2 "" H 2790 4650 50  0001 C CNN
F 3 "" H 2790 4650 50  0001 C CNN
	1    2790 4650
	1    0    0    -1  
$EndComp
Wire Wire Line
	2720 4600 2790 4600
Wire Wire Line
	2790 4600 2790 4650
Wire Wire Line
	1170 3180 1170 3400
Wire Wire Line
	1320 3800 1320 3700
Connection ~ 1320 3500
Connection ~ 1320 3600
Wire Wire Line
	1320 3600 1320 3500
Connection ~ 1320 3700
Wire Wire Line
	1320 3700 1320 3600
Wire Wire Line
	1320 4000 1170 4000
Wire Wire Line
	1320 4100 1170 4100
Wire Wire Line
	1320 4200 1170 4200
NoConn ~ 1320 4400
Wire Wire Line
	2970 3020 2860 3020
Wire Wire Line
	2860 2970 2860 3020
Connection ~ 2860 3020
Wire Wire Line
	2860 3020 2860 3200
$Comp
L Device:LED D?
U 1 1 61733DDA
P 3350 3920
AR Path="/61119591/61733DDA" Ref="D?"  Part="1" 
AR Path="/614C2E34/61733DDA" Ref="D?"  Part="1" 
AR Path="/614C4D35/61733DDA" Ref="D15"  Part="1" 
F 0 "D15" V 3389 3802 50  0000 R CNN
F 1 "LED" V 3298 3802 50  0000 R CNN
F 2 "LED_SMD:LED_1206_3216Metric_Pad1.42x1.75mm_HandSolder" H 3350 3920 50  0001 C CNN
F 3 "~" H 3350 3920 50  0001 C CNN
	1    3350 3920
	0    -1   -1   0   
$EndComp
$Comp
L Device:LED D?
U 1 1 61733DE0
P 3720 3920
AR Path="/61119591/61733DE0" Ref="D?"  Part="1" 
AR Path="/614C2E34/61733DE0" Ref="D?"  Part="1" 
AR Path="/614C4D35/61733DE0" Ref="D16"  Part="1" 
F 0 "D16" V 3759 3802 50  0000 R CNN
F 1 "LED" V 3668 3802 50  0000 R CNN
F 2 "LED_SMD:LED_1206_3216Metric_Pad1.42x1.75mm_HandSolder" H 3720 3920 50  0001 C CNN
F 3 "~" H 3720 3920 50  0001 C CNN
	1    3720 3920
	0    -1   -1   0   
$EndComp
$Comp
L Device:R R?
U 1 1 61733DE6
P 3060 4290
AR Path="/61119591/61733DE6" Ref="R?"  Part="1" 
AR Path="/614C2E34/61733DE6" Ref="R?"  Part="1" 
AR Path="/614C4D35/61733DE6" Ref="R53"  Part="1" 
F 0 "R53" V 3160 4240 50  0000 L CNN
F 1 "10k" V 3060 4190 50  0000 L CNN
F 2 "Resistor_SMD:R_0805_2012Metric" V 2990 4290 50  0001 C CNN
F 3 "~" H 3060 4290 50  0001 C CNN
	1    3060 4290
	1    0    0    -1  
$EndComp
Wire Wire Line
	3060 4140 3060 4070
$Comp
L Device:R R?
U 1 1 61733DED
P 3350 4290
AR Path="/61119591/61733DED" Ref="R?"  Part="1" 
AR Path="/614C2E34/61733DED" Ref="R?"  Part="1" 
AR Path="/614C4D35/61733DED" Ref="R54"  Part="1" 
F 0 "R54" V 3450 4240 50  0000 L CNN
F 1 "10k" V 3350 4190 50  0000 L CNN
F 2 "Resistor_SMD:R_0805_2012Metric" V 3280 4290 50  0001 C CNN
F 3 "~" H 3350 4290 50  0001 C CNN
	1    3350 4290
	1    0    0    -1  
$EndComp
Wire Wire Line
	3350 4140 3350 4070
$Comp
L Device:R R?
U 1 1 61733DF4
P 3720 4290
AR Path="/61119591/61733DF4" Ref="R?"  Part="1" 
AR Path="/614C2E34/61733DF4" Ref="R?"  Part="1" 
AR Path="/614C4D35/61733DF4" Ref="R55"  Part="1" 
F 0 "R55" V 3820 4240 50  0000 L CNN
F 1 "10k" V 3720 4190 50  0000 L CNN
F 2 "Resistor_SMD:R_0805_2012Metric" V 3650 4290 50  0001 C CNN
F 3 "~" H 3720 4290 50  0001 C CNN
	1    3720 4290
	1    0    0    -1  
$EndComp
Wire Wire Line
	3720 4140 3720 4070
$Comp
L Device:LED D?
U 1 1 61733DFB
P 3060 3920
AR Path="/61119591/61733DFB" Ref="D?"  Part="1" 
AR Path="/614C2E34/61733DFB" Ref="D?"  Part="1" 
AR Path="/614C4D35/61733DFB" Ref="D14"  Part="1" 
F 0 "D14" V 3099 3802 50  0000 R CNN
F 1 "LED" V 3008 3802 50  0000 R CNN
F 2 "LED_SMD:LED_1206_3216Metric_Pad1.42x1.75mm_HandSolder" H 3060 3920 50  0001 C CNN
F 3 "~" H 3060 3920 50  0001 C CNN
	1    3060 3920
	0    -1   -1   0   
$EndComp
Text HLabel 1170 3500 0    50   Input ~ 0
Reset
Text HLabel 1170 3900 0    50   Input ~ 0
FlowHigh
Text HLabel 1170 4000 0    50   Input ~ 0
FlowLow
Text HLabel 1170 4100 0    50   Input ~ 0
Door1
Text HLabel 1170 4200 0    50   Input ~ 0
Door2
Wire Wire Line
	2750 4140 2750 4070
$Comp
L Device:R R?
U 1 1 61733E07
P 2750 4290
AR Path="/61119591/61733E07" Ref="R?"  Part="1" 
AR Path="/614C2E34/61733E07" Ref="R?"  Part="1" 
AR Path="/614C4D35/61733E07" Ref="R52"  Part="1" 
F 0 "R52" V 2850 4240 50  0000 L CNN
F 1 "10k" V 2750 4190 50  0000 L CNN
F 2 "Resistor_SMD:R_0805_2012Metric" V 2680 4290 50  0001 C CNN
F 3 "~" H 2750 4290 50  0001 C CNN
	1    2750 4290
	1    0    0    -1  
$EndComp
$Comp
L Device:LED D?
U 1 1 61733E0D
P 2750 3920
AR Path="/61119591/61733E0D" Ref="D?"  Part="1" 
AR Path="/614C2E34/61733E0D" Ref="D?"  Part="1" 
AR Path="/614C4D35/61733E0D" Ref="D13"  Part="1" 
F 0 "D13" V 2789 3802 50  0000 R CNN
F 1 "LED" V 2698 3802 50  0000 R CNN
F 2 "LED_SMD:LED_1206_3216Metric_Pad1.42x1.75mm_HandSolder" H 2750 3920 50  0001 C CNN
F 3 "~" H 2750 3920 50  0001 C CNN
	1    2750 3920
	0    -1   -1   0   
$EndComp
Connection ~ 3060 4440
Wire Wire Line
	3060 4440 3230 4440
Connection ~ 3350 4440
Wire Wire Line
	3350 4440 3720 4440
Wire Wire Line
	2750 4440 3060 4440
Wire Wire Line
	2790 4600 3230 4600
Wire Wire Line
	3230 4600 3230 4440
Connection ~ 2790 4600
Connection ~ 3230 4440
Wire Wire Line
	3230 4440 3350 4440
Wire Wire Line
	2720 3700 2750 3700
Wire Wire Line
	2750 3700 2750 3770
Wire Wire Line
	2720 3600 3060 3600
Wire Wire Line
	3060 3600 3060 3770
Wire Wire Line
	2720 3500 3350 3500
Wire Wire Line
	3350 3500 3350 3770
Wire Wire Line
	2720 3400 3720 3400
Wire Wire Line
	3720 3400 3720 3770
$Comp
L interlock:MC14043BDG U?
U 1 1 61741B55
P 5390 3950
AR Path="/61119591/61741B55" Ref="U?"  Part="1" 
AR Path="/614C2E34/61741B55" Ref="U?"  Part="1" 
AR Path="/614C4D35/61741B55" Ref="U18"  Part="1" 
F 0 "U18" H 5390 4920 50  0000 C CNN
F 1 "MC14043BDG" H 5390 4829 50  0000 C CNN
F 2 "Package_SO:SOIC-16_3.9x9.9mm_P1.27mm" H 5390 3950 50  0001 L BNN
F 3 "" H 5390 3950 50  0001 L BNN
	1    5390 3950
	1    0    0    -1  
$EndComp
Wire Wire Line
	4690 3550 4540 3550
Wire Wire Line
	4690 3950 4540 3950
$Comp
L power:+12V #PWR?
U 1 1 61741B5D
P 6230 3020
AR Path="/61119591/61741B5D" Ref="#PWR?"  Part="1" 
AR Path="/614C2E34/61741B5D" Ref="#PWR?"  Part="1" 
AR Path="/614C4D35/61741B5D" Ref="#PWR0184"  Part="1" 
F 0 "#PWR0184" H 6230 2870 50  0001 C CNN
F 1 "+12V" H 6245 3193 50  0000 C CNN
F 2 "" H 6230 3020 50  0001 C CNN
F 3 "" H 6230 3020 50  0001 C CNN
	1    6230 3020
	1    0    0    -1  
$EndComp
$Comp
L Device:C C?
U 1 1 61741B63
P 6490 3070
AR Path="/61119591/61741B63" Ref="C?"  Part="1" 
AR Path="/614C2E34/61741B63" Ref="C?"  Part="1" 
AR Path="/614C4D35/61741B63" Ref="C51"  Part="1" 
F 0 "C51" V 6640 3070 50  0000 C CNN
F 1 "0.1uF" V 6329 3070 50  0000 C CNN
F 2 "Capacitor_SMD:C_0805_2012Metric" H 6528 2920 50  0001 C CNN
F 3 "~" H 6490 3070 50  0001 C CNN
	1    6490 3070
	0    1    1    0   
$EndComp
$Comp
L power:GND #PWR?
U 1 1 61741B69
P 6810 3160
AR Path="/61119591/61741B69" Ref="#PWR?"  Part="1" 
AR Path="/614C2E34/61741B69" Ref="#PWR?"  Part="1" 
AR Path="/614C4D35/61741B69" Ref="#PWR0186"  Part="1" 
F 0 "#PWR0186" H 6810 2910 50  0001 C CNN
F 1 "GND" H 6815 2987 50  0000 C CNN
F 2 "" H 6810 3160 50  0001 C CNN
F 3 "" H 6810 3160 50  0001 C CNN
	1    6810 3160
	1    0    0    -1  
$EndComp
Wire Wire Line
	6640 3070 6810 3070
Wire Wire Line
	6810 3070 6810 3160
Wire Wire Line
	6090 3250 6230 3250
$Comp
L power:+12V #PWR?
U 1 1 61741B72
P 4540 3230
AR Path="/61119591/61741B72" Ref="#PWR?"  Part="1" 
AR Path="/614C2E34/61741B72" Ref="#PWR?"  Part="1" 
AR Path="/614C4D35/61741B72" Ref="#PWR0188"  Part="1" 
F 0 "#PWR0188" H 4540 3080 50  0001 C CNN
F 1 "+12V" H 4555 3403 50  0000 C CNN
F 2 "" H 4540 3230 50  0001 C CNN
F 3 "" H 4540 3230 50  0001 C CNN
	1    4540 3230
	1    0    0    -1  
$EndComp
Wire Wire Line
	4690 3450 4540 3450
$Comp
L power:GND #PWR?
U 1 1 61741B79
P 6160 4700
AR Path="/61119591/61741B79" Ref="#PWR?"  Part="1" 
AR Path="/614C2E34/61741B79" Ref="#PWR?"  Part="1" 
AR Path="/614C4D35/61741B79" Ref="#PWR0192"  Part="1" 
F 0 "#PWR0192" H 6160 4450 50  0001 C CNN
F 1 "GND" H 6165 4527 50  0000 C CNN
F 2 "" H 6160 4700 50  0001 C CNN
F 3 "" H 6160 4700 50  0001 C CNN
	1    6160 4700
	1    0    0    -1  
$EndComp
Wire Wire Line
	6090 4650 6160 4650
Wire Wire Line
	6160 4650 6160 4700
Wire Wire Line
	4540 3230 4540 3450
Connection ~ 4690 3550
Connection ~ 4690 3650
Wire Wire Line
	4690 3650 4690 3550
Wire Wire Line
	4690 3750 4690 3650
Wire Wire Line
	4690 4050 4540 4050
Wire Wire Line
	4690 4150 4540 4150
NoConn ~ 4690 4450
Wire Wire Line
	6340 3070 6230 3070
Wire Wire Line
	6230 3020 6230 3070
Connection ~ 6230 3070
Wire Wire Line
	6230 3070 6230 3250
$Comp
L Device:LED D?
U 1 1 61741B90
P 6720 3970
AR Path="/61119591/61741B90" Ref="D?"  Part="1" 
AR Path="/614C2E34/61741B90" Ref="D?"  Part="1" 
AR Path="/614C4D35/61741B90" Ref="D18"  Part="1" 
F 0 "D18" V 6759 3852 50  0000 R CNN
F 1 "LED" V 6668 3852 50  0000 R CNN
F 2 "LED_SMD:LED_1206_3216Metric_Pad1.42x1.75mm_HandSolder" H 6720 3970 50  0001 C CNN
F 3 "~" H 6720 3970 50  0001 C CNN
	1    6720 3970
	0    -1   -1   0   
$EndComp
$Comp
L Device:LED D?
U 1 1 61741B96
P 7090 3970
AR Path="/61119591/61741B96" Ref="D?"  Part="1" 
AR Path="/614C2E34/61741B96" Ref="D?"  Part="1" 
AR Path="/614C4D35/61741B96" Ref="D19"  Part="1" 
F 0 "D19" V 7129 3852 50  0000 R CNN
F 1 "LED" V 7038 3852 50  0000 R CNN
F 2 "LED_SMD:LED_1206_3216Metric_Pad1.42x1.75mm_HandSolder" H 7090 3970 50  0001 C CNN
F 3 "~" H 7090 3970 50  0001 C CNN
	1    7090 3970
	0    -1   -1   0   
$EndComp
$Comp
L Device:R R?
U 1 1 61741B9C
P 6430 4340
AR Path="/61119591/61741B9C" Ref="R?"  Part="1" 
AR Path="/614C2E34/61741B9C" Ref="R?"  Part="1" 
AR Path="/614C4D35/61741B9C" Ref="R56"  Part="1" 
F 0 "R56" V 6530 4290 50  0000 L CNN
F 1 "10k" V 6430 4240 50  0000 L CNN
F 2 "Resistor_SMD:R_0805_2012Metric" V 6360 4340 50  0001 C CNN
F 3 "~" H 6430 4340 50  0001 C CNN
	1    6430 4340
	1    0    0    -1  
$EndComp
Wire Wire Line
	6430 4190 6430 4120
$Comp
L Device:R R?
U 1 1 61741BA3
P 6720 4340
AR Path="/61119591/61741BA3" Ref="R?"  Part="1" 
AR Path="/614C2E34/61741BA3" Ref="R?"  Part="1" 
AR Path="/614C4D35/61741BA3" Ref="R57"  Part="1" 
F 0 "R57" V 6820 4290 50  0000 L CNN
F 1 "10k" V 6720 4240 50  0000 L CNN
F 2 "Resistor_SMD:R_0805_2012Metric" V 6650 4340 50  0001 C CNN
F 3 "~" H 6720 4340 50  0001 C CNN
	1    6720 4340
	1    0    0    -1  
$EndComp
Wire Wire Line
	6720 4190 6720 4120
$Comp
L Device:R R?
U 1 1 61741BAA
P 7090 4340
AR Path="/61119591/61741BAA" Ref="R?"  Part="1" 
AR Path="/614C2E34/61741BAA" Ref="R?"  Part="1" 
AR Path="/614C4D35/61741BAA" Ref="R58"  Part="1" 
F 0 "R58" V 7190 4290 50  0000 L CNN
F 1 "10k" V 7090 4240 50  0000 L CNN
F 2 "Resistor_SMD:R_0805_2012Metric" V 7020 4340 50  0001 C CNN
F 3 "~" H 7090 4340 50  0001 C CNN
	1    7090 4340
	1    0    0    -1  
$EndComp
Wire Wire Line
	7090 4190 7090 4120
$Comp
L Device:LED D?
U 1 1 61741BB1
P 6430 3970
AR Path="/61119591/61741BB1" Ref="D?"  Part="1" 
AR Path="/614C2E34/61741BB1" Ref="D?"  Part="1" 
AR Path="/614C4D35/61741BB1" Ref="D17"  Part="1" 
F 0 "D17" V 6469 3852 50  0000 R CNN
F 1 "LED" V 6378 3852 50  0000 R CNN
F 2 "LED_SMD:LED_1206_3216Metric_Pad1.42x1.75mm_HandSolder" H 6430 3970 50  0001 C CNN
F 3 "~" H 6430 3970 50  0001 C CNN
	1    6430 3970
	0    -1   -1   0   
$EndComp
Text HLabel 4540 3550 0    50   Input ~ 0
Reset
Text HLabel 4540 3950 0    50   Input ~ 0
LV0
Text HLabel 4540 4050 0    50   Input ~ 0
LV1
Text HLabel 4540 4150 0    50   Input ~ 0
LV2
Wire Wire Line
	6430 4490 6600 4490
Connection ~ 6720 4490
Wire Wire Line
	6720 4490 7090 4490
Wire Wire Line
	6160 4650 6600 4650
Wire Wire Line
	6600 4650 6600 4490
Connection ~ 6160 4650
Connection ~ 6600 4490
Wire Wire Line
	6600 4490 6720 4490
Wire Wire Line
	6090 3650 6430 3650
Wire Wire Line
	6430 3650 6430 3820
Wire Wire Line
	6090 3550 6720 3550
Wire Wire Line
	6720 3550 6720 3820
Wire Wire Line
	6090 3450 7090 3450
Wire Wire Line
	7090 3450 7090 3820
$Comp
L interlock:CD4072BM U?
U 1 1 61752B92
P 2010 6270
AR Path="/61119591/61752B92" Ref="U?"  Part="1" 
AR Path="/614C2E34/61752B92" Ref="U?"  Part="1" 
AR Path="/614C4D35/61752B92" Ref="U20"  Part="1" 
F 0 "U20" H 2010 7140 50  0000 C CNN
F 1 "CD4072BM" H 2010 7049 50  0000 C CNN
F 2 "interlock:SOIC127P600X175-14N" H 2010 6270 50  0001 L BNN
F 3 "" H 2010 6270 50  0001 L BNN
	1    2010 6270
	1    0    0    -1  
$EndComp
$Comp
L power:+12V #PWR?
U 1 1 61752BA2
P 2910 5420
AR Path="/61119591/61752BA2" Ref="#PWR?"  Part="1" 
AR Path="/614C2E34/61752BA2" Ref="#PWR?"  Part="1" 
AR Path="/614C4D35/61752BA2" Ref="#PWR0193"  Part="1" 
F 0 "#PWR0193" H 2910 5270 50  0001 C CNN
F 1 "+12V" H 2925 5593 50  0000 C CNN
F 2 "" H 2910 5420 50  0001 C CNN
F 3 "" H 2910 5420 50  0001 C CNN
	1    2910 5420
	1    0    0    -1  
$EndComp
$Comp
L Device:C C?
U 1 1 61752BA8
P 3160 5570
AR Path="/61119591/61752BA8" Ref="C?"  Part="1" 
AR Path="/614C2E34/61752BA8" Ref="C?"  Part="1" 
AR Path="/614C4D35/61752BA8" Ref="C53"  Part="1" 
F 0 "C53" V 3310 5570 50  0000 C CNN
F 1 "0.1uF" V 2999 5570 50  0000 C CNN
F 2 "Capacitor_SMD:C_0805_2012Metric" H 3198 5420 50  0001 C CNN
F 3 "~" H 3160 5570 50  0001 C CNN
	1    3160 5570
	0    1    1    0   
$EndComp
Wire Wire Line
	3310 5570 3510 5570
Wire Wire Line
	2910 5420 2910 5570
Wire Wire Line
	2910 5670 2710 5670
Wire Wire Line
	3010 5570 2910 5570
Connection ~ 2910 5570
Wire Wire Line
	2910 5570 2910 5670
$Comp
L power:GND #PWR?
U 1 1 61752BB4
P 2710 7020
AR Path="/61119591/61752BB4" Ref="#PWR?"  Part="1" 
AR Path="/614C2E34/61752BB4" Ref="#PWR?"  Part="1" 
AR Path="/614C4D35/61752BB4" Ref="#PWR0198"  Part="1" 
F 0 "#PWR0198" H 2710 6770 50  0001 C CNN
F 1 "GND" H 2715 6847 50  0000 C CNN
F 2 "" H 2710 7020 50  0001 C CNN
F 3 "" H 2710 7020 50  0001 C CNN
	1    2710 7020
	1    0    0    -1  
$EndComp
Wire Wire Line
	2710 7020 2710 6870
Text Notes 1845 6610 0    50   ~ 0
OR gate
$Comp
L power:GND #PWR?
U 1 1 61768554
P 3510 5570
AR Path="/61119591/61768554" Ref="#PWR?"  Part="1" 
AR Path="/614C2E34/61768554" Ref="#PWR?"  Part="1" 
AR Path="/614C4D35/61768554" Ref="#PWR0195"  Part="1" 
F 0 "#PWR0195" H 3510 5320 50  0001 C CNN
F 1 "GND" H 3515 5397 50  0000 C CNN
F 2 "" H 3510 5570 50  0001 C CNN
F 3 "" H 3510 5570 50  0001 C CNN
	1    3510 5570
	1    0    0    -1  
$EndComp
Text Notes 1880 1960 0    50   ~ 0
S-R latch
Text Notes 5220 2010 0    50   ~ 0
S-R latch
Text Notes 8660 1980 0    50   ~ 0
S-R latch
Text Notes 1840 4140 0    50   ~ 0
S-R latch
Text Notes 5190 4140 0    50   ~ 0
S-R latch
NoConn ~ 6090 3750
Text HLabel 1230 5870 0    50   Input ~ 0
TempHigh1
Text HLabel 1230 5970 0    50   Input ~ 0
TempLow1
Text HLabel 1230 6070 0    50   Input ~ 0
TempHigh2
Text HLabel 1230 6170 0    50   Input ~ 0
TempLow2
Wire Wire Line
	1310 5870 1230 5870
Wire Wire Line
	1310 5970 1230 5970
Wire Wire Line
	1310 6070 1230 6070
Wire Wire Line
	1310 6170 1230 6170
Text HLabel 1230 6270 0    50   Input ~ 0
TempHigh3
Text HLabel 1230 6370 0    50   Input ~ 0
TempLow3
Text HLabel 1230 6470 0    50   Input ~ 0
TempHigh4
Text HLabel 1230 6570 0    50   Input ~ 0
TempLow4
Wire Wire Line
	1310 6270 1230 6270
Wire Wire Line
	1310 6370 1230 6370
Wire Wire Line
	1310 6470 1230 6470
Wire Wire Line
	1310 6570 1230 6570
$Comp
L interlock:CD4072BM U?
U 1 1 61819139
P 5360 6330
AR Path="/61119591/61819139" Ref="U?"  Part="1" 
AR Path="/614C2E34/61819139" Ref="U?"  Part="1" 
AR Path="/614C4D35/61819139" Ref="U21"  Part="1" 
F 0 "U21" H 5360 7200 50  0000 C CNN
F 1 "CD4072BM" H 5360 7109 50  0000 C CNN
F 2 "interlock:SOIC127P600X175-14N" H 5360 6330 50  0001 L BNN
F 3 "" H 5360 6330 50  0001 L BNN
	1    5360 6330
	1    0    0    -1  
$EndComp
$Comp
L power:+12V #PWR?
U 1 1 6181913F
P 6260 5480
AR Path="/61119591/6181913F" Ref="#PWR?"  Part="1" 
AR Path="/614C2E34/6181913F" Ref="#PWR?"  Part="1" 
AR Path="/614C4D35/6181913F" Ref="#PWR0194"  Part="1" 
F 0 "#PWR0194" H 6260 5330 50  0001 C CNN
F 1 "+12V" H 6275 5653 50  0000 C CNN
F 2 "" H 6260 5480 50  0001 C CNN
F 3 "" H 6260 5480 50  0001 C CNN
	1    6260 5480
	1    0    0    -1  
$EndComp
$Comp
L Device:C C?
U 1 1 61819145
P 6510 5630
AR Path="/61119591/61819145" Ref="C?"  Part="1" 
AR Path="/614C2E34/61819145" Ref="C?"  Part="1" 
AR Path="/614C4D35/61819145" Ref="C54"  Part="1" 
F 0 "C54" V 6660 5630 50  0000 C CNN
F 1 "0.1uF" V 6349 5630 50  0000 C CNN
F 2 "Capacitor_SMD:C_0805_2012Metric" H 6548 5480 50  0001 C CNN
F 3 "~" H 6510 5630 50  0001 C CNN
	1    6510 5630
	0    1    1    0   
$EndComp
Wire Wire Line
	6660 5630 6860 5630
Wire Wire Line
	6260 5480 6260 5630
Wire Wire Line
	6260 5730 6060 5730
Wire Wire Line
	6360 5630 6260 5630
Connection ~ 6260 5630
Wire Wire Line
	6260 5630 6260 5730
$Comp
L power:GND #PWR?
U 1 1 61819151
P 6060 7080
AR Path="/61119591/61819151" Ref="#PWR?"  Part="1" 
AR Path="/614C2E34/61819151" Ref="#PWR?"  Part="1" 
AR Path="/614C4D35/61819151" Ref="#PWR0199"  Part="1" 
F 0 "#PWR0199" H 6060 6830 50  0001 C CNN
F 1 "GND" H 6065 6907 50  0000 C CNN
F 2 "" H 6060 7080 50  0001 C CNN
F 3 "" H 6060 7080 50  0001 C CNN
	1    6060 7080
	1    0    0    -1  
$EndComp
Wire Wire Line
	6060 7080 6060 6930
Text Notes 5195 6670 0    50   ~ 0
OR gate
$Comp
L power:GND #PWR?
U 1 1 61819159
P 6860 5630
AR Path="/61119591/61819159" Ref="#PWR?"  Part="1" 
AR Path="/614C2E34/61819159" Ref="#PWR?"  Part="1" 
AR Path="/614C4D35/61819159" Ref="#PWR0196"  Part="1" 
F 0 "#PWR0196" H 6860 5380 50  0001 C CNN
F 1 "GND" H 6865 5457 50  0000 C CNN
F 2 "" H 6860 5630 50  0001 C CNN
F 3 "" H 6860 5630 50  0001 C CNN
	1    6860 5630
	1    0    0    -1  
$EndComp
Text HLabel 4580 5930 0    50   Input ~ 0
HumHigh1
Text HLabel 4580 6030 0    50   Input ~ 0
HumLow1
Text HLabel 4580 6130 0    50   Input ~ 0
HumHigh2
Text HLabel 4580 6230 0    50   Input ~ 0
HumLow2
Text HLabel 4580 6330 0    50   Input ~ 0
FlowHigh
Text HLabel 4580 6430 0    50   Input ~ 0
FlowLow
Text HLabel 4580 6530 0    50   Input ~ 0
Door1
Text HLabel 4580 6630 0    50   Input ~ 0
Door2
Wire Wire Line
	4660 5930 4580 5930
Wire Wire Line
	4660 6030 4580 6030
Wire Wire Line
	4660 6130 4580 6130
Wire Wire Line
	4660 6230 4580 6230
Wire Wire Line
	4660 6330 4580 6330
Wire Wire Line
	4660 6430 4580 6430
Wire Wire Line
	4660 6530 4580 6530
Wire Wire Line
	4660 6630 4580 6630
$Comp
L interlock:CD4072BM U?
U 1 1 61896BA8
P 8920 5350
AR Path="/61119591/61896BA8" Ref="U?"  Part="1" 
AR Path="/614C2E34/61896BA8" Ref="U?"  Part="1" 
AR Path="/614C4D35/61896BA8" Ref="U19"  Part="1" 
F 0 "U19" H 8920 6220 50  0000 C CNN
F 1 "CD4072BM" H 8920 6129 50  0000 C CNN
F 2 "interlock:SOIC127P600X175-14N" H 8920 5350 50  0001 L BNN
F 3 "" H 8920 5350 50  0001 L BNN
	1    8920 5350
	1    0    0    -1  
$EndComp
$Comp
L power:+12V #PWR?
U 1 1 61896BAE
P 9820 4500
AR Path="/61119591/61896BAE" Ref="#PWR?"  Part="1" 
AR Path="/614C2E34/61896BAE" Ref="#PWR?"  Part="1" 
AR Path="/614C4D35/61896BAE" Ref="#PWR0189"  Part="1" 
F 0 "#PWR0189" H 9820 4350 50  0001 C CNN
F 1 "+12V" H 9835 4673 50  0000 C CNN
F 2 "" H 9820 4500 50  0001 C CNN
F 3 "" H 9820 4500 50  0001 C CNN
	1    9820 4500
	1    0    0    -1  
$EndComp
$Comp
L Device:C C?
U 1 1 61896BB4
P 10070 4650
AR Path="/61119591/61896BB4" Ref="C?"  Part="1" 
AR Path="/614C2E34/61896BB4" Ref="C?"  Part="1" 
AR Path="/614C4D35/61896BB4" Ref="C52"  Part="1" 
F 0 "C52" V 10220 4650 50  0000 C CNN
F 1 "0.1uF" V 9909 4650 50  0000 C CNN
F 2 "Capacitor_SMD:C_0805_2012Metric" H 10108 4500 50  0001 C CNN
F 3 "~" H 10070 4650 50  0001 C CNN
	1    10070 4650
	0    1    1    0   
$EndComp
Wire Wire Line
	10220 4650 10420 4650
Wire Wire Line
	9820 4500 9820 4650
Wire Wire Line
	9820 4750 9620 4750
Wire Wire Line
	9920 4650 9820 4650
Connection ~ 9820 4650
Wire Wire Line
	9820 4650 9820 4750
$Comp
L power:GND #PWR?
U 1 1 61896BC0
P 9620 6100
AR Path="/61119591/61896BC0" Ref="#PWR?"  Part="1" 
AR Path="/614C2E34/61896BC0" Ref="#PWR?"  Part="1" 
AR Path="/614C4D35/61896BC0" Ref="#PWR0197"  Part="1" 
F 0 "#PWR0197" H 9620 5850 50  0001 C CNN
F 1 "GND" H 9625 5927 50  0000 C CNN
F 2 "" H 9620 6100 50  0001 C CNN
F 3 "" H 9620 6100 50  0001 C CNN
	1    9620 6100
	1    0    0    -1  
$EndComp
Wire Wire Line
	9620 6100 9620 5950
Text Notes 8755 5690 0    50   ~ 0
OR gate
$Comp
L power:GND #PWR?
U 1 1 61896BC8
P 10420 4650
AR Path="/61119591/61896BC8" Ref="#PWR?"  Part="1" 
AR Path="/614C2E34/61896BC8" Ref="#PWR?"  Part="1" 
AR Path="/614C4D35/61896BC8" Ref="#PWR0191"  Part="1" 
F 0 "#PWR0191" H 10420 4400 50  0001 C CNN
F 1 "GND" H 10425 4477 50  0000 C CNN
F 2 "" H 10420 4650 50  0001 C CNN
F 3 "" H 10420 4650 50  0001 C CNN
	1    10420 4650
	1    0    0    -1  
$EndComp
Text HLabel 8150 4950 0    50   Input ~ 0
LV0
Text HLabel 8150 5050 0    50   Input ~ 0
LV1
Text HLabel 8150 5150 0    50   Input ~ 0
LV2
Wire Wire Line
	8220 4950 8150 4950
Wire Wire Line
	8220 5050 8150 5050
Wire Wire Line
	8220 5150 8150 5150
Text Label 2850 5870 0    50   ~ 0
OR1
Wire Wire Line
	2710 5870 2850 5870
Text Label 2850 5970 0    50   ~ 0
OR2
Wire Wire Line
	2710 5970 2850 5970
Text Label 6200 5930 0    50   ~ 0
OR3
Wire Wire Line
	6060 5930 6200 5930
Text Label 6200 6030 0    50   ~ 0
OR4
Wire Wire Line
	6060 6030 6200 6030
Text Label 9760 4950 0    50   ~ 0
OR5
Wire Wire Line
	9620 4950 9760 4950
Text Label 8120 5250 2    50   ~ 0
OR1
Wire Wire Line
	8120 5250 8220 5250
Text Label 8120 5350 2    50   ~ 0
OR2
Wire Wire Line
	8120 5350 8220 5350
Text Label 8120 5450 2    50   ~ 0
OR3
Wire Wire Line
	8120 5450 8220 5450
Text Label 8120 5550 2    50   ~ 0
OR4
Wire Wire Line
	8120 5550 8220 5550
Text Label 8120 5650 2    50   ~ 0
OR5
Wire Wire Line
	8120 5650 8220 5650
Text HLabel 9770 5050 2    50   Output ~ 0
BigOROut
Wire Wire Line
	4690 1530 4690 1430
Wire Wire Line
	4690 1430 4690 1330
Connection ~ 4690 1430
Connection ~ 4690 1330
Wire Wire Line
	6090 2430 6160 2430
Wire Wire Line
	6090 1530 6120 1530
Wire Wire Line
	6090 1430 6430 1430
Wire Wire Line
	6090 1330 6720 1330
Wire Wire Line
	6090 1230 7090 1230
Wire Wire Line
	6090 1030 6230 1030
$Comp
L interlock:MC14043BDG U?
U 1 1 61724455
P 5390 1730
AR Path="/61119591/61724455" Ref="U?"  Part="1" 
AR Path="/614C2E34/61724455" Ref="U?"  Part="1" 
AR Path="/614C4D35/61724455" Ref="U14"  Part="1" 
F 0 "U14" H 5390 2700 50  0000 C CNN
F 1 "MC14043BDG" H 5390 2609 50  0000 C CNN
F 2 "Package_SO:SOIC-16_3.9x9.9mm_P1.27mm" H 5390 1730 50  0001 L BNN
F 3 "" H 5390 1730 50  0001 L BNN
	1    5390 1730
	1    0    0    -1  
$EndComp
Connection ~ 4690 1530
Wire Wire Line
	4690 1630 4690 1530
$Comp
L Device:R R?
U 1 1 615EFF81
P 9685 5255
AR Path="/61119591/615EFF81" Ref="R?"  Part="1" 
AR Path="/614C2E34/615EFF81" Ref="R?"  Part="1" 
AR Path="/614C4D35/615EFF81" Ref="R81"  Part="1" 
F 0 "R81" V 9785 5205 50  0000 L CNN
F 1 "50k" V 9685 5155 50  0000 L CNN
F 2 "Resistor_SMD:R_0805_2012Metric" V 9615 5255 50  0001 C CNN
F 3 "~" H 9685 5255 50  0001 C CNN
	1    9685 5255
	1    0    0    -1  
$EndComp
Wire Wire Line
	9685 5105 9685 5050
Wire Wire Line
	9620 5050 9685 5050
Connection ~ 9685 5050
Wire Wire Line
	9685 5050 9770 5050
$Comp
L power:GND #PWR?
U 1 1 615FFC5C
P 9685 5465
AR Path="/61119591/615FFC5C" Ref="#PWR?"  Part="1" 
AR Path="/614C2E34/615FFC5C" Ref="#PWR?"  Part="1" 
AR Path="/614C4D35/615FFC5C" Ref="#PWR0248"  Part="1" 
F 0 "#PWR0248" H 9685 5215 50  0001 C CNN
F 1 "GND" H 9690 5292 50  0000 C CNN
F 2 "" H 9685 5465 50  0001 C CNN
F 3 "" H 9685 5465 50  0001 C CNN
	1    9685 5465
	1    0    0    -1  
$EndComp
Wire Wire Line
	9685 5465 9685 5405
Wire Wire Line
	4690 3850 4180 3850
Wire Wire Line
	4180 3850 4180 3450
Wire Wire Line
	4180 3450 4540 3450
Connection ~ 4540 3450
Wire Wire Line
	4690 4250 4180 4250
Wire Wire Line
	4180 4250 4180 3850
Connection ~ 4180 3850
$EndSCHEMATC
