EESchema Schematic File Version 4
EELAYER 30 0
EELAYER END
$Descr A4 11693 8268
encoding utf-8
Sheet 6 14
Title ""
Date ""
Rev ""
Comp ""
Comment1 ""
Comment2 ""
Comment3 ""
Comment4 ""
$EndDescr
$Comp
L Comparator:LM393 U7
U 1 1 6142485A
P 4800 3400
AR Path="/61044A2C/6142485A" Ref="U7"  Part="1" 
AR Path="/61086D02/6142485A" Ref="U?"  Part="1" 
AR Path="/61422789/6142485A" Ref="U?"  Part="1" 
AR Path="/61422AED/6142485A" Ref="U?"  Part="1" 
AR Path="/61424501/6142485A" Ref="U?"  Part="1" 
AR Path="/6142478E/6142485A" Ref="U?"  Part="1" 
AR Path="/614278B4/6142485A" Ref="U?"  Part="1" 
F 0 "U7" H 4800 3767 50  0000 C CNN
F 1 "LM393" H 4800 3676 50  0000 C CNN
F 2 "Package_SO:SOIC-8W_5.3x5.3mm_P1.27mm" H 4800 3400 50  0001 C CNN
F 3 "http://www.ti.com/lit/ds/symlink/lm393.pdf" H 4800 3400 50  0001 C CNN
	1    4800 3400
	1    0    0    -1  
$EndComp
$Comp
L Comparator:LM393 U7
U 2 1 6142485B
P 4800 4700
AR Path="/61044A2C/6142485B" Ref="U7"  Part="2" 
AR Path="/61086D02/6142485B" Ref="U?"  Part="2" 
AR Path="/61422789/6142485B" Ref="U?"  Part="2" 
AR Path="/61422AED/6142485B" Ref="U?"  Part="2" 
AR Path="/61424501/6142485B" Ref="U?"  Part="2" 
AR Path="/6142478E/6142485B" Ref="U?"  Part="2" 
AR Path="/614278B4/6142485B" Ref="U?"  Part="2" 
F 0 "U7" H 4800 5067 50  0000 C CNN
F 1 "LM393" H 4800 4976 50  0000 C CNN
F 2 "Package_SO:SOIC-8W_5.3x5.3mm_P1.27mm" H 4800 4700 50  0001 C CNN
F 3 "http://www.ti.com/lit/ds/symlink/lm393.pdf" H 4800 4700 50  0001 C CNN
	2    4800 4700
	1    0    0    -1  
$EndComp
$Comp
L Comparator:LM393 U7
U 3 1 6142485C
P 4650 1950
AR Path="/61044A2C/6142485C" Ref="U7"  Part="3" 
AR Path="/61086D02/6142485C" Ref="U?"  Part="3" 
AR Path="/61422789/6142485C" Ref="U?"  Part="3" 
AR Path="/61422AED/6142485C" Ref="U?"  Part="3" 
AR Path="/61424501/6142485C" Ref="U?"  Part="3" 
AR Path="/6142478E/6142485C" Ref="U?"  Part="3" 
AR Path="/614278B4/6142485C" Ref="U?"  Part="3" 
F 0 "U7" H 4608 1996 50  0000 L CNN
F 1 "LM393" H 4608 1905 50  0000 L CNN
F 2 "Package_SO:SOIC-8W_5.3x5.3mm_P1.27mm" H 4650 1950 50  0001 C CNN
F 3 "http://www.ti.com/lit/ds/symlink/lm393.pdf" H 4650 1950 50  0001 C CNN
	3    4650 1950
	0    1    1    0   
$EndComp
$Comp
L power:+12V #PWR073
U 1 1 6142485D
P 5150 1500
AR Path="/61044A2C/6142485D" Ref="#PWR073"  Part="1" 
AR Path="/61086D02/6142485D" Ref="#PWR?"  Part="1" 
AR Path="/61422789/6142485D" Ref="#PWR?"  Part="1" 
AR Path="/61422AED/6142485D" Ref="#PWR?"  Part="1" 
AR Path="/61424501/6142485D" Ref="#PWR?"  Part="1" 
AR Path="/6142478E/6142485D" Ref="#PWR?"  Part="1" 
AR Path="/614278B4/6142485D" Ref="#PWR?"  Part="1" 
F 0 "#PWR073" H 5150 1350 50  0001 C CNN
F 1 "+12V" H 5165 1673 50  0000 C CNN
F 2 "" H 5150 1500 50  0001 C CNN
F 3 "" H 5150 1500 50  0001 C CNN
	1    5150 1500
	1    0    0    -1  
$EndComp
Wire Wire Line
	5150 1850 4950 1850
$Comp
L power:GND #PWR075
U 1 1 6142485E
P 4100 1900
AR Path="/61044A2C/6142485E" Ref="#PWR075"  Part="1" 
AR Path="/61086D02/6142485E" Ref="#PWR?"  Part="1" 
AR Path="/61422789/6142485E" Ref="#PWR?"  Part="1" 
AR Path="/61422AED/6142485E" Ref="#PWR?"  Part="1" 
AR Path="/61424501/6142485E" Ref="#PWR?"  Part="1" 
AR Path="/6142478E/6142485E" Ref="#PWR?"  Part="1" 
AR Path="/614278B4/6142485E" Ref="#PWR?"  Part="1" 
F 0 "#PWR075" H 4100 1650 50  0001 C CNN
F 1 "GND" H 4105 1727 50  0000 C CNN
F 2 "" H 4100 1900 50  0001 C CNN
F 3 "" H 4100 1900 50  0001 C CNN
	1    4100 1900
	1    0    0    -1  
$EndComp
Wire Wire Line
	4350 1850 4100 1850
Wire Wire Line
	4100 1850 4100 1900
$Comp
L Device:C C19
U 1 1 6108D926
P 5450 1850
AR Path="/61044A2C/6108D926" Ref="C19"  Part="1" 
AR Path="/61086D02/6108D926" Ref="C?"  Part="1" 
AR Path="/61422789/6108D926" Ref="C?"  Part="1" 
AR Path="/61422AED/6108D926" Ref="C?"  Part="1" 
AR Path="/61424501/6108D926" Ref="C?"  Part="1" 
AR Path="/6142478E/6108D926" Ref="C?"  Part="1" 
AR Path="/614278B4/6108D926" Ref="C?"  Part="1" 
F 0 "C19" V 5600 1850 50  0000 C CNN
F 1 "0.1uF" V 5289 1850 50  0000 C CNN
F 2 "Capacitor_SMD:C_0805_2012Metric" H 5488 1700 50  0001 C CNN
F 3 "~" H 5450 1850 50  0001 C CNN
	1    5450 1850
	0    1    1    0   
$EndComp
$Comp
L power:GND #PWR074
U 1 1 61424860
P 5800 1850
AR Path="/61044A2C/61424860" Ref="#PWR074"  Part="1" 
AR Path="/61086D02/61424860" Ref="#PWR?"  Part="1" 
AR Path="/61422789/61424860" Ref="#PWR?"  Part="1" 
AR Path="/61422AED/61424860" Ref="#PWR?"  Part="1" 
AR Path="/61424501/61424860" Ref="#PWR?"  Part="1" 
AR Path="/6142478E/61424860" Ref="#PWR?"  Part="1" 
AR Path="/614278B4/61424860" Ref="#PWR?"  Part="1" 
F 0 "#PWR074" H 5800 1600 50  0001 C CNN
F 1 "GND" H 5805 1677 50  0000 C CNN
F 2 "" H 5800 1850 50  0001 C CNN
F 3 "" H 5800 1850 50  0001 C CNN
	1    5800 1850
	1    0    0    -1  
$EndComp
Wire Wire Line
	5800 1850 5600 1850
Wire Wire Line
	5300 1850 5150 1850
Connection ~ 5150 1850
$Comp
L power:+12V #PWR079
U 1 1 61053202
P 2500 3850
AR Path="/61044A2C/61053202" Ref="#PWR079"  Part="1" 
AR Path="/61086D02/61053202" Ref="#PWR?"  Part="1" 
AR Path="/61422789/61053202" Ref="#PWR?"  Part="1" 
AR Path="/61422AED/61053202" Ref="#PWR?"  Part="1" 
AR Path="/61424501/61053202" Ref="#PWR?"  Part="1" 
AR Path="/6142478E/61053202" Ref="#PWR?"  Part="1" 
AR Path="/614278B4/61053202" Ref="#PWR?"  Part="1" 
F 0 "#PWR079" H 2500 3700 50  0001 C CNN
F 1 "+12V" H 2515 4023 50  0000 C CNN
F 2 "" H 2500 3850 50  0001 C CNN
F 3 "" H 2500 3850 50  0001 C CNN
	1    2500 3850
	1    0    0    -1  
$EndComp
$Comp
L Device:R R19
U 1 1 6142825E
P 3250 4100
AR Path="/61044A2C/6142825E" Ref="R19"  Part="1" 
AR Path="/61086D02/6142825E" Ref="R?"  Part="1" 
AR Path="/61422789/6142825E" Ref="R?"  Part="1" 
AR Path="/61422AED/6142825E" Ref="R?"  Part="1" 
AR Path="/61424501/6142825E" Ref="R?"  Part="1" 
AR Path="/6142478E/6142825E" Ref="R?"  Part="1" 
AR Path="/614278B4/6142825E" Ref="R?"  Part="1" 
F 0 "R19" V 3350 4100 50  0000 C CNN
F 1 "50k" V 3250 4100 50  0000 C CNN
F 2 "Resistor_SMD:R_0805_2012Metric" V 3180 4100 50  0001 C CNN
F 3 "~" H 3250 4100 50  0001 C CNN
	1    3250 4100
	0    1    1    0   
$EndComp
Wire Wire Line
	2500 3850 2500 4100
Wire Wire Line
	2500 4100 3100 4100
Wire Wire Line
	4200 3500 4360 3500
Wire Wire Line
	4500 4600 4200 4600
Wire Wire Line
	5150 1500 5150 1850
Wire Wire Line
	5100 3400 5200 3400
$Comp
L Device:C C20
U 1 1 6142825F
P 5200 3700
AR Path="/61044A2C/6142825F" Ref="C20"  Part="1" 
AR Path="/61086D02/6142825F" Ref="C?"  Part="1" 
AR Path="/61422789/6142825F" Ref="C?"  Part="1" 
AR Path="/61422AED/6142825F" Ref="C?"  Part="1" 
AR Path="/61424501/6142825F" Ref="C?"  Part="1" 
AR Path="/6142478E/6142825F" Ref="C?"  Part="1" 
AR Path="/614278B4/6142825F" Ref="C?"  Part="1" 
F 0 "C20" H 5315 3746 50  0000 L CNN
F 1 "15pF" H 5315 3655 50  0000 L CNN
F 2 "Capacitor_SMD:C_0805_2012Metric" H 5238 3550 50  0001 C CNN
F 3 "~" H 5200 3700 50  0001 C CNN
	1    5200 3700
	1    0    0    -1  
$EndComp
$Comp
L power:GND #PWR081
U 1 1 614245DA
P 5200 4250
AR Path="/61044A2C/614245DA" Ref="#PWR081"  Part="1" 
AR Path="/61086D02/614245DA" Ref="#PWR?"  Part="1" 
AR Path="/61422789/614245DA" Ref="#PWR?"  Part="1" 
AR Path="/61422AED/614245DA" Ref="#PWR?"  Part="1" 
AR Path="/61424501/614245DA" Ref="#PWR?"  Part="1" 
AR Path="/6142478E/614245DA" Ref="#PWR?"  Part="1" 
AR Path="/614278B4/614245DA" Ref="#PWR?"  Part="1" 
F 0 "#PWR081" H 5200 4000 50  0001 C CNN
F 1 "GND" H 5205 4077 50  0000 C CNN
F 2 "" H 5200 4250 50  0001 C CNN
F 3 "" H 5200 4250 50  0001 C CNN
	1    5200 4250
	1    0    0    -1  
$EndComp
Wire Wire Line
	5200 3550 5200 3400
Wire Wire Line
	5100 4700 5200 4700
$Comp
L Device:C C22
U 1 1 61428260
P 5200 5000
AR Path="/61044A2C/61428260" Ref="C22"  Part="1" 
AR Path="/61086D02/61428260" Ref="C?"  Part="1" 
AR Path="/61422789/61428260" Ref="C?"  Part="1" 
AR Path="/61422AED/61428260" Ref="C?"  Part="1" 
AR Path="/61424501/61428260" Ref="C?"  Part="1" 
AR Path="/6142478E/61428260" Ref="C?"  Part="1" 
AR Path="/614278B4/61428260" Ref="C?"  Part="1" 
F 0 "C22" H 5315 5046 50  0000 L CNN
F 1 "15pF" H 5315 4955 50  0000 L CNN
F 2 "Capacitor_SMD:C_0805_2012Metric" H 5238 4850 50  0001 C CNN
F 3 "~" H 5200 5000 50  0001 C CNN
	1    5200 5000
	1    0    0    -1  
$EndComp
$Comp
L power:GND #PWR086
U 1 1 614245CC
P 5200 5500
AR Path="/61044A2C/614245CC" Ref="#PWR086"  Part="1" 
AR Path="/61086D02/614245CC" Ref="#PWR?"  Part="1" 
AR Path="/61422789/614245CC" Ref="#PWR?"  Part="1" 
AR Path="/61422AED/614245CC" Ref="#PWR?"  Part="1" 
AR Path="/61424501/614245CC" Ref="#PWR?"  Part="1" 
AR Path="/6142478E/614245CC" Ref="#PWR?"  Part="1" 
AR Path="/614278B4/614245CC" Ref="#PWR?"  Part="1" 
F 0 "#PWR086" H 5200 5250 50  0001 C CNN
F 1 "GND" H 5205 5327 50  0000 C CNN
F 2 "" H 5200 5500 50  0001 C CNN
F 3 "" H 5200 5500 50  0001 C CNN
	1    5200 5500
	1    0    0    -1  
$EndComp
Wire Wire Line
	5200 4850 5200 4700
Text HLabel 5950 3500 0    50   Output ~ 0
TempHighOut
Text Notes 1300 3760 0    50   ~ 0
NTCALUG01A103F: \nB = 3984\nR at 25C: 10k\nR at -40C: 414.8k\nR at -20C: 107.5k\nR at 0C: 33.9k\nR at 35C:  6.5k
Text HLabel 3510 4030 1    50   Input ~ 0
NTCIn
$Comp
L Device:R_Potentiometer RV4
U 1 1 61428259
P 3150 3300
AR Path="/61044A2C/61428259" Ref="RV4"  Part="1" 
AR Path="/61086D02/61428259" Ref="RV?"  Part="1" 
AR Path="/61422789/61428259" Ref="RV?"  Part="1" 
AR Path="/61422AED/61428259" Ref="RV?"  Part="1" 
AR Path="/61424501/61428259" Ref="RV?"  Part="1" 
AR Path="/6142478E/61428259" Ref="RV?"  Part="1" 
AR Path="/614278B4/61428259" Ref="RV?"  Part="1" 
F 0 "RV4" H 3080 3346 50  0000 R CNN
F 1 "R_Potentiometer" H 3080 3255 50  0000 R CNN
F 2 "Potentiometer_THT:Potentiometer_Bourns_3296Y_Vertical" H 3150 3300 50  0001 C CNN
F 3 "~" H 3150 3300 50  0001 C CNN
	1    3150 3300
	1    0    0    -1  
$EndComp
$Comp
L power:GND #PWR078
U 1 1 61428262
P 3150 3650
AR Path="/61044A2C/61428262" Ref="#PWR078"  Part="1" 
AR Path="/61086D02/61428262" Ref="#PWR?"  Part="1" 
AR Path="/61422789/61428262" Ref="#PWR?"  Part="1" 
AR Path="/61422AED/61428262" Ref="#PWR?"  Part="1" 
AR Path="/61424501/61428262" Ref="#PWR?"  Part="1" 
AR Path="/6142478E/61428262" Ref="#PWR?"  Part="1" 
AR Path="/614278B4/61428262" Ref="#PWR?"  Part="1" 
F 0 "#PWR078" H 3150 3400 50  0001 C CNN
F 1 "GND" H 3155 3477 50  0000 C CNN
F 2 "" H 3150 3650 50  0001 C CNN
F 3 "" H 3150 3650 50  0001 C CNN
	1    3150 3650
	1    0    0    -1  
$EndComp
$Comp
L power:+12V #PWR076
U 1 1 61428263
P 3150 3000
AR Path="/61044A2C/61428263" Ref="#PWR076"  Part="1" 
AR Path="/61086D02/61428263" Ref="#PWR?"  Part="1" 
AR Path="/61422789/61428263" Ref="#PWR?"  Part="1" 
AR Path="/61422AED/61428263" Ref="#PWR?"  Part="1" 
AR Path="/61424501/61428263" Ref="#PWR?"  Part="1" 
AR Path="/6142478E/61428263" Ref="#PWR?"  Part="1" 
AR Path="/614278B4/61428263" Ref="#PWR?"  Part="1" 
F 0 "#PWR076" H 3150 2850 50  0001 C CNN
F 1 "+12V" H 3165 3173 50  0000 C CNN
F 2 "" H 3150 3000 50  0001 C CNN
F 3 "" H 3150 3000 50  0001 C CNN
	1    3150 3000
	1    0    0    -1  
$EndComp
Wire Wire Line
	3150 3150 3150 3000
Wire Wire Line
	3150 3650 3150 3450
$Comp
L Device:R_Potentiometer RV5
U 1 1 61428256
P 3150 4800
AR Path="/61044A2C/61428256" Ref="RV5"  Part="1" 
AR Path="/61086D02/61428256" Ref="RV?"  Part="1" 
AR Path="/61422789/61428256" Ref="RV?"  Part="1" 
AR Path="/61422AED/61428256" Ref="RV?"  Part="1" 
AR Path="/61424501/61428256" Ref="RV?"  Part="1" 
AR Path="/6142478E/61428256" Ref="RV?"  Part="1" 
AR Path="/614278B4/61428256" Ref="RV?"  Part="1" 
F 0 "RV5" H 3080 4846 50  0000 R CNN
F 1 "R_Potentiometer" H 3080 4755 50  0000 R CNN
F 2 "Potentiometer_THT:Potentiometer_Bourns_3296Y_Vertical" H 3150 4800 50  0001 C CNN
F 3 "~" H 3150 4800 50  0001 C CNN
	1    3150 4800
	1    0    0    -1  
$EndComp
$Comp
L power:GND #PWR085
U 1 1 61428257
P 3150 5150
AR Path="/61044A2C/61428257" Ref="#PWR085"  Part="1" 
AR Path="/61086D02/61428257" Ref="#PWR?"  Part="1" 
AR Path="/61422789/61428257" Ref="#PWR?"  Part="1" 
AR Path="/61422AED/61428257" Ref="#PWR?"  Part="1" 
AR Path="/61424501/61428257" Ref="#PWR?"  Part="1" 
AR Path="/6142478E/61428257" Ref="#PWR?"  Part="1" 
AR Path="/614278B4/61428257" Ref="#PWR?"  Part="1" 
F 0 "#PWR085" H 3150 4900 50  0001 C CNN
F 1 "GND" H 3155 4977 50  0000 C CNN
F 2 "" H 3150 5150 50  0001 C CNN
F 3 "" H 3150 5150 50  0001 C CNN
	1    3150 5150
	1    0    0    -1  
$EndComp
$Comp
L power:+12V #PWR082
U 1 1 61428258
P 3150 4500
AR Path="/61044A2C/61428258" Ref="#PWR082"  Part="1" 
AR Path="/61086D02/61428258" Ref="#PWR?"  Part="1" 
AR Path="/61422789/61428258" Ref="#PWR?"  Part="1" 
AR Path="/61422AED/61428258" Ref="#PWR?"  Part="1" 
AR Path="/61424501/61428258" Ref="#PWR?"  Part="1" 
AR Path="/6142478E/61428258" Ref="#PWR?"  Part="1" 
AR Path="/614278B4/61428258" Ref="#PWR?"  Part="1" 
F 0 "#PWR082" H 3150 4350 50  0001 C CNN
F 1 "+12V" H 3165 4673 50  0000 C CNN
F 2 "" H 3150 4500 50  0001 C CNN
F 3 "" H 3150 4500 50  0001 C CNN
	1    3150 4500
	1    0    0    -1  
$EndComp
Wire Wire Line
	3150 4650 3150 4500
Wire Wire Line
	3150 5150 3150 4950
Wire Wire Line
	3400 4100 3510 4100
Connection ~ 5200 3400
Wire Wire Line
	5200 3850 5200 4250
Connection ~ 5200 4700
Wire Wire Line
	5200 5150 5200 5500
Connection ~ 3510 4100
$Comp
L power:GND #PWR083
U 1 1 614245E0
P 4080 4510
AR Path="/61044A2C/614245E0" Ref="#PWR083"  Part="1" 
AR Path="/61086D02/614245E0" Ref="#PWR?"  Part="1" 
AR Path="/61422789/614245E0" Ref="#PWR?"  Part="1" 
AR Path="/61422AED/614245E0" Ref="#PWR?"  Part="1" 
AR Path="/61424501/614245E0" Ref="#PWR?"  Part="1" 
AR Path="/6142478E/614245E0" Ref="#PWR?"  Part="1" 
AR Path="/614278B4/614245E0" Ref="#PWR?"  Part="1" 
F 0 "#PWR083" H 4080 4260 50  0001 C CNN
F 1 "GND" H 4085 4337 50  0000 C CNN
F 2 "" H 4080 4510 50  0001 C CNN
F 3 "" H 4080 4510 50  0001 C CNN
	1    4080 4510
	1    0    0    -1  
$EndComp
Wire Wire Line
	3510 4030 3510 4100
Wire Wire Line
	4200 3500 4200 4100
$Comp
L Device:R R20
U 1 1 61424868
P 3870 4100
AR Path="/61044A2C/61424868" Ref="R20"  Part="1" 
AR Path="/61086D02/61424868" Ref="R?"  Part="1" 
AR Path="/61422789/61424868" Ref="R?"  Part="1" 
AR Path="/61422AED/61424868" Ref="R?"  Part="1" 
AR Path="/61424501/61424868" Ref="R?"  Part="1" 
AR Path="/6142478E/61424868" Ref="R?"  Part="1" 
AR Path="/614278B4/61424868" Ref="R?"  Part="1" 
F 0 "R20" V 3970 4100 50  0000 C CNN
F 1 "0" V 3870 4100 50  0000 C CNN
F 2 "Resistor_SMD:R_0805_2012Metric" V 3800 4100 50  0001 C CNN
F 3 "~" H 3870 4100 50  0001 C CNN
	1    3870 4100
	0    1    1    0   
$EndComp
$Comp
L Device:R R21
U 1 1 61424869
P 4080 4290
AR Path="/61044A2C/61424869" Ref="R21"  Part="1" 
AR Path="/61086D02/61424869" Ref="R?"  Part="1" 
AR Path="/61422789/61424869" Ref="R?"  Part="1" 
AR Path="/61422AED/61424869" Ref="R?"  Part="1" 
AR Path="/61424501/61424869" Ref="R?"  Part="1" 
AR Path="/6142478E/61424869" Ref="R?"  Part="1" 
AR Path="/614278B4/61424869" Ref="R?"  Part="1" 
F 0 "R21" V 4180 4290 50  0000 C CNN
F 1 "50k" V 4080 4290 50  0000 C CNN
F 2 "Resistor_SMD:R_0805_2012Metric" V 4010 4290 50  0001 C CNN
F 3 "~" H 4080 4290 50  0001 C CNN
	1    4080 4290
	-1   0    0    1   
$EndComp
Wire Wire Line
	3510 4100 3720 4100
Wire Wire Line
	4020 4100 4080 4100
Connection ~ 4200 4100
Wire Wire Line
	4200 4100 4200 4600
Wire Wire Line
	4080 4140 4080 4100
Connection ~ 4080 4100
Wire Wire Line
	4080 4100 4200 4100
Wire Wire Line
	5200 4700 5590 4700
Wire Wire Line
	3300 3300 3670 3300
Wire Wire Line
	3300 4800 3630 4800
$Comp
L Connector_Generic:Conn_02x02_Odd_Even J11
U 1 1 6142486A
P 8010 3980
AR Path="/61044A2C/6142486A" Ref="J11"  Part="1" 
AR Path="/61422789/6142486A" Ref="J?"  Part="1" 
AR Path="/61422AED/6142486A" Ref="J?"  Part="1" 
AR Path="/61424501/6142486A" Ref="J?"  Part="1" 
AR Path="/6142478E/6142486A" Ref="J?"  Part="1" 
AR Path="/614278B4/6142486A" Ref="J?"  Part="1" 
F 0 "J11" H 8060 4197 50  0000 C CNN
F 1 "Conn_02x02_Odd_Even" H 8060 4106 50  0000 C CNN
F 2 "Connector_PinHeader_2.54mm:PinHeader_2x02_P2.54mm_Vertical_SMD" H 8010 3980 50  0001 C CNN
F 3 "~" H 8010 3980 50  0001 C CNN
	1    8010 3980
	1    0    0    -1  
$EndComp
$Comp
L power:GND #PWR080
U 1 1 6140F774
P 8600 4140
AR Path="/61044A2C/6140F774" Ref="#PWR080"  Part="1" 
AR Path="/61086D02/6140F774" Ref="#PWR?"  Part="1" 
AR Path="/61422789/6140F774" Ref="#PWR?"  Part="1" 
AR Path="/61422AED/6140F774" Ref="#PWR?"  Part="1" 
AR Path="/61424501/6140F774" Ref="#PWR?"  Part="1" 
AR Path="/6142478E/6140F774" Ref="#PWR?"  Part="1" 
AR Path="/614278B4/6140F774" Ref="#PWR?"  Part="1" 
F 0 "#PWR080" H 8600 3890 50  0001 C CNN
F 1 "GND" H 8605 3967 50  0000 C CNN
F 2 "" H 8600 4140 50  0001 C CNN
F 3 "" H 8600 4140 50  0001 C CNN
	1    8600 4140
	1    0    0    -1  
$EndComp
Wire Wire Line
	8310 3980 8600 3980
Wire Wire Line
	8600 3980 8600 4080
Wire Wire Line
	8310 4080 8600 4080
Connection ~ 8600 4080
Wire Wire Line
	8600 4080 8600 4140
Text Label 3670 3130 0    50   ~ 0
TempHighSet
Text Label 3680 4930 0    50   ~ 0
TempLowSet
Wire Wire Line
	3670 3130 3670 3300
Connection ~ 3670 3300
Wire Wire Line
	3670 3300 4500 3300
Wire Wire Line
	3680 4930 3630 4930
Wire Wire Line
	3630 4930 3630 4800
Connection ~ 3630 4800
Wire Wire Line
	3630 4800 4500 4800
Text Label 7690 3980 2    50   ~ 0
TempHighSet
Text Label 7690 4080 2    50   ~ 0
TempLowSet
Wire Wire Line
	7690 3980 7810 3980
Wire Wire Line
	7810 4080 7690 4080
Text Notes 1470 5590 0    50   ~ 0
Generic input (NTCIn):\n- for resistor type: load R20 with 0 Ohm, do not load R21; R19 and NTCIn act as voltage divider\n- for voltage type: do not load R19; R20 and R21 act as voltage divider
$Comp
L interlock:OS102011MS2QN1 S?
U 1 1 6165AD65
P 6300 3500
AR Path="/61119591/6165AD65" Ref="S?"  Part="1" 
AR Path="/614C2E34/6165AD65" Ref="S?"  Part="1" 
AR Path="/614C4D35/6165AD65" Ref="S?"  Part="1" 
AR Path="/61044A2C/6165AD65" Ref="S7"  Part="1" 
F 0 "S7" H 6420 3546 50  0000 L CNN
F 1 "SW" H 6420 3455 50  0000 L CNN
F 2 "interlock:SW_OS102011MS2QN1" H 6300 3500 50  0001 L BNN
F 3 "" H 6300 3500 50  0001 L BNN
F 4 "C&K" H 6300 3500 50  0001 L BNN "MANUFACTURER"
F 5 "MANUFACTURER RECOMMENDATIONS" H 6300 3500 50  0001 L BNN "STANDARD"
	1    6300 3500
	1    0    0    -1  
$EndComp
$Comp
L power:GND #PWR?
U 1 1 6165AD6B
P 6000 3600
AR Path="/61119591/6165AD6B" Ref="#PWR?"  Part="1" 
AR Path="/614C2E34/6165AD6B" Ref="#PWR?"  Part="1" 
AR Path="/614C4D35/6165AD6B" Ref="#PWR?"  Part="1" 
AR Path="/61044A2C/6165AD6B" Ref="#PWR077"  Part="1" 
F 0 "#PWR077" H 6000 3350 50  0001 C CNN
F 1 "GND" H 6005 3427 50  0000 C CNN
F 2 "" H 6000 3600 50  0001 C CNN
F 3 "" H 6000 3600 50  0001 C CNN
	1    6000 3600
	1    0    0    -1  
$EndComp
Wire Wire Line
	6100 3600 6000 3600
Wire Wire Line
	6100 3500 5950 3500
Wire Wire Line
	5200 3400 5670 3400
Text HLabel 5800 4800 0    50   Output ~ 0
TempLowOut
$Comp
L interlock:OS102011MS2QN1 S?
U 1 1 6166060C
P 6150 4800
AR Path="/61119591/6166060C" Ref="S?"  Part="1" 
AR Path="/614C2E34/6166060C" Ref="S?"  Part="1" 
AR Path="/614C4D35/6166060C" Ref="S?"  Part="1" 
AR Path="/61044A2C/6166060C" Ref="S8"  Part="1" 
F 0 "S8" H 6270 4846 50  0000 L CNN
F 1 "SW" H 6270 4755 50  0000 L CNN
F 2 "interlock:SW_OS102011MS2QN1" H 6150 4800 50  0001 L BNN
F 3 "" H 6150 4800 50  0001 L BNN
F 4 "C&K" H 6150 4800 50  0001 L BNN "MANUFACTURER"
F 5 "MANUFACTURER RECOMMENDATIONS" H 6150 4800 50  0001 L BNN "STANDARD"
	1    6150 4800
	1    0    0    -1  
$EndComp
$Comp
L power:GND #PWR?
U 1 1 61660612
P 5850 4900
AR Path="/61119591/61660612" Ref="#PWR?"  Part="1" 
AR Path="/614C2E34/61660612" Ref="#PWR?"  Part="1" 
AR Path="/614C4D35/61660612" Ref="#PWR?"  Part="1" 
AR Path="/61044A2C/61660612" Ref="#PWR084"  Part="1" 
F 0 "#PWR084" H 5850 4650 50  0001 C CNN
F 1 "GND" H 5855 4727 50  0000 C CNN
F 2 "" H 5850 4900 50  0001 C CNN
F 3 "" H 5850 4900 50  0001 C CNN
	1    5850 4900
	1    0    0    -1  
$EndComp
Wire Wire Line
	5950 4900 5850 4900
Wire Wire Line
	5950 4800 5800 4800
$Comp
L Device:R R67
U 1 1 614639CC
P 5670 3140
AR Path="/61044A2C/614639CC" Ref="R67"  Part="1" 
AR Path="/61086D02/614639CC" Ref="R?"  Part="1" 
AR Path="/61422789/614639CC" Ref="R?"  Part="1" 
AR Path="/61422AED/614639CC" Ref="R?"  Part="1" 
AR Path="/61424501/614639CC" Ref="R?"  Part="1" 
AR Path="/6142478E/614639CC" Ref="R?"  Part="1" 
AR Path="/614278B4/614639CC" Ref="R?"  Part="1" 
F 0 "R67" V 5770 3140 50  0000 C CNN
F 1 "50k" V 5670 3140 50  0000 C CNN
F 2 "Resistor_SMD:R_0805_2012Metric" V 5600 3140 50  0001 C CNN
F 3 "~" H 5670 3140 50  0001 C CNN
	1    5670 3140
	-1   0    0    1   
$EndComp
$Comp
L power:+12V #PWR0223
U 1 1 61464096
P 5670 2560
AR Path="/61044A2C/61464096" Ref="#PWR0223"  Part="1" 
AR Path="/61086D02/61464096" Ref="#PWR?"  Part="1" 
AR Path="/61422789/61464096" Ref="#PWR?"  Part="1" 
AR Path="/61422AED/61464096" Ref="#PWR?"  Part="1" 
AR Path="/61424501/61464096" Ref="#PWR?"  Part="1" 
AR Path="/6142478E/61464096" Ref="#PWR?"  Part="1" 
AR Path="/614278B4/61464096" Ref="#PWR?"  Part="1" 
F 0 "#PWR0223" H 5670 2410 50  0001 C CNN
F 1 "+12V" H 5685 2733 50  0000 C CNN
F 2 "" H 5670 2560 50  0001 C CNN
F 3 "" H 5670 2560 50  0001 C CNN
	1    5670 2560
	1    0    0    -1  
$EndComp
Wire Wire Line
	5670 2990 5670 2860
Wire Wire Line
	5670 3290 5670 3400
Connection ~ 5670 3400
Wire Wire Line
	5670 3400 6100 3400
$Comp
L Device:R R68
U 1 1 6146D773
P 5590 4450
AR Path="/61044A2C/6146D773" Ref="R68"  Part="1" 
AR Path="/61086D02/6146D773" Ref="R?"  Part="1" 
AR Path="/61422789/6146D773" Ref="R?"  Part="1" 
AR Path="/61422AED/6146D773" Ref="R?"  Part="1" 
AR Path="/61424501/6146D773" Ref="R?"  Part="1" 
AR Path="/6142478E/6146D773" Ref="R?"  Part="1" 
AR Path="/614278B4/6146D773" Ref="R?"  Part="1" 
F 0 "R68" V 5690 4450 50  0000 C CNN
F 1 "50k" V 5590 4450 50  0000 C CNN
F 2 "Resistor_SMD:R_0805_2012Metric" V 5520 4450 50  0001 C CNN
F 3 "~" H 5590 4450 50  0001 C CNN
	1    5590 4450
	-1   0    0    1   
$EndComp
$Comp
L power:+12V #PWR0224
U 1 1 6146D779
P 5590 3870
AR Path="/61044A2C/6146D779" Ref="#PWR0224"  Part="1" 
AR Path="/61086D02/6146D779" Ref="#PWR?"  Part="1" 
AR Path="/61422789/6146D779" Ref="#PWR?"  Part="1" 
AR Path="/61422AED/6146D779" Ref="#PWR?"  Part="1" 
AR Path="/61424501/6146D779" Ref="#PWR?"  Part="1" 
AR Path="/6142478E/6146D779" Ref="#PWR?"  Part="1" 
AR Path="/614278B4/6146D779" Ref="#PWR?"  Part="1" 
F 0 "#PWR0224" H 5590 3720 50  0001 C CNN
F 1 "+12V" H 5605 4043 50  0000 C CNN
F 2 "" H 5590 3870 50  0001 C CNN
F 3 "" H 5590 3870 50  0001 C CNN
	1    5590 3870
	1    0    0    -1  
$EndComp
Wire Wire Line
	5590 4300 5590 4170
Wire Wire Line
	5590 4600 5590 4700
Connection ~ 5590 4700
Wire Wire Line
	5590 4700 5950 4700
$Comp
L Device:C C21
U 1 1 61428265
P 4360 3745
AR Path="/61044A2C/61428265" Ref="C21"  Part="1" 
AR Path="/61086D02/61428265" Ref="C?"  Part="1" 
AR Path="/61422789/61428265" Ref="C?"  Part="1" 
AR Path="/61422AED/61428265" Ref="C?"  Part="1" 
AR Path="/61424501/61428265" Ref="C?"  Part="1" 
AR Path="/6142478E/61428265" Ref="C?"  Part="1" 
AR Path="/614278B4/61428265" Ref="C?"  Part="1" 
F 0 "C21" H 4475 3791 50  0000 L CNN
F 1 "0.1uF" H 4475 3700 50  0000 L CNN
F 2 "Capacitor_SMD:C_0805_2012Metric" H 4398 3595 50  0001 C CNN
F 3 "~" H 4360 3745 50  0001 C CNN
	1    4360 3745
	1    0    0    -1  
$EndComp
Wire Wire Line
	4080 4440 4080 4510
Wire Wire Line
	4360 3595 4360 3500
Connection ~ 4360 3500
Wire Wire Line
	4360 3500 4500 3500
$Comp
L power:GND #PWR0241
U 1 1 615AF793
P 4360 3975
AR Path="/61044A2C/615AF793" Ref="#PWR0241"  Part="1" 
AR Path="/61086D02/615AF793" Ref="#PWR?"  Part="1" 
AR Path="/61422789/615AF793" Ref="#PWR?"  Part="1" 
AR Path="/61422AED/615AF793" Ref="#PWR?"  Part="1" 
AR Path="/61424501/615AF793" Ref="#PWR?"  Part="1" 
AR Path="/6142478E/615AF793" Ref="#PWR?"  Part="1" 
AR Path="/614278B4/615AF793" Ref="#PWR?"  Part="1" 
F 0 "#PWR0241" H 4360 3725 50  0001 C CNN
F 1 "GND" H 4365 3802 50  0000 C CNN
F 2 "" H 4360 3975 50  0001 C CNN
F 3 "" H 4360 3975 50  0001 C CNN
	1    4360 3975
	1    0    0    -1  
$EndComp
Wire Wire Line
	4360 3975 4360 3895
$Comp
L Device:LED D?
U 1 1 61887D08
P 5670 2710
AR Path="/61119591/61887D08" Ref="D?"  Part="1" 
AR Path="/614C2E34/61887D08" Ref="D?"  Part="1" 
AR Path="/614C4D35/61887D08" Ref="D?"  Part="1" 
AR Path="/61044A2C/61887D08" Ref="D28"  Part="1" 
F 0 "D28" V 5709 2592 50  0000 R CNN
F 1 "LED" V 5618 2592 50  0000 R CNN
F 2 "LED_SMD:LED_1206_3216Metric_Pad1.42x1.75mm_HandSolder" H 5670 2710 50  0001 C CNN
F 3 "~" H 5670 2710 50  0001 C CNN
	1    5670 2710
	0    -1   -1   0   
$EndComp
$Comp
L Device:LED D?
U 1 1 6188BA74
P 5590 4020
AR Path="/61119591/6188BA74" Ref="D?"  Part="1" 
AR Path="/614C2E34/6188BA74" Ref="D?"  Part="1" 
AR Path="/614C4D35/6188BA74" Ref="D?"  Part="1" 
AR Path="/61044A2C/6188BA74" Ref="D29"  Part="1" 
F 0 "D29" V 5629 3902 50  0000 R CNN
F 1 "LED" V 5538 3902 50  0000 R CNN
F 2 "LED_SMD:LED_1206_3216Metric_Pad1.42x1.75mm_HandSolder" H 5590 4020 50  0001 C CNN
F 3 "~" H 5590 4020 50  0001 C CNN
	1    5590 4020
	0    -1   -1   0   
$EndComp
$EndSCHEMATC
