M48
; DRILL file {KiCad (5.1.9-0-10_14)} date Friday, September 17, 2021 at 08:26:28 AM
; FORMAT={-:-/ absolute / inch / decimal}
; #@! TF.CreationDate,2021-09-17T08:26:28-07:00
; #@! TF.GenerationSoftware,Kicad,Pcbnew,(5.1.9-0-10_14)
; #@! TF.FileFunction,Plated,1,4,PTH
FMAT,2
INCH
T1C0.0157
T2C0.0295
T3C0.0315
T4C0.0354
T5C0.0433
T6C0.0472
%
G90
G05
T1
X1.745Y-3.125
X1.785Y-3.175
X1.79Y-3.03
X1.805Y-3.275
X1.81Y-4.29
X1.82Y-5.34
X1.85Y-4.79
X1.8575Y-2.7375
X1.91Y-4.29
X1.91Y-4.71
X1.99Y-4.85
X2.0Y-2.9
X2.0Y-3.76
X2.0Y-4.12
X2.01Y-3.03
X2.045Y-4.325
X2.045Y-4.475
X2.07Y-2.94
X2.165Y-4.325
X2.165Y-4.375
X2.165Y-4.425
X2.165Y-4.525
X2.165Y-4.575
X2.165Y-4.625
X2.165Y-4.675
X2.21Y-3.05
X2.215Y-3.275
X2.26Y-4.24
X2.29Y-4.85
X2.37Y-5.39
X2.3725Y-2.74
X2.425Y-3.125
X2.43Y-3.03
X2.435Y-4.24
X2.445Y-3.175
X2.445Y-3.275
X2.485Y-4.525
X2.485Y-4.575
X2.495Y-4.375
X2.515Y-2.74
X2.54Y-5.44
X2.585Y-4.375
X2.63Y-4.84
X2.65Y-3.76
X2.65Y-4.13
X2.66Y-2.9
X2.67Y-3.03
X2.72Y-5.26
X2.72Y-5.49
X2.73Y-2.94
X2.74Y-4.28
X2.74Y-4.71
X2.84Y-4.28
X2.84Y-4.71
X2.85Y-3.03
X2.855Y-3.275
X2.86Y-5.29
X2.86Y-5.59
X2.94Y-4.84
X3.02Y-5.21
X3.025Y-2.7375
X3.065Y-3.125
X3.07Y-4.83
X3.095Y-3.175
X3.1Y-3.03
X3.105Y-3.275
X3.11Y-4.27
X3.1475Y-2.74
X3.15Y-4.79
X3.19Y-5.21
X3.21Y-4.27
X3.21Y-4.69
X3.26Y-5.19
X3.26Y-5.54
X3.29Y-4.84
X3.3Y-3.74
X3.3Y-4.13
X3.31Y-2.9
X3.31Y-5.49
X3.32Y-3.03
X3.365Y-4.325
X3.365Y-4.475
X3.37Y-2.95
X3.37Y-5.44
X3.41Y-4.75
X3.42Y-5.34
X3.455Y-4.675
X3.465Y-4.325
X3.465Y-4.375
X3.465Y-4.425
X3.465Y-4.475
X3.465Y-4.525
X3.465Y-4.625
X3.495Y-3.275
X3.5Y-3.03
X3.56Y-4.24
X3.59Y-4.84
X3.64Y-6.39
X3.64Y-6.59
X3.68Y-2.74
X3.725Y-3.125
X3.735Y-4.24
X3.74Y-3.03
X3.745Y-3.175
X3.755Y-3.275
X3.775Y-4.375
X3.775Y-4.525
X3.775Y-4.575
X3.78Y-6.39
X3.78Y-6.59
X3.81Y-6.39
X3.81Y-6.59
X3.8225Y-2.74
X3.915Y-4.375
X3.94Y-4.84
X3.95Y-3.76
X3.95Y-4.13
X3.96Y-2.9
X3.97Y-3.03
X4.03Y-2.95
X4.04Y-4.27
X4.04Y-4.69
X4.0528Y-5.9672
X4.14Y-4.27
X4.14Y-4.68
X4.1525Y-3.0325
X4.155Y-3.275
X4.24Y-4.84
X4.31Y-4.74
X4.3325Y-2.7425
X4.385Y-3.125
X4.39Y-3.03
X4.395Y-3.175
X4.405Y-3.275
X4.41Y-4.28
X4.4525Y-2.74
X4.46Y-5.39
X4.47Y-5.93
X4.51Y-4.28
X4.51Y-4.67
X4.59Y-4.85
X4.595Y-4.575
X4.6Y-3.76
X4.6Y-4.13
X4.61Y-2.9
X4.62Y-3.03
X4.63Y-5.93
X4.66Y-6.02
X4.66Y-6.16
X4.67Y-2.95
X4.675Y-4.375
X4.675Y-5.76
X4.69Y-4.79
X4.7Y-5.81
X4.72Y-4.51
X4.74Y-6.22
X4.75Y-4.79
X4.765Y-4.325
X4.765Y-4.375
X4.765Y-4.425
X4.765Y-4.475
X4.765Y-4.525
X4.765Y-4.625
X4.765Y-4.675
X4.795Y-3.275
X4.8Y-3.03
X4.87Y-4.24
X4.89Y-4.85
X4.925Y-6.22
X4.99Y-2.74
X5.025Y-3.125
X5.04Y-3.03
X5.045Y-3.175
X5.045Y-3.275
X5.075Y-4.265
X5.075Y-4.375
X5.075Y-4.575
X5.1Y-4.78
X5.1025Y-2.74
X5.105Y-6.21
X5.115Y-4.425
X5.17Y-5.49
X5.215Y-4.375
X5.24Y-4.85
X5.25Y-3.75
X5.25Y-4.13
X5.26Y-2.9
X5.26Y-3.03
X5.29Y-5.28
X5.29Y-5.44
X5.3Y-6.21
X5.32Y-2.95
X5.34Y-4.29
X5.34Y-4.68
X5.42Y-5.29
X5.44Y-4.28
X5.44Y-4.68
X5.445Y-3.275
X5.45Y-5.59
X5.46Y-3.03
X5.5Y-6.21
X5.54Y-4.85
X5.61Y-5.21
X5.6225Y-2.74
X5.647Y-4.733
X5.665Y-3.125
X5.695Y-3.175
X5.7Y-3.03
X5.7Y-6.22
X5.705Y-3.275
X5.71Y-4.28
X5.75Y-2.74
X5.79Y-5.23
X5.81Y-4.28
X5.81Y-4.67
X5.82Y-5.49
X5.86Y-5.19
X5.86Y-5.54
X5.89Y-4.85
X5.895Y-4.575
X5.9Y-3.76
X5.9Y-4.12
X5.9Y-5.25
X5.9Y-5.44
X5.91Y-2.9
X5.92Y-3.03
X5.94Y-5.34
X5.97Y-2.95
X5.975Y-4.375
X5.98Y-4.79
X6.015Y-5.915
X6.02Y-4.51
X6.04Y-6.14
X6.05Y-4.79
X6.06Y-5.37
X6.065Y-4.325
X6.065Y-4.375
X6.065Y-4.425
X6.065Y-4.475
X6.065Y-4.525
X6.065Y-4.625
X6.065Y-4.675
X6.07Y-5.42
X6.08Y-5.52
X6.08Y-5.62
X6.095Y-3.275
X6.105Y-3.03
X6.17Y-4.24
X6.19Y-4.85
X6.195Y-5.895
X6.24Y-5.22
X6.27Y-2.74
X6.32Y-3.34
X6.36Y-2.74
X6.375Y-4.375
X6.375Y-4.525
X6.375Y-4.575
X6.38Y-4.27
X6.395Y-5.915
X6.42Y-5.24
X6.475Y-3.45
X6.495Y-6.095
X6.515Y-5.93
X6.525Y-6.145
X6.535Y-4.375
X6.54Y-4.85
X6.55Y-3.75
X6.55Y-4.12
X6.55Y-5.56
X6.56Y-3.01
X6.58Y-2.74
X6.7Y-4.76
X6.7Y-5.905
X6.72Y-5.26
X6.73Y-3.01
X6.75Y-5.62
X6.84Y-2.81
X6.84Y-4.85
X6.88Y-5.26
X6.89Y-5.905
X6.92Y-4.76
X6.96Y-2.81
X6.96Y-5.34
X6.96Y-5.58
X6.96Y-6.23
X6.97Y-5.655
X7.0Y-4.27
X7.005Y-3.125
X7.005Y-3.275
X7.01Y-5.47
X7.04Y-5.765
X7.05Y-4.79
X7.06Y-5.51
X7.1Y-4.27
X7.1Y-5.34
X7.1Y-5.91
X7.12Y-5.42
X7.12Y-6.08
X7.1228Y-5.9872
X7.15Y-6.14
X7.1525Y-2.95
X7.17Y-5.39
X7.19Y-3.03
X7.19Y-4.84
X7.2Y-3.76
X7.2Y-4.13
X7.2Y-4.27
X7.2Y-4.69
X7.2Y-5.64
X7.23Y-5.44
X7.24Y-5.29
X7.24Y-5.59
X7.2425Y-2.945
X7.305Y-5.785
X7.33Y-2.9
X7.335Y-4.475
X7.4Y-5.21
X7.405Y-3.175
X7.41Y-3.05
X7.45Y-4.54
X7.46Y-2.74
X7.49Y-4.85
X7.55Y-6.1
X7.56Y-5.21
X7.56Y-5.39
X7.56Y-5.44
X7.56Y-5.49
X7.56Y-5.54
X7.56Y-6.23
X7.59Y-6.1
X7.6Y-2.74
X7.6Y-5.62
X7.615Y-4.375
X7.615Y-4.425
X7.615Y-4.525
X7.615Y-4.625
X7.615Y-4.675
X7.6172Y-6.0128
X7.63Y-5.77
X7.645Y-3.125
X7.645Y-5.9
X7.653Y-5.687
X7.655Y-3.275
X7.77Y-4.24
X7.77Y-5.77
X7.77Y-6.015
X7.77Y-6.23
X7.825Y-5.375
X7.84Y-3.03
X7.84Y-4.85
X7.84Y-5.72
X7.84Y-6.19
X7.85Y-2.96
X7.855Y-5.275
X7.865Y-5.425
X7.865Y-5.575
X7.88Y-3.75
X7.92Y-5.07
X7.925Y-4.575
X7.93Y-4.24
X7.935Y-4.525
X7.96Y-3.44
X8.0Y-5.8
X8.02Y-5.14
X8.045Y-3.03
X8.1625Y-5.8025
X8.18Y-5.14
X8.186Y-6.034
X8.45Y-3.82
X8.45Y-3.98
X8.45Y-4.14
T2
X2.3872Y-5.98
X2.3872Y-6.58
X2.4872Y-5.98
X2.4872Y-6.58
X2.5872Y-5.98
X2.5872Y-6.58
X3.2872Y-5.98
X3.2872Y-6.58
X3.3872Y-5.98
X3.3872Y-6.58
X3.4872Y-5.98
X3.4872Y-6.58
T3
X1.78Y-3.45
X1.78Y-3.65
X1.85Y-3.9113
X1.85Y-3.99
X1.85Y-4.0687
X1.88Y-3.55
X2.08Y-3.45
X2.08Y-3.65
X2.15Y-3.9113
X2.15Y-3.99
X2.15Y-4.0687
X2.18Y-3.55
X2.43Y-3.45
X2.43Y-3.65
X2.5Y-3.9113
X2.5Y-3.99
X2.5Y-4.0687
X2.53Y-3.55
X2.73Y-3.45
X2.73Y-3.65
X2.8Y-3.9113
X2.8Y-3.99
X2.8Y-4.0687
X2.83Y-3.55
X3.08Y-3.45
X3.08Y-3.65
X3.15Y-3.9113
X3.15Y-3.99
X3.15Y-4.0687
X3.18Y-3.55
X3.38Y-3.45
X3.38Y-3.65
X3.45Y-3.9113
X3.45Y-3.99
X3.45Y-4.0687
X3.48Y-3.55
X3.73Y-3.45
X3.73Y-3.65
X3.8Y-3.9113
X3.8Y-3.99
X3.8Y-4.0687
X3.83Y-3.55
X4.03Y-3.45
X4.03Y-3.65
X4.1Y-3.9113
X4.1Y-3.99
X4.1Y-4.0687
X4.13Y-3.55
X4.38Y-3.45
X4.38Y-3.65
X4.45Y-3.9113
X4.45Y-3.99
X4.45Y-4.0687
X4.48Y-3.55
X4.68Y-3.45
X4.68Y-3.65
X4.75Y-3.9113
X4.75Y-3.99
X4.75Y-4.0687
X4.78Y-3.55
X5.03Y-3.45
X5.03Y-3.65
X5.1Y-3.9113
X5.1Y-3.99
X5.1Y-4.0687
X5.13Y-3.55
X5.33Y-3.45
X5.33Y-3.65
X5.4Y-3.9113
X5.4Y-3.99
X5.4Y-4.0687
X5.43Y-3.55
X5.68Y-3.45
X5.68Y-3.65
X5.75Y-3.9113
X5.75Y-3.99
X5.75Y-4.0687
X5.78Y-3.55
X5.98Y-3.45
X5.98Y-3.65
X6.05Y-3.9113
X6.05Y-3.99
X6.05Y-4.0687
X6.08Y-3.55
X6.4Y-3.9113
X6.4Y-3.99
X6.4Y-4.0687
X6.7Y-3.9113
X6.7Y-3.99
X6.7Y-4.0687
X6.98Y-3.45
X6.98Y-3.65
X7.05Y-3.9113
X7.05Y-3.99
X7.05Y-4.0687
X7.08Y-3.55
X7.28Y-3.45
X7.28Y-3.65
X7.35Y-3.9113
X7.35Y-3.99
X7.35Y-4.0687
X7.38Y-3.55
X7.63Y-3.45
X7.63Y-3.65
X7.7Y-3.9113
X7.7Y-3.99
X7.7Y-4.0687
X7.73Y-3.55
X8.357Y-5.9493
X8.357Y-6.028
X8.357Y-6.1067
T4
X6.4554Y-3.1692
X6.5577Y-3.1692
X6.6601Y-3.1692
T5
X2.0925Y-2.4525
X2.2894Y-2.4525
X2.4862Y-2.4525
X2.6831Y-2.4525
X2.8799Y-2.4525
X3.0768Y-2.4525
X3.2736Y-2.4525
X3.4705Y-2.4525
X3.6673Y-2.4525
X3.8642Y-2.4525
X4.1133Y-6.53
X4.1325Y-2.4525
X4.3102Y-6.53
X4.3294Y-2.4525
X4.507Y-6.53
X4.5262Y-2.4525
X4.7039Y-6.53
X4.7231Y-2.4525
X4.9007Y-6.53
X4.9199Y-2.4525
X5.0976Y-6.53
X5.1168Y-2.4525
X5.2944Y-6.53
X5.3136Y-2.4525
X5.4913Y-6.53
X5.5105Y-2.4525
X5.6881Y-6.53
X5.7073Y-2.4525
X5.885Y-6.53
X5.9042Y-2.4525
X6.1583Y-6.53
X6.1675Y-2.4525
X6.3552Y-6.53
X6.3644Y-2.4525
X6.552Y-6.53
X6.5612Y-2.4525
X6.7489Y-6.53
X6.7581Y-2.4525
X6.9457Y-6.53
X6.9549Y-2.4525
X7.1426Y-6.53
X7.1518Y-2.4525
X7.3394Y-6.53
X7.3486Y-2.4525
X7.5363Y-6.53
X7.5455Y-2.4525
X7.7331Y-6.53
X7.7423Y-2.4525
X7.93Y-6.53
X7.9392Y-2.4525
T6
X8.12Y-3.43
X8.12Y-3.6072
X8.3759Y-3.43
X8.3759Y-3.6072
T3
G00X1.8917Y-6.0167
M15
G01X1.8917Y-6.1033
M16
G05
G00X1.9586Y-6.249
M15
G01X2.0452Y-6.249
M16
G05
G00X2.12Y-6.0088
M15
G01X2.12Y-6.1112
M16
G05
T0
M30
