%!PS-Adobe-3.0
%%Creator: PCBNEW
%%CreationDate: Fri Sep 17 08:26:29 2021
%%Title: /Users/zhicai/gDrive/silicon/mac_git/pb_crate_interlock/gerbers/pb_crate_interlock-NPTH-drl_map.ps
%%Pages: 1
%%PageOrder: Ascend
%%BoundingBox: 0 0 596 842
%%DocumentMedia: A4 595 842 0 () ()
%%Orientation: Landscape
%%EndComments
%%BeginProlog
/line { newpath moveto lineto stroke } bind def
/cir0 { newpath 0 360 arc stroke } bind def
/cir1 { newpath 0 360 arc gsave fill grestore stroke } bind def
/cir2 { newpath 0 360 arc gsave fill grestore stroke } bind def
/arc0 { newpath arc stroke } bind def
/arc1 { newpath 4 index 4 index moveto arc closepath gsave fill
    grestore stroke } bind def
/arc2 { newpath 4 index 4 index moveto arc closepath gsave fill
    grestore stroke } bind def
/poly0 { stroke } bind def
/poly1 { closepath gsave fill grestore stroke } bind def
/poly2 { closepath gsave fill grestore stroke } bind def
/rect0 { rectstroke } bind def
/rect1 { rectfill } bind def
/rect2 { rectfill } bind def
/linemode0 { 0 setlinecap 0 setlinejoin 0 setlinewidth } bind def
/linemode1 { 1 setlinecap 1 setlinejoin } bind def
/dashedline { [200] 100 setdash } bind def
/solidline { [] 0 setdash } bind def
/phantomshow { moveto
    /KicadFont findfont 0.000001 scalefont setfont
    show } bind def
/textshow { gsave
    findfont exch scalefont setfont concat 1 scale 0 0 moveto show
    } bind def
/reencodefont {
  findfont dup length dict begin
  { 1 index /FID ne
    { def }
    { pop pop } ifelse
  } forall
  /Encoding ISOLatin1Encoding def
  currentdict
  end } bind def
/KicadFont /Helvetica reencodefont definefont pop
/KicadFont-Bold /Helvetica-Bold reencodefont definefont pop
/KicadFont-Oblique /Helvetica-Oblique reencodefont definefont pop
/KicadFont-BoldOblique /Helvetica-BoldOblique reencodefont definefont pop
%%EndProlog
%%Page: 1 1
%%BeginPageSetup
gsave
0.0072 0.0072 scale
linemode1
82680 0 translate 90 rotate
46.3103 setlinewidth
%%EndPageSetup
0 0 0 setrgbcolor
54.6972 setlinewidth
newpath
26047.8 37036.4 moveto
26047.8 78715.6 lineto
stroke
0 0 0 setrgbcolor
newpath
90882.2 37036.4 moveto
26047.8 37036.4 lineto
stroke
0 0 0 setrgbcolor
newpath
90882.2 78715.6 moveto
90882.2 37036.4 lineto
stroke
0 0 0 setrgbcolor
newpath
26047.8 78715.6 moveto
90882.2 78715.6 lineto
stroke
78.7399 setlinewidth
newpath
29016 64368.2 moveto
29563 63821.2 lineto
stroke
newpath
29563 64368.2 moveto
29016 63821.2 lineto
stroke
newpath
29016 61378.1 moveto
29563 60831.1 lineto
stroke
newpath
29563 61378.1 moveto
29016 60831.1 lineto
stroke
newpath
31794.6 64368.2 moveto
32341.6 63821.2 lineto
stroke
newpath
32341.6 64368.2 moveto
31794.6 63821.2 lineto
stroke
newpath
31794.6 61378.1 moveto
32341.6 60831.1 lineto
stroke
newpath
32341.6 61378.1 moveto
31794.6 60831.1 lineto
stroke
newpath
35036.4 64368.2 moveto
35583.3 63821.2 lineto
stroke
newpath
35583.3 64368.2 moveto
35036.4 63821.2 lineto
stroke
newpath
35036.4 61378.1 moveto
35583.3 60831.1 lineto
stroke
newpath
35583.3 61378.1 moveto
35036.4 60831.1 lineto
stroke
newpath
37815 64368.2 moveto
38361.9 63821.2 lineto
stroke
newpath
38361.9 64368.2 moveto
37815 63821.2 lineto
stroke
newpath
37815 61378.1 moveto
38361.9 60831.1 lineto
stroke
newpath
38361.9 61378.1 moveto
37815 60831.1 lineto
stroke
newpath
41056.7 64368.2 moveto
41603.7 63821.2 lineto
stroke
newpath
41603.7 64368.2 moveto
41056.7 63821.2 lineto
stroke
newpath
41056.7 61378.1 moveto
41603.7 60831.1 lineto
stroke
newpath
41603.7 61378.1 moveto
41056.7 60831.1 lineto
stroke
newpath
43835.3 64368.2 moveto
44382.3 63821.2 lineto
stroke
newpath
44382.3 64368.2 moveto
43835.3 63821.2 lineto
stroke
newpath
43835.3 61378.1 moveto
44382.3 60831.1 lineto
stroke
newpath
44382.3 61378.1 moveto
43835.3 60831.1 lineto
stroke
newpath
47077 64368.2 moveto
47624 63821.2 lineto
stroke
newpath
47624 64368.2 moveto
47077 63821.2 lineto
stroke
newpath
47077 61378.1 moveto
47624 60831.1 lineto
stroke
newpath
47624 61378.1 moveto
47077 60831.1 lineto
stroke
newpath
49855.7 64368.2 moveto
50402.6 63821.2 lineto
stroke
newpath
50402.6 64368.2 moveto
49855.7 63821.2 lineto
stroke
newpath
49855.7 61378.1 moveto
50402.6 60831.1 lineto
stroke
newpath
50402.6 61378.1 moveto
49855.7 60831.1 lineto
stroke
newpath
53097.4 64368.2 moveto
53644.4 63821.2 lineto
stroke
newpath
53644.4 64368.2 moveto
53097.4 63821.2 lineto
stroke
newpath
53097.4 61378.1 moveto
53644.4 60831.1 lineto
stroke
newpath
53644.4 61378.1 moveto
53097.4 60831.1 lineto
stroke
newpath
55876 64368.2 moveto
56423 63821.2 lineto
stroke
newpath
56423 64368.2 moveto
55876 63821.2 lineto
stroke
newpath
55876 61378.1 moveto
56423 60831.1 lineto
stroke
newpath
56423 61378.1 moveto
55876 60831.1 lineto
stroke
newpath
59117.7 64368.2 moveto
59664.7 63821.2 lineto
stroke
newpath
59664.7 64368.2 moveto
59117.7 63821.2 lineto
stroke
newpath
59117.7 61378.1 moveto
59664.7 60831.1 lineto
stroke
newpath
59664.7 61378.1 moveto
59117.7 60831.1 lineto
stroke
newpath
61896.3 64368.2 moveto
62443.3 63821.2 lineto
stroke
newpath
62443.3 64368.2 moveto
61896.3 63821.2 lineto
stroke
newpath
61896.3 61378.1 moveto
62443.3 60831.1 lineto
stroke
newpath
62443.3 61378.1 moveto
61896.3 60831.1 lineto
stroke
newpath
65138.1 64368.2 moveto
65685 63821.2 lineto
stroke
newpath
65685 64368.2 moveto
65138.1 63821.2 lineto
stroke
newpath
65138.1 61378.1 moveto
65685 60831.1 lineto
stroke
newpath
65685 61378.1 moveto
65138.1 60831.1 lineto
stroke
newpath
67916.7 64368.2 moveto
68463.7 63821.2 lineto
stroke
newpath
68463.7 64368.2 moveto
67916.7 63821.2 lineto
stroke
newpath
67916.7 61378.1 moveto
68463.7 60831.1 lineto
stroke
newpath
68463.7 61378.1 moveto
67916.7 60831.1 lineto
stroke
newpath
71158.4 64368.2 moveto
71705.4 63821.2 lineto
stroke
newpath
71705.4 64368.2 moveto
71158.4 63821.2 lineto
stroke
newpath
71158.4 61378.1 moveto
71705.4 60831.1 lineto
stroke
newpath
71705.4 61378.1 moveto
71158.4 60831.1 lineto
stroke
newpath
73937 64368.2 moveto
74484 63821.2 lineto
stroke
newpath
74484 64368.2 moveto
73937 63821.2 lineto
stroke
newpath
73937 61378.1 moveto
74484 60831.1 lineto
stroke
newpath
74484 61378.1 moveto
73937 60831.1 lineto
stroke
newpath
77178.7 64368.2 moveto
77725.7 63821.2 lineto
stroke
newpath
77725.7 64368.2 moveto
77178.7 63821.2 lineto
stroke
newpath
77178.7 61378.1 moveto
77725.7 60831.1 lineto
stroke
newpath
77725.7 61378.1 moveto
77178.7 60831.1 lineto
stroke
newpath
79957.4 64368.2 moveto
80504.3 63821.2 lineto
stroke
newpath
80504.3 64368.2 moveto
79957.4 63821.2 lineto
stroke
newpath
79957.4 61378.1 moveto
80504.3 60831.1 lineto
stroke
newpath
80504.3 61378.1 moveto
79957.4 60831.1 lineto
stroke
newpath
83199.1 64368.2 moveto
83746.1 63821.2 lineto
stroke
newpath
83746.1 64368.2 moveto
83199.1 63821.2 lineto
stroke
newpath
83199.1 61378.1 moveto
83746.1 60831.1 lineto
stroke
newpath
83746.1 61378.1 moveto
83199.1 60831.1 lineto
stroke
newpath
89284.3 45492.1 moveto
89831.2 44945.1 lineto
stroke
newpath
89831.2 45492.1 moveto
89284.3 44945.1 lineto
stroke
newpath
89284.3 42502 moveto
89831.2 41955 lineto
stroke
newpath
89831.2 42502 moveto
89284.3 41955 lineto
stroke
28641.2 76400.1 729.296 cir0
28641.2 39351.9 729.296 cir0
88474.1 76400.1 729.296 cir0
88474.1 39351.9 729.296 cir0
118.11 setlinewidth
0 0 0 setrgbcolor
0 0 0 setrgbcolor
newpath
27148.1 35175.5 moveto
27148.1 36356.6 lineto
27429.3 36356.6 lineto
27598 36300.3 lineto
27710.5 36187.9 lineto
27766.8 36075.4 lineto
27823 35850.4 lineto
27823 35681.7 lineto
27766.8 35456.7 lineto
27710.5 35344.2 lineto
27598 35231.7 lineto
27429.3 35175.5 lineto
27148.1 35175.5 lineto
stroke
newpath
28329.2 35175.5 moveto
28329.2 35962.9 lineto
stroke
newpath
28329.2 35737.9 moveto
28385.4 35850.4 lineto
28441.7 35906.6 lineto
28554.2 35962.9 lineto
28666.7 35962.9 lineto
stroke
newpath
29060.4 35175.5 moveto
29060.4 35962.9 lineto
stroke
newpath
29060.4 36356.6 moveto
29004.1 36300.3 lineto
29060.4 36244.1 lineto
29116.6 36300.3 lineto
29060.4 36356.6 lineto
29060.4 36244.1 lineto
stroke
newpath
29791.5 35175.5 moveto
29679 35231.7 lineto
29622.8 35344.2 lineto
29622.8 36356.6 lineto
stroke
newpath
30410.2 35175.5 moveto
30297.7 35231.7 lineto
30241.5 35344.2 lineto
30241.5 36356.6 lineto
stroke
newpath
31760 35175.5 moveto
31760 36356.6 lineto
32153.7 35512.9 lineto
32547.4 36356.6 lineto
32547.4 35175.5 lineto
stroke
newpath
33616 35175.5 moveto
33616 35794.2 lineto
33559.8 35906.6 lineto
33447.3 35962.9 lineto
33222.3 35962.9 lineto
33109.9 35906.6 lineto
stroke
newpath
33616 35231.7 moveto
33503.6 35175.5 lineto
33222.3 35175.5 lineto
33109.9 35231.7 lineto
33053.6 35344.2 lineto
33053.6 35456.7 lineto
33109.9 35569.2 lineto
33222.3 35625.4 lineto
33503.6 35625.4 lineto
33616 35681.7 lineto
stroke
newpath
34178.5 35962.9 moveto
34178.5 34781.8 lineto
stroke
newpath
34178.5 35906.6 moveto
34291 35962.9 lineto
34515.9 35962.9 lineto
34628.4 35906.6 lineto
34684.7 35850.4 lineto
34740.9 35737.9 lineto
34740.9 35400.5 lineto
34684.7 35288 lineto
34628.4 35231.7 lineto
34515.9 35175.5 lineto
34291 35175.5 lineto
34178.5 35231.7 lineto
stroke
newpath
35247.1 35288 moveto
35303.3 35231.7 lineto
35247.1 35175.5 lineto
35190.8 35231.7 lineto
35247.1 35288 lineto
35247.1 35175.5 lineto
stroke
newpath
35247.1 35906.6 moveto
35303.3 35850.4 lineto
35247.1 35794.2 lineto
35190.8 35850.4 lineto
35247.1 35906.6 lineto
35247.1 35794.2 lineto
stroke
newpath
25473.5 33503 moveto
26020.4 32956 lineto
stroke
newpath
26020.4 33503 moveto
25473.5 32956 lineto
stroke
0 0 0 setrgbcolor
0 0 0 setrgbcolor
newpath
27766.8 32695.2 moveto
27091.9 32695.2 lineto
stroke
newpath
27429.3 32695.2 moveto
27429.3 33876.3 lineto
27316.8 33707.5 lineto
27204.3 33595.1 lineto
27091.9 33538.8 lineto
stroke
newpath
28273 32807.7 moveto
28329.2 32751.4 lineto
28273 32695.2 lineto
28216.7 32751.4 lineto
28273 32807.7 lineto
28273 32695.2 lineto
stroke
newpath
29397.8 33876.3 moveto
28835.4 33876.3 lineto
28779.1 33313.8 lineto
28835.4 33370.1 lineto
28947.9 33426.3 lineto
29229.1 33426.3 lineto
29341.6 33370.1 lineto
29397.8 33313.8 lineto
29454.1 33201.4 lineto
29454.1 32920.1 lineto
29397.8 32807.7 lineto
29341.6 32751.4 lineto
29229.1 32695.2 lineto
28947.9 32695.2 lineto
28835.4 32751.4 lineto
28779.1 32807.7 lineto
stroke
newpath
30185.2 33876.3 moveto
30297.7 33876.3 lineto
30410.2 33820 lineto
30466.4 33763.8 lineto
30522.7 33651.3 lineto
30578.9 33426.3 lineto
30578.9 33145.1 lineto
30522.7 32920.1 lineto
30466.4 32807.7 lineto
30410.2 32751.4 lineto
30297.7 32695.2 lineto
30185.2 32695.2 lineto
30072.7 32751.4 lineto
30016.5 32807.7 lineto
29960.2 32920.1 lineto
29904 33145.1 lineto
29904 33426.3 lineto
29960.2 33651.3 lineto
30016.5 33763.8 lineto
30072.7 33820 lineto
30185.2 33876.3 lineto
stroke
newpath
31085.1 32695.2 moveto
31085.1 33482.6 lineto
stroke
newpath
31085.1 33370.1 moveto
31141.4 33426.3 lineto
31253.8 33482.6 lineto
31422.6 33482.6 lineto
31535.1 33426.3 lineto
31591.3 33313.8 lineto
31591.3 32695.2 lineto
stroke
newpath
31591.3 33313.8 moveto
31647.5 33426.3 lineto
31760 33482.6 lineto
31928.8 33482.6 lineto
32041.2 33426.3 lineto
32097.5 33313.8 lineto
32097.5 32695.2 lineto
stroke
newpath
32659.9 32695.2 moveto
32659.9 33482.6 lineto
stroke
newpath
32659.9 33370.1 moveto
32716.2 33426.3 lineto
32828.6 33482.6 lineto
32997.4 33482.6 lineto
33109.9 33426.3 lineto
33166.1 33313.8 lineto
33166.1 32695.2 lineto
stroke
newpath
33166.1 33313.8 moveto
33222.3 33426.3 lineto
33334.8 33482.6 lineto
33503.6 33482.6 lineto
33616 33426.3 lineto
33672.3 33313.8 lineto
33672.3 32695.2 lineto
stroke
newpath
35978.2 33932.5 moveto
34965.9 32414 lineto
stroke
newpath
37496.8 33876.3 moveto
37609.3 33876.3 lineto
37721.8 33820 lineto
37778 33763.8 lineto
37834.3 33651.3 lineto
37890.5 33426.3 lineto
37890.5 33145.1 lineto
37834.3 32920.1 lineto
37778 32807.7 lineto
37721.8 32751.4 lineto
37609.3 32695.2 lineto
37496.8 32695.2 lineto
37384.3 32751.4 lineto
37328.1 32807.7 lineto
37271.8 32920.1 lineto
37215.6 33145.1 lineto
37215.6 33426.3 lineto
37271.8 33651.3 lineto
37328.1 33763.8 lineto
37384.3 33820 lineto
37496.8 33876.3 lineto
stroke
newpath
38396.7 32807.7 moveto
38452.9 32751.4 lineto
38396.7 32695.2 lineto
38340.5 32751.4 lineto
38396.7 32807.7 lineto
38396.7 32695.2 lineto
stroke
newpath
39184.1 33876.3 moveto
39296.6 33876.3 lineto
39409.1 33820 lineto
39465.3 33763.8 lineto
39521.6 33651.3 lineto
39577.8 33426.3 lineto
39577.8 33145.1 lineto
39521.6 32920.1 lineto
39465.3 32807.7 lineto
39409.1 32751.4 lineto
39296.6 32695.2 lineto
39184.1 32695.2 lineto
39071.6 32751.4 lineto
39015.4 32807.7 lineto
38959.1 32920.1 lineto
38902.9 33145.1 lineto
38902.9 33426.3 lineto
38959.1 33651.3 lineto
39015.4 33763.8 lineto
39071.6 33820 lineto
39184.1 33876.3 lineto
stroke
newpath
40646.4 33876.3 moveto
40084 33876.3 lineto
40027.7 33313.8 lineto
40084 33370.1 lineto
40196.5 33426.3 lineto
40477.7 33426.3 lineto
40590.2 33370.1 lineto
40646.4 33313.8 lineto
40702.7 33201.4 lineto
40702.7 32920.1 lineto
40646.4 32807.7 lineto
40590.2 32751.4 lineto
40477.7 32695.2 lineto
40196.5 32695.2 lineto
40084 32751.4 lineto
40027.7 32807.7 lineto
stroke
newpath
41265.1 32695.2 moveto
41490.1 32695.2 lineto
41602.5 32751.4 lineto
41658.8 32807.7 lineto
41771.3 32976.4 lineto
41827.5 33201.4 lineto
41827.5 33651.3 lineto
41771.3 33763.8 lineto
41715 33820 lineto
41602.5 33876.3 lineto
41377.6 33876.3 lineto
41265.1 33820 lineto
41208.8 33763.8 lineto
41152.6 33651.3 lineto
41152.6 33370.1 lineto
41208.8 33257.6 lineto
41265.1 33201.4 lineto
41377.6 33145.1 lineto
41602.5 33145.1 lineto
41715 33201.4 lineto
41771.3 33257.6 lineto
41827.5 33370.1 lineto
stroke
newpath
42277.5 33876.3 moveto
42277.5 33651.3 lineto
stroke
newpath
42727.4 33876.3 moveto
42727.4 33651.3 lineto
stroke
newpath
44470.9 32245.2 moveto
44414.7 32301.5 lineto
44302.2 32470.2 lineto
44246 32582.7 lineto
44189.7 32751.4 lineto
44133.5 33032.6 lineto
44133.5 33257.6 lineto
44189.7 33538.8 lineto
44246 33707.5 lineto
44302.2 33820 lineto
44414.7 33988.8 lineto
44470.9 34045 lineto
stroke
newpath
45427.1 33482.6 moveto
45427.1 32695.2 lineto
stroke
newpath
45145.9 33932.5 moveto
44864.6 33088.9 lineto
45595.8 33088.9 lineto
stroke
newpath
46270.7 33876.3 moveto
46383.2 33876.3 lineto
46495.7 33820 lineto
46551.9 33763.8 lineto
46608.2 33651.3 lineto
46664.4 33426.3 lineto
46664.4 33145.1 lineto
46608.2 32920.1 lineto
46551.9 32807.7 lineto
46495.7 32751.4 lineto
46383.2 32695.2 lineto
46270.7 32695.2 lineto
46158.2 32751.4 lineto
46102 32807.7 lineto
46045.7 32920.1 lineto
45989.5 33145.1 lineto
45989.5 33426.3 lineto
46045.7 33651.3 lineto
46102 33763.8 lineto
46158.2 33820 lineto
46270.7 33876.3 lineto
stroke
newpath
48070.5 32695.2 moveto
48070.5 33876.3 lineto
stroke
newpath
48576.7 32695.2 moveto
48576.7 33313.8 lineto
48520.4 33426.3 lineto
48407.9 33482.6 lineto
48239.2 33482.6 lineto
48126.7 33426.3 lineto
48070.5 33370.1 lineto
stroke
newpath
49307.8 32695.2 moveto
49195.3 32751.4 lineto
49139.1 32807.7 lineto
49082.9 32920.1 lineto
49082.9 33257.6 lineto
49139.1 33370.1 lineto
49195.3 33426.3 lineto
49307.8 33482.6 lineto
49476.6 33482.6 lineto
49589 33426.3 lineto
49645.3 33370.1 lineto
49701.5 33257.6 lineto
49701.5 32920.1 lineto
49645.3 32807.7 lineto
49589 32751.4 lineto
49476.6 32695.2 lineto
49307.8 32695.2 lineto
stroke
newpath
50376.4 32695.2 moveto
50264 32751.4 lineto
50207.7 32863.9 lineto
50207.7 33876.3 lineto
stroke
newpath
51276.3 32751.4 moveto
51163.8 32695.2 lineto
50938.9 32695.2 lineto
50826.4 32751.4 lineto
50770.1 32863.9 lineto
50770.1 33313.8 lineto
50826.4 33426.3 lineto
50938.9 33482.6 lineto
51163.8 33482.6 lineto
51276.3 33426.3 lineto
51332.6 33313.8 lineto
51332.6 33201.4 lineto
50770.1 33088.9 lineto
stroke
newpath
51782.5 32751.4 moveto
51895 32695.2 lineto
52120 32695.2 lineto
52232.5 32751.4 lineto
52288.7 32863.9 lineto
52288.7 32920.1 lineto
52232.5 33032.6 lineto
52120 33088.9 lineto
51951.2 33088.9 lineto
51838.8 33145.1 lineto
51782.5 33257.6 lineto
51782.5 33313.8 lineto
51838.8 33426.3 lineto
51951.2 33482.6 lineto
52120 33482.6 lineto
52232.5 33426.3 lineto
stroke
newpath
52682.4 32245.2 moveto
52738.7 32301.5 lineto
52851.1 32470.2 lineto
52907.4 32582.7 lineto
52963.6 32751.4 lineto
53019.9 33032.6 lineto
53019.9 33257.6 lineto
52963.6 33538.8 lineto
52907.4 33707.5 lineto
52851.1 33820 lineto
52738.7 33988.8 lineto
52682.4 34045 lineto
stroke
newpath
54819.6 32245.2 moveto
54763.4 32301.5 lineto
54650.9 32470.2 lineto
54594.7 32582.7 lineto
54538.4 32751.4 lineto
54482.2 33032.6 lineto
54482.2 33257.6 lineto
54538.4 33538.8 lineto
54594.7 33707.5 lineto
54650.9 33820 lineto
54763.4 33988.8 lineto
54819.6 34045 lineto
stroke
newpath
55269.6 33482.6 moveto
55269.6 32695.2 lineto
stroke
newpath
55269.6 33370.1 moveto
55325.8 33426.3 lineto
55438.3 33482.6 lineto
55607 33482.6 lineto
55719.5 33426.3 lineto
55775.8 33313.8 lineto
55775.8 32695.2 lineto
stroke
newpath
56506.9 32695.2 moveto
56394.4 32751.4 lineto
56338.2 32807.7 lineto
56282 32920.1 lineto
56282 33257.6 lineto
56338.2 33370.1 lineto
56394.4 33426.3 lineto
56506.9 33482.6 lineto
56675.7 33482.6 lineto
56788.1 33426.3 lineto
56844.4 33370.1 lineto
56900.6 33257.6 lineto
56900.6 32920.1 lineto
56844.4 32807.7 lineto
56788.1 32751.4 lineto
56675.7 32695.2 lineto
56506.9 32695.2 lineto
stroke
newpath
57238.1 33482.6 moveto
57688 33482.6 lineto
stroke
newpath
57406.8 33876.3 moveto
57406.8 32863.9 lineto
57463.1 32751.4 lineto
57575.5 32695.2 lineto
57688 32695.2 lineto
stroke
newpath
58981.6 33482.6 moveto
58981.6 32301.5 lineto
stroke
newpath
58981.6 33426.3 moveto
59094.1 33482.6 lineto
59319.1 33482.6 lineto
59431.6 33426.3 lineto
59487.8 33370.1 lineto
59544.1 33257.6 lineto
59544.1 32920.1 lineto
59487.8 32807.7 lineto
59431.6 32751.4 lineto
59319.1 32695.2 lineto
59094.1 32695.2 lineto
58981.6 32751.4 lineto
stroke
newpath
60219 32695.2 moveto
60106.5 32751.4 lineto
60050.2 32863.9 lineto
60050.2 33876.3 lineto
stroke
newpath
61175.1 32695.2 moveto
61175.1 33313.8 lineto
61118.9 33426.3 lineto
61006.4 33482.6 lineto
60781.4 33482.6 lineto
60668.9 33426.3 lineto
stroke
newpath
61175.1 32751.4 moveto
61062.6 32695.2 lineto
60781.4 32695.2 lineto
60668.9 32751.4 lineto
60612.7 32863.9 lineto
60612.7 32976.4 lineto
60668.9 33088.9 lineto
60781.4 33145.1 lineto
61062.6 33145.1 lineto
61175.1 33201.4 lineto
stroke
newpath
61568.8 33482.6 moveto
62018.7 33482.6 lineto
stroke
newpath
61737.5 33876.3 moveto
61737.5 32863.9 lineto
61793.8 32751.4 lineto
61906.3 32695.2 lineto
62018.7 32695.2 lineto
stroke
newpath
62862.4 32751.4 moveto
62749.9 32695.2 lineto
62524.9 32695.2 lineto
62412.4 32751.4 lineto
62356.2 32863.9 lineto
62356.2 33313.8 lineto
62412.4 33426.3 lineto
62524.9 33482.6 lineto
62749.9 33482.6 lineto
62862.4 33426.3 lineto
62918.6 33313.8 lineto
62918.6 33201.4 lineto
62356.2 33088.9 lineto
stroke
newpath
63931 32695.2 moveto
63931 33876.3 lineto
stroke
newpath
63931 32751.4 moveto
63818.5 32695.2 lineto
63593.5 32695.2 lineto
63481.1 32751.4 lineto
63424.8 32807.7 lineto
63368.6 32920.1 lineto
63368.6 33257.6 lineto
63424.8 33370.1 lineto
63481.1 33426.3 lineto
63593.5 33482.6 lineto
63818.5 33482.6 lineto
63931 33426.3 lineto
stroke
newpath
64380.9 32245.2 moveto
64437.2 32301.5 lineto
64549.7 32470.2 lineto
64605.9 32582.7 lineto
64662.2 32751.4 lineto
64718.4 33032.6 lineto
64718.4 33257.6 lineto
64662.2 33538.8 lineto
64605.9 33707.5 lineto
64549.7 33820 lineto
64437.2 33988.8 lineto
64380.9 34045 lineto
stroke
25291.1 31670.4 729.296 cir0
0 0 0 setrgbcolor
0 0 0 setrgbcolor
newpath
27654.3 31923.5 moveto
27654.3 31136.1 lineto
stroke
newpath
27373.1 32373.5 moveto
27091.9 31529.8 lineto
27823 31529.8 lineto
stroke
newpath
28273 31248.6 moveto
28329.2 31192.4 lineto
28273 31136.1 lineto
28216.7 31192.4 lineto
28273 31248.6 lineto
28273 31136.1 lineto
stroke
newpath
29060.4 32317.2 moveto
29172.8 32317.2 lineto
29285.3 32261 lineto
29341.6 32204.7 lineto
29397.8 32092.2 lineto
29454.1 31867.3 lineto
29454.1 31586.1 lineto
29397.8 31361.1 lineto
29341.6 31248.6 lineto
29285.3 31192.4 lineto
29172.8 31136.1 lineto
29060.4 31136.1 lineto
28947.9 31192.4 lineto
28891.6 31248.6 lineto
28835.4 31361.1 lineto
28779.1 31586.1 lineto
28779.1 31867.3 lineto
28835.4 32092.2 lineto
28891.6 32204.7 lineto
28947.9 32261 lineto
29060.4 32317.2 lineto
stroke
newpath
30185.2 32317.2 moveto
30297.7 32317.2 lineto
30410.2 32261 lineto
30466.4 32204.7 lineto
30522.7 32092.2 lineto
30578.9 31867.3 lineto
30578.9 31586.1 lineto
30522.7 31361.1 lineto
30466.4 31248.6 lineto
30410.2 31192.4 lineto
30297.7 31136.1 lineto
30185.2 31136.1 lineto
30072.7 31192.4 lineto
30016.5 31248.6 lineto
29960.2 31361.1 lineto
29904 31586.1 lineto
29904 31867.3 lineto
29960.2 32092.2 lineto
30016.5 32204.7 lineto
30072.7 32261 lineto
30185.2 32317.2 lineto
stroke
newpath
31085.1 31136.1 moveto
31085.1 31923.5 lineto
stroke
newpath
31085.1 31811 moveto
31141.4 31867.3 lineto
31253.8 31923.5 lineto
31422.6 31923.5 lineto
31535.1 31867.3 lineto
31591.3 31754.8 lineto
31591.3 31136.1 lineto
stroke
newpath
31591.3 31754.8 moveto
31647.5 31867.3 lineto
31760 31923.5 lineto
31928.8 31923.5 lineto
32041.2 31867.3 lineto
32097.5 31754.8 lineto
32097.5 31136.1 lineto
stroke
newpath
32659.9 31136.1 moveto
32659.9 31923.5 lineto
stroke
newpath
32659.9 31811 moveto
32716.2 31867.3 lineto
32828.6 31923.5 lineto
32997.4 31923.5 lineto
33109.9 31867.3 lineto
33166.1 31754.8 lineto
33166.1 31136.1 lineto
stroke
newpath
33166.1 31754.8 moveto
33222.3 31867.3 lineto
33334.8 31923.5 lineto
33503.6 31923.5 lineto
33616 31867.3 lineto
33672.3 31754.8 lineto
33672.3 31136.1 lineto
stroke
newpath
35978.2 32373.5 moveto
34965.9 30854.9 lineto
stroke
newpath
37496.8 32317.2 moveto
37609.3 32317.2 lineto
37721.8 32261 lineto
37778 32204.7 lineto
37834.3 32092.2 lineto
37890.5 31867.3 lineto
37890.5 31586.1 lineto
37834.3 31361.1 lineto
37778 31248.6 lineto
37721.8 31192.4 lineto
37609.3 31136.1 lineto
37496.8 31136.1 lineto
37384.3 31192.4 lineto
37328.1 31248.6 lineto
37271.8 31361.1 lineto
37215.6 31586.1 lineto
37215.6 31867.3 lineto
37271.8 32092.2 lineto
37328.1 32204.7 lineto
37384.3 32261 lineto
37496.8 32317.2 lineto
stroke
newpath
38396.7 31248.6 moveto
38452.9 31192.4 lineto
38396.7 31136.1 lineto
38340.5 31192.4 lineto
38396.7 31248.6 lineto
38396.7 31136.1 lineto
stroke
newpath
39577.8 31136.1 moveto
38902.9 31136.1 lineto
stroke
newpath
39240.3 31136.1 moveto
39240.3 32317.2 lineto
39127.9 32148.5 lineto
39015.4 32036 lineto
38902.9 31979.8 lineto
stroke
newpath
40646.4 32317.2 moveto
40084 32317.2 lineto
40027.7 31754.8 lineto
40084 31811 lineto
40196.5 31867.3 lineto
40477.7 31867.3 lineto
40590.2 31811 lineto
40646.4 31754.8 lineto
40702.7 31642.3 lineto
40702.7 31361.1 lineto
40646.4 31248.6 lineto
40590.2 31192.4 lineto
40477.7 31136.1 lineto
40196.5 31136.1 lineto
40084 31192.4 lineto
40027.7 31248.6 lineto
stroke
newpath
41096.4 32317.2 moveto
41883.8 32317.2 lineto
41377.6 31136.1 lineto
stroke
newpath
42277.5 32317.2 moveto
42277.5 32092.2 lineto
stroke
newpath
42727.4 32317.2 moveto
42727.4 32092.2 lineto
stroke
newpath
44470.9 30686.2 moveto
44414.7 30742.4 lineto
44302.2 30911.1 lineto
44246 31023.6 lineto
44189.7 31192.4 lineto
44133.5 31473.6 lineto
44133.5 31698.5 lineto
44189.7 31979.8 lineto
44246 32148.5 lineto
44302.2 32261 lineto
44414.7 32429.7 lineto
44470.9 32485.9 lineto
stroke
newpath
45427.1 31923.5 moveto
45427.1 31136.1 lineto
stroke
newpath
45145.9 32373.5 moveto
44864.6 31529.8 lineto
45595.8 31529.8 lineto
stroke
newpath
46945.6 31136.1 moveto
46945.6 32317.2 lineto
stroke
newpath
47451.8 31136.1 moveto
47451.8 31754.8 lineto
47395.6 31867.3 lineto
47283.1 31923.5 lineto
47114.4 31923.5 lineto
47001.9 31867.3 lineto
46945.6 31811 lineto
stroke
newpath
48183 31136.1 moveto
48070.5 31192.4 lineto
48014.2 31248.6 lineto
47958 31361.1 lineto
47958 31698.5 lineto
48014.2 31811 lineto
48070.5 31867.3 lineto
48183 31923.5 lineto
48351.7 31923.5 lineto
48464.2 31867.3 lineto
48520.4 31811 lineto
48576.7 31698.5 lineto
48576.7 31361.1 lineto
48520.4 31248.6 lineto
48464.2 31192.4 lineto
48351.7 31136.1 lineto
48183 31136.1 lineto
stroke
newpath
49251.6 31136.1 moveto
49139.1 31192.4 lineto
49082.9 31304.8 lineto
49082.9 32317.2 lineto
stroke
newpath
50151.5 31192.4 moveto
50039 31136.1 lineto
49814 31136.1 lineto
49701.5 31192.4 lineto
49645.3 31304.8 lineto
49645.3 31754.8 lineto
49701.5 31867.3 lineto
49814 31923.5 lineto
50039 31923.5 lineto
50151.5 31867.3 lineto
50207.7 31754.8 lineto
50207.7 31642.3 lineto
49645.3 31529.8 lineto
stroke
newpath
50657.7 31192.4 moveto
50770.1 31136.1 lineto
50995.1 31136.1 lineto
51107.6 31192.4 lineto
51163.8 31304.8 lineto
51163.8 31361.1 lineto
51107.6 31473.6 lineto
50995.1 31529.8 lineto
50826.4 31529.8 lineto
50713.9 31586.1 lineto
50657.7 31698.5 lineto
50657.7 31754.8 lineto
50713.9 31867.3 lineto
50826.4 31923.5 lineto
50995.1 31923.5 lineto
51107.6 31867.3 lineto
stroke
newpath
51557.5 30686.2 moveto
51613.8 30742.4 lineto
51726.3 30911.1 lineto
51782.5 31023.6 lineto
51838.8 31192.4 lineto
51895 31473.6 lineto
51895 31698.5 lineto
51838.8 31979.8 lineto
51782.5 32148.5 lineto
51726.3 32261 lineto
51613.8 32429.7 lineto
51557.5 32485.9 lineto
stroke
newpath
53694.8 30686.2 moveto
53638.5 30742.4 lineto
53526.1 30911.1 lineto
53469.8 31023.6 lineto
53413.6 31192.4 lineto
53357.3 31473.6 lineto
53357.3 31698.5 lineto
53413.6 31979.8 lineto
53469.8 32148.5 lineto
53526.1 32261 lineto
53638.5 32429.7 lineto
53694.8 32485.9 lineto
stroke
newpath
54144.7 31923.5 moveto
54144.7 31136.1 lineto
stroke
newpath
54144.7 31811 moveto
54201 31867.3 lineto
54313.5 31923.5 lineto
54482.2 31923.5 lineto
54594.7 31867.3 lineto
54650.9 31754.8 lineto
54650.9 31136.1 lineto
stroke
newpath
55382.1 31136.1 moveto
55269.6 31192.4 lineto
55213.3 31248.6 lineto
55157.1 31361.1 lineto
55157.1 31698.5 lineto
55213.3 31811 lineto
55269.6 31867.3 lineto
55382.1 31923.5 lineto
55550.8 31923.5 lineto
55663.3 31867.3 lineto
55719.5 31811 lineto
55775.8 31698.5 lineto
55775.8 31361.1 lineto
55719.5 31248.6 lineto
55663.3 31192.4 lineto
55550.8 31136.1 lineto
55382.1 31136.1 lineto
stroke
newpath
56113.2 31923.5 moveto
56563.2 31923.5 lineto
stroke
newpath
56282 32317.2 moveto
56282 31304.8 lineto
56338.2 31192.4 lineto
56450.7 31136.1 lineto
56563.2 31136.1 lineto
stroke
newpath
57856.8 31923.5 moveto
57856.8 30742.4 lineto
stroke
newpath
57856.8 31867.3 moveto
57969.2 31923.5 lineto
58194.2 31923.5 lineto
58306.7 31867.3 lineto
58362.9 31811 lineto
58419.2 31698.5 lineto
58419.2 31361.1 lineto
58362.9 31248.6 lineto
58306.7 31192.4 lineto
58194.2 31136.1 lineto
57969.2 31136.1 lineto
57856.8 31192.4 lineto
stroke
newpath
59094.1 31136.1 moveto
58981.6 31192.4 lineto
58925.4 31304.8 lineto
58925.4 32317.2 lineto
stroke
newpath
60050.2 31136.1 moveto
60050.2 31754.8 lineto
59994 31867.3 lineto
59881.5 31923.5 lineto
59656.5 31923.5 lineto
59544.1 31867.3 lineto
stroke
newpath
60050.2 31192.4 moveto
59937.8 31136.1 lineto
59656.5 31136.1 lineto
59544.1 31192.4 lineto
59487.8 31304.8 lineto
59487.8 31417.3 lineto
59544.1 31529.8 lineto
59656.5 31586.1 lineto
59937.8 31586.1 lineto
60050.2 31642.3 lineto
stroke
newpath
60443.9 31923.5 moveto
60893.9 31923.5 lineto
stroke
newpath
60612.7 32317.2 moveto
60612.7 31304.8 lineto
60668.9 31192.4 lineto
60781.4 31136.1 lineto
60893.9 31136.1 lineto
stroke
newpath
61737.5 31192.4 moveto
61625 31136.1 lineto
61400.1 31136.1 lineto
61287.6 31192.4 lineto
61231.3 31304.8 lineto
61231.3 31754.8 lineto
61287.6 31867.3 lineto
61400.1 31923.5 lineto
61625 31923.5 lineto
61737.5 31867.3 lineto
61793.8 31754.8 lineto
61793.8 31642.3 lineto
61231.3 31529.8 lineto
stroke
newpath
62806.1 31136.1 moveto
62806.1 32317.2 lineto
stroke
newpath
62806.1 31192.4 moveto
62693.7 31136.1 lineto
62468.7 31136.1 lineto
62356.2 31192.4 lineto
62300 31248.6 lineto
62243.7 31361.1 lineto
62243.7 31698.5 lineto
62300 31811 lineto
62356.2 31867.3 lineto
62468.7 31923.5 lineto
62693.7 31923.5 lineto
62806.1 31867.3 lineto
stroke
newpath
63256.1 30686.2 moveto
63312.3 30742.4 lineto
63424.8 30911.1 lineto
63481.1 31023.6 lineto
63537.3 31192.4 lineto
63593.5 31473.6 lineto
63593.5 31698.5 lineto
63537.3 31979.8 lineto
63481.1 32148.5 lineto
63424.8 32261 lineto
63312.3 32429.7 lineto
63256.1 32485.9 lineto
stroke
showpage
grestore
%%EOF
