
(module SOIC127P600X175-14N (layer F.Cu) (tedit 61136006)
  (descr "")
  (fp_text reference REF** (at -0.425 -5.435 0) (layer F.SilkS)
    (effects (font (size 1.0 1.0) (thickness 0.15)))
  )
  (fp_text value SOIC127P600X175-14N (at 8.465 5.435 0) (layer F.Fab)
    (effects (font (size 1.0 1.0) (thickness 0.15)))
  )
  (fp_line (start -1.17 4.325) (end 1.17 4.325) (layer F.SilkS) (width 0.127))
  (fp_line (start -1.17 -4.325) (end 1.17 -4.325) (layer F.SilkS) (width 0.127))
  (fp_line (start -1.95 -4.325) (end 1.95 -4.325) (layer F.Fab) (width 0.127))
  (fp_line (start 1.95 -4.325) (end 1.95 4.325) (layer F.Fab) (width 0.127))
  (fp_line (start 1.95 4.325) (end -1.95 4.325) (layer F.Fab) (width 0.127))
  (fp_line (start -1.95 4.325) (end -1.95 -4.325) (layer F.Fab) (width 0.127))
  (fp_line (start -3.71 -4.575) (end 3.71 -4.575) (layer F.CrtYd) (width 0.05))
  (fp_line (start 3.71 -4.575) (end 3.71 4.575) (layer F.CrtYd) (width 0.05))
  (fp_line (start 3.71 4.575) (end -3.71 4.575) (layer F.CrtYd) (width 0.05))
  (fp_line (start -3.71 4.575) (end -3.71 -4.575) (layer F.CrtYd) (width 0.05))
  (fp_circle (center -4.05 -4.1) (end -3.95 -4.1) (layer F.SilkS) (width 0.2))
  (fp_circle (center -4.05 -4.1) (end -3.95 -4.1) (layer F.Fab) (width 0.2))
  (pad 1 smd rect (at -2.475 -3.81) (size 1.97 0.6) (layers F.Cu F.Mask F.Paste))
  (pad 2 smd rect (at -2.475 -2.54) (size 1.97 0.6) (layers F.Cu F.Mask F.Paste))
  (pad 3 smd rect (at -2.475 -1.27) (size 1.97 0.6) (layers F.Cu F.Mask F.Paste))
  (pad 4 smd rect (at -2.475 0.0) (size 1.97 0.6) (layers F.Cu F.Mask F.Paste))
  (pad 5 smd rect (at -2.475 1.27) (size 1.97 0.6) (layers F.Cu F.Mask F.Paste))
  (pad 6 smd rect (at -2.475 2.54) (size 1.97 0.6) (layers F.Cu F.Mask F.Paste))
  (pad 7 smd rect (at -2.475 3.81) (size 1.97 0.6) (layers F.Cu F.Mask F.Paste))
  (pad 8 smd rect (at 2.475 3.81) (size 1.97 0.6) (layers F.Cu F.Mask F.Paste))
  (pad 9 smd rect (at 2.475 2.54) (size 1.97 0.6) (layers F.Cu F.Mask F.Paste))
  (pad 10 smd rect (at 2.475 1.27) (size 1.97 0.6) (layers F.Cu F.Mask F.Paste))
  (pad 11 smd rect (at 2.475 0.0) (size 1.97 0.6) (layers F.Cu F.Mask F.Paste))
  (pad 12 smd rect (at 2.475 -1.27) (size 1.97 0.6) (layers F.Cu F.Mask F.Paste))
  (pad 13 smd rect (at 2.475 -2.54) (size 1.97 0.6) (layers F.Cu F.Mask F.Paste))
  (pad 14 smd rect (at 2.475 -3.81) (size 1.97 0.6) (layers F.Cu F.Mask F.Paste))
)